%!PS-Adobe-3.0 EPSF-3.0
%%Creator: (MATLAB, The Mathworks, Inc. Version 9.12.0.1956245 \(R2022a\) Update 2. Operating System: Linux)
%%Title: ./fig_ofdm_multif.eps
%%CreationDate: 2022-08-04T15:48:12
%%Pages: (atend)
%%BoundingBox:    19     3   416   295
%%LanguageLevel: 3
%%EndComments
%%BeginProlog
%%BeginResource: procset (Apache XML Graphics Std ProcSet) 1.2 0
%%Version: 1.2 0
%%Copyright: (Copyright 2001-2003,2010 The Apache Software Foundation. License terms: http://www.apache.org/licenses/LICENSE-2.0)
/bd{bind def}bind def
/ld{load def}bd
/GR/grestore ld
/GS/gsave ld
/RM/rmoveto ld
/C/curveto ld
/t/show ld
/L/lineto ld
/ML/setmiterlimit ld
/CT/concat ld
/f/fill ld
/N/newpath ld
/S/stroke ld
/CC/setcmykcolor ld
/A/ashow ld
/cp/closepath ld
/RC/setrgbcolor ld
/LJ/setlinejoin ld
/GC/setgray ld
/LW/setlinewidth ld
/M/moveto ld
/re {4 2 roll M
1 index 0 rlineto
0 exch rlineto
neg 0 rlineto
cp } bd
/_ctm matrix def
/_tm matrix def
/BT { _ctm currentmatrix pop matrix _tm copy pop 0 0 moveto } bd
/ET { _ctm setmatrix } bd
/iTm { _ctm setmatrix _tm concat } bd
/Tm { _tm astore pop iTm 0 0 moveto } bd
/ux 0.0 def
/uy 0.0 def
/F {
  /Tp exch def
  /Tf exch def
  Tf findfont Tp scalefont setfont
  /cf Tf def  /cs Tp def
} bd
/ULS {currentpoint /uy exch def /ux exch def} bd
/ULE {
  /Tcx currentpoint pop def
  gsave
  newpath
  cf findfont cs scalefont dup
  /FontMatrix get 0 get /Ts exch def /FontInfo get dup
  /UnderlinePosition get Ts mul /To exch def
  /UnderlineThickness get Ts mul /Tt exch def
  ux uy To add moveto  Tcx uy To add lineto
  Tt setlinewidth stroke
  grestore
} bd
/OLE {
  /Tcx currentpoint pop def
  gsave
  newpath
  cf findfont cs scalefont dup
  /FontMatrix get 0 get /Ts exch def /FontInfo get dup
  /UnderlinePosition get Ts mul /To exch def
  /UnderlineThickness get Ts mul /Tt exch def
  ux uy To add cs add moveto Tcx uy To add cs add lineto
  Tt setlinewidth stroke
  grestore
} bd
/SOE {
  /Tcx currentpoint pop def
  gsave
  newpath
  cf findfont cs scalefont dup
  /FontMatrix get 0 get /Ts exch def /FontInfo get dup
  /UnderlinePosition get Ts mul /To exch def
  /UnderlineThickness get Ts mul /Tt exch def
  ux uy To add cs 10 mul 26 idiv add moveto Tcx uy To add cs 10 mul 26 idiv add lineto
  Tt setlinewidth stroke
  grestore
} bd
/QT {
/Y22 exch store
/X22 exch store
/Y21 exch store
/X21 exch store
currentpoint
/Y21 load 2 mul add 3 div exch
/X21 load 2 mul add 3 div exch
/X21 load 2 mul /X22 load add 3 div
/Y21 load 2 mul /Y22 load add 3 div
/X22 load /Y22 load curveto
} bd
/SSPD {
dup length /d exch dict def
{
/v exch def
/k exch def
currentpagedevice k known {
/cpdv currentpagedevice k get def
v cpdv ne {
/upd false def
/nullv v type /nulltype eq def
/nullcpdv cpdv type /nulltype eq def
nullv nullcpdv or
{
/upd true def
} {
/sametype v type cpdv type eq def
sametype {
v type /arraytype eq {
/vlen v length def
/cpdvlen cpdv length def
vlen cpdvlen eq {
0 1 vlen 1 sub {
/i exch def
/obj v i get def
/cpdobj cpdv i get def
obj cpdobj ne {
/upd true def
exit
} if
} for
} {
/upd true def
} ifelse
} {
v type /dicttype eq {
v {
/dv exch def
/dk exch def
/cpddv cpdv dk get def
dv cpddv ne {
/upd true def
exit
} if
} forall
} {
/upd true def
} ifelse
} ifelse
} if
} ifelse
upd true eq {
d k v put
} if
} if
} if
} forall
d length 0 gt {
d setpagedevice
} if
} bd
/RE { % /NewFontName [NewEncodingArray] /FontName RE -
  findfont dup length dict begin
  {
    1 index /FID ne
    {def} {pop pop} ifelse
  } forall
  /Encoding exch def
  /FontName 1 index def
  currentdict definefont pop
  end
} bind def
%%EndResource
%%BeginResource: procset (Apache XML Graphics EPS ProcSet) 1.0 0
%%Version: 1.0 0
%%Copyright: (Copyright 2002-2003 The Apache Software Foundation. License terms: http://www.apache.org/licenses/LICENSE-2.0)
/BeginEPSF { %def
/b4_Inc_state save def         % Save state for cleanup
/dict_count countdictstack def % Count objects on dict stack
/op_count count 1 sub def      % Count objects on operand stack
userdict begin                 % Push userdict on dict stack
/showpage { } def              % Redefine showpage, { } = null proc
0 setgray 0 setlinecap         % Prepare graphics state
1 setlinewidth 0 setlinejoin
10 setmiterlimit [ ] 0 setdash newpath
/languagelevel where           % If level not equal to 1 then
{pop languagelevel             % set strokeadjust and
1 ne                           % overprint to their defaults.
{false setstrokeadjust false setoverprint
} if
} if
} bd
/EndEPSF { %def
count op_count sub {pop} repeat            % Clean up stacks
countdictstack dict_count sub {end} repeat
b4_Inc_state restore
} bd
%%EndResource
%FOPBeginFontDict
%%IncludeResource: font Courier-Oblique
%%IncludeResource: font Courier-BoldOblique
%%IncludeResource: font Courier-Bold
%%IncludeResource: font ZapfDingbats
%%IncludeResource: font Symbol
%%IncludeResource: font Helvetica
%%IncludeResource: font Helvetica-Oblique
%%IncludeResource: font Helvetica-Bold
%%IncludeResource: font Helvetica-BoldOblique
%%IncludeResource: font Times-Roman
%%IncludeResource: font Times-Italic
%%IncludeResource: font Times-Bold
%%IncludeResource: font Times-BoldItalic
%%IncludeResource: font Courier
%FOPEndFontDict
%%BeginResource: encoding WinAnsiEncoding
/WinAnsiEncoding [
/.notdef /.notdef /.notdef /.notdef /.notdef
/.notdef /.notdef /.notdef /.notdef /.notdef
/.notdef /.notdef /.notdef /.notdef /.notdef
/.notdef /.notdef /.notdef /.notdef /.notdef
/.notdef /.notdef /.notdef /.notdef /.notdef
/.notdef /.notdef /.notdef /.notdef /.notdef
/.notdef /.notdef /space /exclam /quotedbl
/numbersign /dollar /percent /ampersand /quotesingle
/parenleft /parenright /asterisk /plus /comma
/hyphen /period /slash /zero /one
/two /three /four /five /six
/seven /eight /nine /colon /semicolon
/less /equal /greater /question /at
/A /B /C /D /E
/F /G /H /I /J
/K /L /M /N /O
/P /Q /R /S /T
/U /V /W /X /Y
/Z /bracketleft /backslash /bracketright /asciicircum
/underscore /quoteleft /a /b /c
/d /e /f /g /h
/i /j /k /l /m
/n /o /p /q /r
/s /t /u /v /w
/x /y /z /braceleft /bar
/braceright /asciitilde /bullet /Euro /bullet
/quotesinglbase /florin /quotedblbase /ellipsis /dagger
/daggerdbl /circumflex /perthousand /Scaron /guilsinglleft
/OE /bullet /Zcaron /bullet /bullet
/quoteleft /quoteright /quotedblleft /quotedblright /bullet
/endash /emdash /asciitilde /trademark /scaron
/guilsinglright /oe /bullet /zcaron /Ydieresis
/space /exclamdown /cent /sterling /currency
/yen /brokenbar /section /dieresis /copyright
/ordfeminine /guillemotleft /logicalnot /sfthyphen /registered
/macron /degree /plusminus /twosuperior /threesuperior
/acute /mu /paragraph /middot /cedilla
/onesuperior /ordmasculine /guillemotright /onequarter /onehalf
/threequarters /questiondown /Agrave /Aacute /Acircumflex
/Atilde /Adieresis /Aring /AE /Ccedilla
/Egrave /Eacute /Ecircumflex /Edieresis /Igrave
/Iacute /Icircumflex /Idieresis /Eth /Ntilde
/Ograve /Oacute /Ocircumflex /Otilde /Odieresis
/multiply /Oslash /Ugrave /Uacute /Ucircumflex
/Udieresis /Yacute /Thorn /germandbls /agrave
/aacute /acircumflex /atilde /adieresis /aring
/ae /ccedilla /egrave /eacute /ecircumflex
/edieresis /igrave /iacute /icircumflex /idieresis
/eth /ntilde /ograve /oacute /ocircumflex
/otilde /odieresis /divide /oslash /ugrave
/uacute /ucircumflex /udieresis /yacute /thorn
/ydieresis
] def
%%EndResource
%FOPBeginFontReencode
/Courier-Oblique findfont
dup length dict begin
  {1 index /FID ne {def} {pop pop} ifelse} forall
  /Encoding WinAnsiEncoding def
  currentdict
end
/Courier-Oblique exch definefont pop
/Courier-BoldOblique findfont
dup length dict begin
  {1 index /FID ne {def} {pop pop} ifelse} forall
  /Encoding WinAnsiEncoding def
  currentdict
end
/Courier-BoldOblique exch definefont pop
/Courier-Bold findfont
dup length dict begin
  {1 index /FID ne {def} {pop pop} ifelse} forall
  /Encoding WinAnsiEncoding def
  currentdict
end
/Courier-Bold exch definefont pop
/Helvetica findfont
dup length dict begin
  {1 index /FID ne {def} {pop pop} ifelse} forall
  /Encoding WinAnsiEncoding def
  currentdict
end
/Helvetica exch definefont pop
/Helvetica-Oblique findfont
dup length dict begin
  {1 index /FID ne {def} {pop pop} ifelse} forall
  /Encoding WinAnsiEncoding def
  currentdict
end
/Helvetica-Oblique exch definefont pop
/Helvetica-Bold findfont
dup length dict begin
  {1 index /FID ne {def} {pop pop} ifelse} forall
  /Encoding WinAnsiEncoding def
  currentdict
end
/Helvetica-Bold exch definefont pop
/Helvetica-BoldOblique findfont
dup length dict begin
  {1 index /FID ne {def} {pop pop} ifelse} forall
  /Encoding WinAnsiEncoding def
  currentdict
end
/Helvetica-BoldOblique exch definefont pop
/Times-Roman findfont
dup length dict begin
  {1 index /FID ne {def} {pop pop} ifelse} forall
  /Encoding WinAnsiEncoding def
  currentdict
end
/Times-Roman exch definefont pop
/Times-Italic findfont
dup length dict begin
  {1 index /FID ne {def} {pop pop} ifelse} forall
  /Encoding WinAnsiEncoding def
  currentdict
end
/Times-Italic exch definefont pop
/Times-Bold findfont
dup length dict begin
  {1 index /FID ne {def} {pop pop} ifelse} forall
  /Encoding WinAnsiEncoding def
  currentdict
end
/Times-Bold exch definefont pop
/Times-BoldItalic findfont
dup length dict begin
  {1 index /FID ne {def} {pop pop} ifelse} forall
  /Encoding WinAnsiEncoding def
  currentdict
end
/Times-BoldItalic exch definefont pop
/Courier findfont
dup length dict begin
  {1 index /FID ne {def} {pop pop} ifelse} forall
  /Encoding WinAnsiEncoding def
  currentdict
end
/Courier exch definefont pop
%FOPEndFontReencode
%%EndProlog
%%Page: 1 1
%%PageBoundingBox: 0 0 454 312
%%BeginPageSetup
N
   19     3 M
  435     3 L
  435   298 L
   19   298 L
cp
clip
[1 0 0 -1 0 312] CT
%%EndPageSetup
GS
[0.75843 0 0 0.75866 0 0.189] CT
1 GC
N
0 0 598 411 re
f
GR
GS
[0.75843 0 0 0.75866 0 0.189] CT
1 GC
N
0 0 598 411 re
f
GR
GS
[0.75843 0 0 0.75866 0 0.189] CT
1 GC
N
78 366 M
541 366 L
541 31 L
78 31 L
cp
f
GR
GS
[0.75843 0 0 0.75866 0 0.189] CT
0.873 GC
1 LJ
0.66 LW
N
78 366 M
78 31 L
S
GR
GS
[0.75843 0 0 0.75866 0 0.189] CT
0.873 GC
1 LJ
0.66 LW
N
193.75 366 M
193.75 31 L
S
GR
GS
[0.75843 0 0 0.75866 0 0.189] CT
0.873 GC
1 LJ
0.66 LW
N
309.5 366 M
309.5 31 L
S
GR
GS
[0.75843 0 0 0.75866 0 0.189] CT
0.873 GC
1 LJ
0.66 LW
N
425.25 366 M
425.25 31 L
S
GR
GS
[0.75843 0 0 0.75866 0 0.189] CT
0.873 GC
1 LJ
0.66 LW
N
541 366 M
541 31 L
S
GR
GS
[0.75843 0 0 0.75866 0 0.189] CT
0.775 GC
[1 3] 0 setdash
2 LJ
0.66 LW
N
541 351.594 M
78 351.594 L
S
GR
GS
[0.75843 0 0 0.75866 0 0.189] CT
0.775 GC
[1 3] 0 setdash
2 LJ
0.66 LW
N
541 343.166 M
78 343.166 L
S
GR
GS
[0.75843 0 0 0.75866 0 0.189] CT
0.775 GC
[1 3] 0 setdash
2 LJ
0.66 LW
N
541 337.187 M
78 337.187 L
S
GR
GS
[0.75843 0 0 0.75866 0 0.189] CT
0.775 GC
[1 3] 0 setdash
2 LJ
0.66 LW
N
541 332.549 M
78 332.549 L
S
GR
GS
[0.75843 0 0 0.75866 0 0.189] CT
0.775 GC
[1 3] 0 setdash
2 LJ
0.66 LW
N
541 328.76 M
78 328.76 L
S
GR
GS
[0.75843 0 0 0.75866 0 0.189] CT
0.775 GC
[1 3] 0 setdash
2 LJ
0.66 LW
N
541 325.556 M
78 325.556 L
S
GR
GS
[0.75843 0 0 0.75866 0 0.189] CT
0.775 GC
[1 3] 0 setdash
2 LJ
0.66 LW
N
541 322.781 M
78 322.781 L
S
GR
GS
[0.75843 0 0 0.75866 0 0.189] CT
0.775 GC
[1 3] 0 setdash
2 LJ
0.66 LW
N
541 320.333 M
78 320.333 L
S
GR
GS
[0.75843 0 0 0.75866 0 0.189] CT
0.775 GC
[1 3] 0 setdash
2 LJ
0.66 LW
N
541 303.736 M
78 303.736 L
S
GR
GS
[0.75843 0 0 0.75866 0 0.189] CT
0.775 GC
[1 3] 0 setdash
2 LJ
0.66 LW
N
541 295.309 M
78 295.309 L
S
GR
GS
[0.75843 0 0 0.75866 0 0.189] CT
0.775 GC
[1 3] 0 setdash
2 LJ
0.66 LW
N
541 289.33 M
78 289.33 L
S
GR
GS
[0.75843 0 0 0.75866 0 0.189] CT
0.775 GC
[1 3] 0 setdash
2 LJ
0.66 LW
N
541 284.692 M
78 284.692 L
S
GR
GS
[0.75843 0 0 0.75866 0 0.189] CT
0.775 GC
[1 3] 0 setdash
2 LJ
0.66 LW
N
541 280.903 M
78 280.903 L
S
GR
GS
[0.75843 0 0 0.75866 0 0.189] CT
0.775 GC
[1 3] 0 setdash
2 LJ
0.66 LW
N
541 277.699 M
78 277.699 L
S
GR
GS
[0.75843 0 0 0.75866 0 0.189] CT
0.775 GC
[1 3] 0 setdash
2 LJ
0.66 LW
N
541 274.924 M
78 274.924 L
S
GR
GS
[0.75843 0 0 0.75866 0 0.189] CT
0.775 GC
[1 3] 0 setdash
2 LJ
0.66 LW
N
541 272.476 M
78 272.476 L
S
GR
GS
[0.75843 0 0 0.75866 0 0.189] CT
0.775 GC
[1 3] 0 setdash
2 LJ
0.66 LW
N
541 255.879 M
78 255.879 L
S
GR
GS
[0.75843 0 0 0.75866 0 0.189] CT
0.775 GC
[1 3] 0 setdash
2 LJ
0.66 LW
N
541 247.452 M
78 247.452 L
S
GR
GS
[0.75843 0 0 0.75866 0 0.189] CT
0.775 GC
[1 3] 0 setdash
2 LJ
0.66 LW
N
541 241.473 M
78 241.473 L
S
GR
GS
[0.75843 0 0 0.75866 0 0.189] CT
0.775 GC
[1 3] 0 setdash
2 LJ
0.66 LW
N
541 236.835 M
78 236.835 L
S
GR
GS
[0.75843 0 0 0.75866 0 0.189] CT
0.775 GC
[1 3] 0 setdash
2 LJ
0.66 LW
N
541 233.046 M
78 233.046 L
S
GR
GS
[0.75843 0 0 0.75866 0 0.189] CT
0.775 GC
[1 3] 0 setdash
2 LJ
0.66 LW
N
541 229.842 M
78 229.842 L
S
GR
GS
[0.75843 0 0 0.75866 0 0.189] CT
0.775 GC
[1 3] 0 setdash
2 LJ
0.66 LW
N
541 227.066 M
78 227.066 L
S
GR
GS
[0.75843 0 0 0.75866 0 0.189] CT
0.775 GC
[1 3] 0 setdash
2 LJ
0.66 LW
N
541 224.618 M
78 224.618 L
S
GR
GS
[0.75843 0 0 0.75866 0 0.189] CT
0.775 GC
[1 3] 0 setdash
2 LJ
0.66 LW
N
541 222.429 M
78 222.429 L
S
GR
GS
[0.75843 0 0 0.75866 0 0.189] CT
0.775 GC
[1 3] 0 setdash
2 LJ
0.66 LW
N
541 208.022 M
78 208.022 L
S
GR
GS
[0.75843 0 0 0.75866 0 0.189] CT
0.775 GC
[1 3] 0 setdash
2 LJ
0.66 LW
N
541 199.595 M
78 199.595 L
S
GR
GS
[0.75843 0 0 0.75866 0 0.189] CT
0.775 GC
[1 3] 0 setdash
2 LJ
0.66 LW
N
541 193.616 M
78 193.616 L
S
GR
GS
[0.75843 0 0 0.75866 0 0.189] CT
0.775 GC
[1 3] 0 setdash
2 LJ
0.66 LW
N
541 188.978 M
78 188.978 L
S
GR
GS
[0.75843 0 0 0.75866 0 0.189] CT
0.775 GC
[1 3] 0 setdash
2 LJ
0.66 LW
N
541 185.188 M
78 185.188 L
S
GR
GS
[0.75843 0 0 0.75866 0 0.189] CT
0.775 GC
[1 3] 0 setdash
2 LJ
0.66 LW
N
541 181.985 M
78 181.985 L
S
GR
GS
[0.75843 0 0 0.75866 0 0.189] CT
0.775 GC
[1 3] 0 setdash
2 LJ
0.66 LW
N
541 179.209 M
78 179.209 L
S
GR
GS
[0.75843 0 0 0.75866 0 0.189] CT
0.775 GC
[1 3] 0 setdash
2 LJ
0.66 LW
N
541 176.761 M
78 176.761 L
S
GR
GS
[0.75843 0 0 0.75866 0 0.189] CT
0.775 GC
[1 3] 0 setdash
2 LJ
0.66 LW
N
541 160.165 M
78 160.165 L
S
GR
GS
[0.75843 0 0 0.75866 0 0.189] CT
0.775 GC
[1 3] 0 setdash
2 LJ
0.66 LW
N
541 151.738 M
78 151.738 L
S
GR
GS
[0.75843 0 0 0.75866 0 0.189] CT
0.775 GC
[1 3] 0 setdash
2 LJ
0.66 LW
N
541 145.759 M
78 145.759 L
S
GR
GS
[0.75843 0 0 0.75866 0 0.189] CT
0.775 GC
[1 3] 0 setdash
2 LJ
0.66 LW
N
541 141.121 M
78 141.121 L
S
GR
GS
[0.75843 0 0 0.75866 0 0.189] CT
0.775 GC
[1 3] 0 setdash
2 LJ
0.66 LW
N
541 137.331 M
78 137.331 L
S
GR
GS
[0.75843 0 0 0.75866 0 0.189] CT
0.775 GC
[1 3] 0 setdash
2 LJ
0.66 LW
N
541 134.127 M
78 134.127 L
S
GR
GS
[0.75843 0 0 0.75866 0 0.189] CT
0.775 GC
[1 3] 0 setdash
2 LJ
0.66 LW
N
541 131.352 M
78 131.352 L
S
GR
GS
[0.75843 0 0 0.75866 0 0.189] CT
0.775 GC
[1 3] 0 setdash
2 LJ
0.66 LW
N
541 128.904 M
78 128.904 L
S
GR
GS
[0.75843 0 0 0.75866 0 0.189] CT
0.775 GC
[1 3] 0 setdash
2 LJ
0.66 LW
N
541 112.308 M
78 112.308 L
S
GR
GS
[0.75843 0 0 0.75866 0 0.189] CT
0.775 GC
[1 3] 0 setdash
2 LJ
0.66 LW
N
541 103.881 M
78 103.881 L
S
GR
GS
[0.75843 0 0 0.75866 0 0.189] CT
0.775 GC
[1 3] 0 setdash
2 LJ
0.66 LW
N
541 97.901 M
78 97.901 L
S
GR
GS
[0.75843 0 0 0.75866 0 0.189] CT
0.775 GC
[1 3] 0 setdash
2 LJ
0.66 LW
N
541 93.264 M
78 93.264 L
S
GR
GS
[0.75843 0 0 0.75866 0 0.189] CT
0.775 GC
[1 3] 0 setdash
2 LJ
0.66 LW
N
541 89.474 M
78 89.474 L
S
GR
GS
[0.75843 0 0 0.75866 0 0.189] CT
0.775 GC
[1 3] 0 setdash
2 LJ
0.66 LW
N
541 86.27 M
78 86.27 L
S
GR
GS
[0.75843 0 0 0.75866 0 0.189] CT
0.775 GC
[1 3] 0 setdash
2 LJ
0.66 LW
N
541 83.495 M
78 83.495 L
S
GR
GS
[0.75843 0 0 0.75866 0 0.189] CT
0.775 GC
[1 3] 0 setdash
2 LJ
0.66 LW
N
541 81.047 M
78 81.047 L
S
GR
GS
[0.75843 0 0 0.75866 0 0.189] CT
0.775 GC
[1 3] 0 setdash
2 LJ
0.66 LW
N
541 64.451 M
78 64.451 L
S
GR
GS
[0.75843 0 0 0.75866 0 0.189] CT
0.775 GC
[1 3] 0 setdash
2 LJ
0.66 LW
N
541 56.023 M
78 56.023 L
S
GR
GS
[0.75843 0 0 0.75866 0 0.189] CT
0.775 GC
[1 3] 0 setdash
2 LJ
0.66 LW
N
541 50.044 M
78 50.044 L
S
GR
GS
[0.75843 0 0 0.75866 0 0.189] CT
0.775 GC
[1 3] 0 setdash
2 LJ
0.66 LW
N
541 45.406 M
78 45.406 L
S
GR
GS
[0.75843 0 0 0.75866 0 0.189] CT
0.775 GC
[1 3] 0 setdash
2 LJ
0.66 LW
N
541 41.617 M
78 41.617 L
S
GR
GS
[0.75843 0 0 0.75866 0 0.189] CT
0.775 GC
[1 3] 0 setdash
2 LJ
0.66 LW
N
541 38.413 M
78 38.413 L
S
GR
GS
[0.75843 0 0 0.75866 0 0.189] CT
0.775 GC
[1 3] 0 setdash
2 LJ
0.66 LW
N
541 35.638 M
78 35.638 L
S
GR
GS
[0.75843 0 0 0.75866 0 0.189] CT
0.775 GC
[1 3] 0 setdash
2 LJ
0.66 LW
N
541 33.19 M
78 33.19 L
S
GR
GS
[0.75843 0 0 0.75866 0 0.189] CT
0.873 GC
1 LJ
0.66 LW
N
541 366 M
78 366 L
S
GR
GS
[0.75843 0 0 0.75866 0 0.189] CT
0.873 GC
1 LJ
0.66 LW
N
541 318.143 M
78 318.143 L
S
GR
GS
[0.75843 0 0 0.75866 0 0.189] CT
0.873 GC
1 LJ
0.66 LW
N
541 270.286 M
78 270.286 L
S
GR
GS
[0.75843 0 0 0.75866 0 0.189] CT
0.873 GC
1 LJ
0.66 LW
N
541 222.429 M
78 222.429 L
S
GR
GS
[0.75843 0 0 0.75866 0 0.189] CT
0.873 GC
1 LJ
0.66 LW
N
541 174.571 M
78 174.571 L
S
GR
GS
[0.75843 0 0 0.75866 0 0.189] CT
0.873 GC
1 LJ
0.66 LW
N
541 126.714 M
78 126.714 L
S
GR
GS
[0.75843 0 0 0.75866 0 0.189] CT
0.873 GC
1 LJ
0.66 LW
N
541 78.857 M
78 78.857 L
S
GR
GS
[0.75843 0 0 0.75866 0 0.189] CT
0.873 GC
1 LJ
0.66 LW
N
541 31 M
78 31 L
S
GR
GS
[0.75843 0 0 0.75866 0 0.189] CT
0.149 GC
2 setlinecap
1 LJ
0.66 LW
N
78 366 M
541 366 L
S
GR
GS
[0.75843 0 0 0.75866 0 0.189] CT
0.149 GC
2 setlinecap
1 LJ
0.66 LW
N
78 31 M
541 31 L
S
GR
GS
[0.75843 0 0 0.75866 0 0.189] CT
0.149 GC
2 setlinecap
1 LJ
0.66 LW
N
78 366 M
78 361.37 L
S
GR
GS
[0.75843 0 0 0.75866 0 0.189] CT
0.149 GC
2 setlinecap
1 LJ
0.66 LW
N
193.75 366 M
193.75 361.37 L
S
GR
GS
[0.75843 0 0 0.75866 0 0.189] CT
0.149 GC
2 setlinecap
1 LJ
0.66 LW
N
309.5 366 M
309.5 361.37 L
S
GR
GS
[0.75843 0 0 0.75866 0 0.189] CT
0.149 GC
2 setlinecap
1 LJ
0.66 LW
N
425.25 366 M
425.25 361.37 L
S
GR
GS
[0.75843 0 0 0.75866 0 0.189] CT
0.149 GC
2 setlinecap
1 LJ
0.66 LW
N
541 366 M
541 361.37 L
S
GR
GS
[0.75843 0 0 0.75866 0 0.189] CT
0.149 GC
2 setlinecap
1 LJ
0.66 LW
N
78 31 M
78 35.63 L
S
GR
GS
[0.75843 0 0 0.75866 0 0.189] CT
0.149 GC
2 setlinecap
1 LJ
0.66 LW
N
193.75 31 M
193.75 35.63 L
S
GR
GS
[0.75843 0 0 0.75866 0 0.189] CT
0.149 GC
2 setlinecap
1 LJ
0.66 LW
N
309.5 31 M
309.5 35.63 L
S
GR
GS
[0.75843 0 0 0.75866 0 0.189] CT
0.149 GC
2 setlinecap
1 LJ
0.66 LW
N
425.25 31 M
425.25 35.63 L
S
GR
GS
[0.75843 0 0 0.75866 0 0.189] CT
0.149 GC
2 setlinecap
1 LJ
0.66 LW
N
541 31 M
541 35.63 L
S
GR
GS
[0.75843 0 0 0.75866 59.15782 281.86417] CT
0.149 GC
/Helvetica 13.194 F
GS
[1 0 0 1 0 0] CT
-7 13 moveto 
1 -1 scale
(-5) t 
GR
GR
GS
[0.75843 0 0 0.75866 146.94651 281.86417] CT
0.149 GC
/Helvetica 13.194 F
GS
[1 0 0 1 0 0] CT
-4.5 13 moveto 
1 -1 scale
(0) t 
GR
GR
GS
[0.75843 0 0 0.75866 234.73521 281.86417] CT
0.149 GC
/Helvetica 13.194 F
GS
[1 0 0 1 0 0] CT
-4.5 13 moveto 
1 -1 scale
(5) t 
GR
GR
GS
[0.75843 0 0 0.75866 322.5239 281.86417] CT
0.149 GC
/Helvetica 13.194 F
GS
[1 0 0 1 0 0] CT
-8.5 13 moveto 
1 -1 scale
(10) t 
GR
GR
GS
[0.75843 0 0 0.75866 410.31259 281.86417] CT
0.149 GC
/Helvetica 13.194 F
GS
[1 0 0 1 0 0] CT
-8.5 13 moveto 
1 -1 scale
(15) t 
GR
GR
GS
[0.75843 0 0 0.75866 234.73537 295.76248] CT
0.149 GC
/Helvetica 14.514 F
GS
[1 0 0 1 0 0] CT
-88.5 14 moveto 
1 -1 scale
(OFDM Signal Power [dB]) t 
GR
GR
GS
[0.75843 0 0 0.75866 0 0.189] CT
0.149 GC
2 setlinecap
1 LJ
0.66 LW
N
78 366 M
78 31 L
S
GR
GS
[0.75843 0 0 0.75866 0 0.189] CT
0.149 GC
2 setlinecap
1 LJ
0.66 LW
N
541 366 M
541 31 L
S
GR
GS
[0.75843 0 0 0.75866 0 0.189] CT
0.149 GC
2 setlinecap
1 LJ
0.66 LW
N
78 366 M
82.63 366 L
S
GR
GS
[0.75843 0 0 0.75866 0 0.189] CT
0.149 GC
2 setlinecap
1 LJ
0.66 LW
N
78 318.143 M
82.63 318.143 L
S
GR
GS
[0.75843 0 0 0.75866 0 0.189] CT
0.149 GC
2 setlinecap
1 LJ
0.66 LW
N
78 270.286 M
82.63 270.286 L
S
GR
GS
[0.75843 0 0 0.75866 0 0.189] CT
0.149 GC
2 setlinecap
1 LJ
0.66 LW
N
78 222.429 M
82.63 222.429 L
S
GR
GS
[0.75843 0 0 0.75866 0 0.189] CT
0.149 GC
2 setlinecap
1 LJ
0.66 LW
N
78 174.571 M
82.63 174.571 L
S
GR
GS
[0.75843 0 0 0.75866 0 0.189] CT
0.149 GC
2 setlinecap
1 LJ
0.66 LW
N
78 126.714 M
82.63 126.714 L
S
GR
GS
[0.75843 0 0 0.75866 0 0.189] CT
0.149 GC
2 setlinecap
1 LJ
0.66 LW
N
78 78.857 M
82.63 78.857 L
S
GR
GS
[0.75843 0 0 0.75866 0 0.189] CT
0.149 GC
2 setlinecap
1 LJ
0.66 LW
N
78 31 M
82.63 31 L
S
GR
GS
[0.75843 0 0 0.75866 0 0.189] CT
0.149 GC
2 setlinecap
1 LJ
0.66 LW
N
541 366 M
536.37 366 L
S
GR
GS
[0.75843 0 0 0.75866 0 0.189] CT
0.149 GC
2 setlinecap
1 LJ
0.66 LW
N
541 318.143 M
536.37 318.143 L
S
GR
GS
[0.75843 0 0 0.75866 0 0.189] CT
0.149 GC
2 setlinecap
1 LJ
0.66 LW
N
541 270.286 M
536.37 270.286 L
S
GR
GS
[0.75843 0 0 0.75866 0 0.189] CT
0.149 GC
2 setlinecap
1 LJ
0.66 LW
N
541 222.429 M
536.37 222.429 L
S
GR
GS
[0.75843 0 0 0.75866 0 0.189] CT
0.149 GC
2 setlinecap
1 LJ
0.66 LW
N
541 174.571 M
536.37 174.571 L
S
GR
GS
[0.75843 0 0 0.75866 0 0.189] CT
0.149 GC
2 setlinecap
1 LJ
0.66 LW
N
541 126.714 M
536.37 126.714 L
S
GR
GS
[0.75843 0 0 0.75866 0 0.189] CT
0.149 GC
2 setlinecap
1 LJ
0.66 LW
N
541 78.857 M
536.37 78.857 L
S
GR
GS
[0.75843 0 0 0.75866 0 0.189] CT
0.149 GC
2 setlinecap
1 LJ
0.66 LW
N
541 31 M
536.37 31 L
S
GR
GS
[0.75843 0 0 0.75866 0 0.189] CT
0.149 GC
2 setlinecap
1 LJ
0.66 LW
N
78 366 M
80.315 366 L
S
GR
GS
[0.75843 0 0 0.75866 0 0.189] CT
0.149 GC
2 setlinecap
1 LJ
0.66 LW
N
78 351.594 M
80.315 351.594 L
S
GR
GS
[0.75843 0 0 0.75866 0 0.189] CT
0.149 GC
2 setlinecap
1 LJ
0.66 LW
N
78 343.166 M
80.315 343.166 L
S
GR
GS
[0.75843 0 0 0.75866 0 0.189] CT
0.149 GC
2 setlinecap
1 LJ
0.66 LW
N
78 337.187 M
80.315 337.187 L
S
GR
GS
[0.75843 0 0 0.75866 0 0.189] CT
0.149 GC
2 setlinecap
1 LJ
0.66 LW
N
78 332.549 M
80.315 332.549 L
S
GR
GS
[0.75843 0 0 0.75866 0 0.189] CT
0.149 GC
2 setlinecap
1 LJ
0.66 LW
N
78 328.76 M
80.315 328.76 L
S
GR
GS
[0.75843 0 0 0.75866 0 0.189] CT
0.149 GC
2 setlinecap
1 LJ
0.66 LW
N
78 325.556 M
80.315 325.556 L
S
GR
GS
[0.75843 0 0 0.75866 0 0.189] CT
0.149 GC
2 setlinecap
1 LJ
0.66 LW
N
78 322.781 M
80.315 322.781 L
S
GR
GS
[0.75843 0 0 0.75866 0 0.189] CT
0.149 GC
2 setlinecap
1 LJ
0.66 LW
N
78 320.333 M
80.315 320.333 L
S
GR
GS
[0.75843 0 0 0.75866 0 0.189] CT
0.149 GC
2 setlinecap
1 LJ
0.66 LW
N
78 318.143 M
80.315 318.143 L
S
GR
GS
[0.75843 0 0 0.75866 0 0.189] CT
0.149 GC
2 setlinecap
1 LJ
0.66 LW
N
78 303.736 M
80.315 303.736 L
S
GR
GS
[0.75843 0 0 0.75866 0 0.189] CT
0.149 GC
2 setlinecap
1 LJ
0.66 LW
N
78 295.309 M
80.315 295.309 L
S
GR
GS
[0.75843 0 0 0.75866 0 0.189] CT
0.149 GC
2 setlinecap
1 LJ
0.66 LW
N
78 289.33 M
80.315 289.33 L
S
GR
GS
[0.75843 0 0 0.75866 0 0.189] CT
0.149 GC
2 setlinecap
1 LJ
0.66 LW
N
78 284.692 M
80.315 284.692 L
S
GR
GS
[0.75843 0 0 0.75866 0 0.189] CT
0.149 GC
2 setlinecap
1 LJ
0.66 LW
N
78 280.903 M
80.315 280.903 L
S
GR
GS
[0.75843 0 0 0.75866 0 0.189] CT
0.149 GC
2 setlinecap
1 LJ
0.66 LW
N
78 277.699 M
80.315 277.699 L
S
GR
GS
[0.75843 0 0 0.75866 0 0.189] CT
0.149 GC
2 setlinecap
1 LJ
0.66 LW
N
78 274.924 M
80.315 274.924 L
S
GR
GS
[0.75843 0 0 0.75866 0 0.189] CT
0.149 GC
2 setlinecap
1 LJ
0.66 LW
N
78 272.476 M
80.315 272.476 L
S
GR
GS
[0.75843 0 0 0.75866 0 0.189] CT
0.149 GC
2 setlinecap
1 LJ
0.66 LW
N
78 270.286 M
80.315 270.286 L
S
GR
GS
[0.75843 0 0 0.75866 0 0.189] CT
0.149 GC
2 setlinecap
1 LJ
0.66 LW
N
78 255.879 M
80.315 255.879 L
S
GR
GS
[0.75843 0 0 0.75866 0 0.189] CT
0.149 GC
2 setlinecap
1 LJ
0.66 LW
N
78 247.452 M
80.315 247.452 L
S
GR
GS
[0.75843 0 0 0.75866 0 0.189] CT
0.149 GC
2 setlinecap
1 LJ
0.66 LW
N
78 241.473 M
80.315 241.473 L
S
GR
GS
[0.75843 0 0 0.75866 0 0.189] CT
0.149 GC
2 setlinecap
1 LJ
0.66 LW
N
78 236.835 M
80.315 236.835 L
S
GR
GS
[0.75843 0 0 0.75866 0 0.189] CT
0.149 GC
2 setlinecap
1 LJ
0.66 LW
N
78 233.046 M
80.315 233.046 L
S
GR
GS
[0.75843 0 0 0.75866 0 0.189] CT
0.149 GC
2 setlinecap
1 LJ
0.66 LW
N
78 229.842 M
80.315 229.842 L
S
GR
GS
[0.75843 0 0 0.75866 0 0.189] CT
0.149 GC
2 setlinecap
1 LJ
0.66 LW
N
78 227.066 M
80.315 227.066 L
S
GR
GS
[0.75843 0 0 0.75866 0 0.189] CT
0.149 GC
2 setlinecap
1 LJ
0.66 LW
N
78 224.618 M
80.315 224.618 L
S
GR
GS
[0.75843 0 0 0.75866 0 0.189] CT
0.149 GC
2 setlinecap
1 LJ
0.66 LW
N
78 222.429 M
80.315 222.429 L
S
GR
GS
[0.75843 0 0 0.75866 0 0.189] CT
0.149 GC
2 setlinecap
1 LJ
0.66 LW
N
78 222.429 M
80.315 222.429 L
S
GR
GS
[0.75843 0 0 0.75866 0 0.189] CT
0.149 GC
2 setlinecap
1 LJ
0.66 LW
N
78 208.022 M
80.315 208.022 L
S
GR
GS
[0.75843 0 0 0.75866 0 0.189] CT
0.149 GC
2 setlinecap
1 LJ
0.66 LW
N
78 199.595 M
80.315 199.595 L
S
GR
GS
[0.75843 0 0 0.75866 0 0.189] CT
0.149 GC
2 setlinecap
1 LJ
0.66 LW
N
78 193.616 M
80.315 193.616 L
S
GR
GS
[0.75843 0 0 0.75866 0 0.189] CT
0.149 GC
2 setlinecap
1 LJ
0.66 LW
N
78 188.978 M
80.315 188.978 L
S
GR
GS
[0.75843 0 0 0.75866 0 0.189] CT
0.149 GC
2 setlinecap
1 LJ
0.66 LW
N
78 185.188 M
80.315 185.188 L
S
GR
GS
[0.75843 0 0 0.75866 0 0.189] CT
0.149 GC
2 setlinecap
1 LJ
0.66 LW
N
78 181.985 M
80.315 181.985 L
S
GR
GS
[0.75843 0 0 0.75866 0 0.189] CT
0.149 GC
2 setlinecap
1 LJ
0.66 LW
N
78 179.209 M
80.315 179.209 L
S
GR
GS
[0.75843 0 0 0.75866 0 0.189] CT
0.149 GC
2 setlinecap
1 LJ
0.66 LW
N
78 176.761 M
80.315 176.761 L
S
GR
GS
[0.75843 0 0 0.75866 0 0.189] CT
0.149 GC
2 setlinecap
1 LJ
0.66 LW
N
78 174.571 M
80.315 174.571 L
S
GR
GS
[0.75843 0 0 0.75866 0 0.189] CT
0.149 GC
2 setlinecap
1 LJ
0.66 LW
N
78 160.165 M
80.315 160.165 L
S
GR
GS
[0.75843 0 0 0.75866 0 0.189] CT
0.149 GC
2 setlinecap
1 LJ
0.66 LW
N
78 151.738 M
80.315 151.738 L
S
GR
GS
[0.75843 0 0 0.75866 0 0.189] CT
0.149 GC
2 setlinecap
1 LJ
0.66 LW
N
78 145.759 M
80.315 145.759 L
S
GR
GS
[0.75843 0 0 0.75866 0 0.189] CT
0.149 GC
2 setlinecap
1 LJ
0.66 LW
N
78 141.121 M
80.315 141.121 L
S
GR
GS
[0.75843 0 0 0.75866 0 0.189] CT
0.149 GC
2 setlinecap
1 LJ
0.66 LW
N
78 137.331 M
80.315 137.331 L
S
GR
GS
[0.75843 0 0 0.75866 0 0.189] CT
0.149 GC
2 setlinecap
1 LJ
0.66 LW
N
78 134.127 M
80.315 134.127 L
S
GR
GS
[0.75843 0 0 0.75866 0 0.189] CT
0.149 GC
2 setlinecap
1 LJ
0.66 LW
N
78 131.352 M
80.315 131.352 L
S
GR
GS
[0.75843 0 0 0.75866 0 0.189] CT
0.149 GC
2 setlinecap
1 LJ
0.66 LW
N
78 128.904 M
80.315 128.904 L
S
GR
GS
[0.75843 0 0 0.75866 0 0.189] CT
0.149 GC
2 setlinecap
1 LJ
0.66 LW
N
78 126.714 M
80.315 126.714 L
S
GR
GS
[0.75843 0 0 0.75866 0 0.189] CT
0.149 GC
2 setlinecap
1 LJ
0.66 LW
N
78 112.308 M
80.315 112.308 L
S
GR
GS
[0.75843 0 0 0.75866 0 0.189] CT
0.149 GC
2 setlinecap
1 LJ
0.66 LW
N
78 103.881 M
80.315 103.881 L
S
GR
GS
[0.75843 0 0 0.75866 0 0.189] CT
0.149 GC
2 setlinecap
1 LJ
0.66 LW
N
78 97.901 M
80.315 97.901 L
S
GR
GS
[0.75843 0 0 0.75866 0 0.189] CT
0.149 GC
2 setlinecap
1 LJ
0.66 LW
N
78 93.264 M
80.315 93.264 L
S
GR
GS
[0.75843 0 0 0.75866 0 0.189] CT
0.149 GC
2 setlinecap
1 LJ
0.66 LW
N
78 89.474 M
80.315 89.474 L
S
GR
GS
[0.75843 0 0 0.75866 0 0.189] CT
0.149 GC
2 setlinecap
1 LJ
0.66 LW
N
78 86.27 M
80.315 86.27 L
S
GR
GS
[0.75843 0 0 0.75866 0 0.189] CT
0.149 GC
2 setlinecap
1 LJ
0.66 LW
N
78 83.495 M
80.315 83.495 L
S
GR
GS
[0.75843 0 0 0.75866 0 0.189] CT
0.149 GC
2 setlinecap
1 LJ
0.66 LW
N
78 81.047 M
80.315 81.047 L
S
GR
GS
[0.75843 0 0 0.75866 0 0.189] CT
0.149 GC
2 setlinecap
1 LJ
0.66 LW
N
78 78.857 M
80.315 78.857 L
S
GR
GS
[0.75843 0 0 0.75866 0 0.189] CT
0.149 GC
2 setlinecap
1 LJ
0.66 LW
N
78 64.451 M
80.315 64.451 L
S
GR
GS
[0.75843 0 0 0.75866 0 0.189] CT
0.149 GC
2 setlinecap
1 LJ
0.66 LW
N
78 56.023 M
80.315 56.023 L
S
GR
GS
[0.75843 0 0 0.75866 0 0.189] CT
0.149 GC
2 setlinecap
1 LJ
0.66 LW
N
78 50.044 M
80.315 50.044 L
S
GR
GS
[0.75843 0 0 0.75866 0 0.189] CT
0.149 GC
2 setlinecap
1 LJ
0.66 LW
N
78 45.406 M
80.315 45.406 L
S
GR
GS
[0.75843 0 0 0.75866 0 0.189] CT
0.149 GC
2 setlinecap
1 LJ
0.66 LW
N
78 41.617 M
80.315 41.617 L
S
GR
GS
[0.75843 0 0 0.75866 0 0.189] CT
0.149 GC
2 setlinecap
1 LJ
0.66 LW
N
78 38.413 M
80.315 38.413 L
S
GR
GS
[0.75843 0 0 0.75866 0 0.189] CT
0.149 GC
2 setlinecap
1 LJ
0.66 LW
N
78 35.638 M
80.315 35.638 L
S
GR
GS
[0.75843 0 0 0.75866 0 0.189] CT
0.149 GC
2 setlinecap
1 LJ
0.66 LW
N
78 33.19 M
80.315 33.19 L
S
GR
GS
[0.75843 0 0 0.75866 0 0.189] CT
0.149 GC
2 setlinecap
1 LJ
0.66 LW
N
78 31 M
80.315 31 L
S
GR
GS
[0.75843 0 0 0.75866 0 0.189] CT
0.149 GC
2 setlinecap
1 LJ
0.66 LW
N
541 366 M
538.685 366 L
S
GR
GS
[0.75843 0 0 0.75866 0 0.189] CT
0.149 GC
2 setlinecap
1 LJ
0.66 LW
N
541 351.594 M
538.685 351.594 L
S
GR
GS
[0.75843 0 0 0.75866 0 0.189] CT
0.149 GC
2 setlinecap
1 LJ
0.66 LW
N
541 343.166 M
538.685 343.166 L
S
GR
GS
[0.75843 0 0 0.75866 0 0.189] CT
0.149 GC
2 setlinecap
1 LJ
0.66 LW
N
541 337.187 M
538.685 337.187 L
S
GR
GS
[0.75843 0 0 0.75866 0 0.189] CT
0.149 GC
2 setlinecap
1 LJ
0.66 LW
N
541 332.549 M
538.685 332.549 L
S
GR
GS
[0.75843 0 0 0.75866 0 0.189] CT
0.149 GC
2 setlinecap
1 LJ
0.66 LW
N
541 328.76 M
538.685 328.76 L
S
GR
GS
[0.75843 0 0 0.75866 0 0.189] CT
0.149 GC
2 setlinecap
1 LJ
0.66 LW
N
541 325.556 M
538.685 325.556 L
S
GR
GS
[0.75843 0 0 0.75866 0 0.189] CT
0.149 GC
2 setlinecap
1 LJ
0.66 LW
N
541 322.781 M
538.685 322.781 L
S
GR
GS
[0.75843 0 0 0.75866 0 0.189] CT
0.149 GC
2 setlinecap
1 LJ
0.66 LW
N
541 320.333 M
538.685 320.333 L
S
GR
GS
[0.75843 0 0 0.75866 0 0.189] CT
0.149 GC
2 setlinecap
1 LJ
0.66 LW
N
541 318.143 M
538.685 318.143 L
S
GR
GS
[0.75843 0 0 0.75866 0 0.189] CT
0.149 GC
2 setlinecap
1 LJ
0.66 LW
N
541 303.736 M
538.685 303.736 L
S
GR
GS
[0.75843 0 0 0.75866 0 0.189] CT
0.149 GC
2 setlinecap
1 LJ
0.66 LW
N
541 295.309 M
538.685 295.309 L
S
GR
GS
[0.75843 0 0 0.75866 0 0.189] CT
0.149 GC
2 setlinecap
1 LJ
0.66 LW
N
541 289.33 M
538.685 289.33 L
S
GR
GS
[0.75843 0 0 0.75866 0 0.189] CT
0.149 GC
2 setlinecap
1 LJ
0.66 LW
N
541 284.692 M
538.685 284.692 L
S
GR
GS
[0.75843 0 0 0.75866 0 0.189] CT
0.149 GC
2 setlinecap
1 LJ
0.66 LW
N
541 280.903 M
538.685 280.903 L
S
GR
GS
[0.75843 0 0 0.75866 0 0.189] CT
0.149 GC
2 setlinecap
1 LJ
0.66 LW
N
541 277.699 M
538.685 277.699 L
S
GR
GS
[0.75843 0 0 0.75866 0 0.189] CT
0.149 GC
2 setlinecap
1 LJ
0.66 LW
N
541 274.924 M
538.685 274.924 L
S
GR
GS
[0.75843 0 0 0.75866 0 0.189] CT
0.149 GC
2 setlinecap
1 LJ
0.66 LW
N
541 272.476 M
538.685 272.476 L
S
GR
GS
[0.75843 0 0 0.75866 0 0.189] CT
0.149 GC
2 setlinecap
1 LJ
0.66 LW
N
541 270.286 M
538.685 270.286 L
S
GR
GS
[0.75843 0 0 0.75866 0 0.189] CT
0.149 GC
2 setlinecap
1 LJ
0.66 LW
N
541 255.879 M
538.685 255.879 L
S
GR
GS
[0.75843 0 0 0.75866 0 0.189] CT
0.149 GC
2 setlinecap
1 LJ
0.66 LW
N
541 247.452 M
538.685 247.452 L
S
GR
GS
[0.75843 0 0 0.75866 0 0.189] CT
0.149 GC
2 setlinecap
1 LJ
0.66 LW
N
541 241.473 M
538.685 241.473 L
S
GR
GS
[0.75843 0 0 0.75866 0 0.189] CT
0.149 GC
2 setlinecap
1 LJ
0.66 LW
N
541 236.835 M
538.685 236.835 L
S
GR
GS
[0.75843 0 0 0.75866 0 0.189] CT
0.149 GC
2 setlinecap
1 LJ
0.66 LW
N
541 233.046 M
538.685 233.046 L
S
GR
GS
[0.75843 0 0 0.75866 0 0.189] CT
0.149 GC
2 setlinecap
1 LJ
0.66 LW
N
541 229.842 M
538.685 229.842 L
S
GR
GS
[0.75843 0 0 0.75866 0 0.189] CT
0.149 GC
2 setlinecap
1 LJ
0.66 LW
N
541 227.066 M
538.685 227.066 L
S
GR
GS
[0.75843 0 0 0.75866 0 0.189] CT
0.149 GC
2 setlinecap
1 LJ
0.66 LW
N
541 224.618 M
538.685 224.618 L
S
GR
GS
[0.75843 0 0 0.75866 0 0.189] CT
0.149 GC
2 setlinecap
1 LJ
0.66 LW
N
541 222.429 M
538.685 222.429 L
S
GR
GS
[0.75843 0 0 0.75866 0 0.189] CT
0.149 GC
2 setlinecap
1 LJ
0.66 LW
N
541 222.429 M
538.685 222.429 L
S
GR
GS
[0.75843 0 0 0.75866 0 0.189] CT
0.149 GC
2 setlinecap
1 LJ
0.66 LW
N
541 208.022 M
538.685 208.022 L
S
GR
GS
[0.75843 0 0 0.75866 0 0.189] CT
0.149 GC
2 setlinecap
1 LJ
0.66 LW
N
541 199.595 M
538.685 199.595 L
S
GR
GS
[0.75843 0 0 0.75866 0 0.189] CT
0.149 GC
2 setlinecap
1 LJ
0.66 LW
N
541 193.616 M
538.685 193.616 L
S
GR
GS
[0.75843 0 0 0.75866 0 0.189] CT
0.149 GC
2 setlinecap
1 LJ
0.66 LW
N
541 188.978 M
538.685 188.978 L
S
GR
GS
[0.75843 0 0 0.75866 0 0.189] CT
0.149 GC
2 setlinecap
1 LJ
0.66 LW
N
541 185.188 M
538.685 185.188 L
S
GR
GS
[0.75843 0 0 0.75866 0 0.189] CT
0.149 GC
2 setlinecap
1 LJ
0.66 LW
N
541 181.985 M
538.685 181.985 L
S
GR
GS
[0.75843 0 0 0.75866 0 0.189] CT
0.149 GC
2 setlinecap
1 LJ
0.66 LW
N
541 179.209 M
538.685 179.209 L
S
GR
GS
[0.75843 0 0 0.75866 0 0.189] CT
0.149 GC
2 setlinecap
1 LJ
0.66 LW
N
541 176.761 M
538.685 176.761 L
S
GR
GS
[0.75843 0 0 0.75866 0 0.189] CT
0.149 GC
2 setlinecap
1 LJ
0.66 LW
N
541 174.571 M
538.685 174.571 L
S
GR
GS
[0.75843 0 0 0.75866 0 0.189] CT
0.149 GC
2 setlinecap
1 LJ
0.66 LW
N
541 160.165 M
538.685 160.165 L
S
GR
GS
[0.75843 0 0 0.75866 0 0.189] CT
0.149 GC
2 setlinecap
1 LJ
0.66 LW
N
541 151.738 M
538.685 151.738 L
S
GR
GS
[0.75843 0 0 0.75866 0 0.189] CT
0.149 GC
2 setlinecap
1 LJ
0.66 LW
N
541 145.759 M
538.685 145.759 L
S
GR
GS
[0.75843 0 0 0.75866 0 0.189] CT
0.149 GC
2 setlinecap
1 LJ
0.66 LW
N
541 141.121 M
538.685 141.121 L
S
GR
GS
[0.75843 0 0 0.75866 0 0.189] CT
0.149 GC
2 setlinecap
1 LJ
0.66 LW
N
541 137.331 M
538.685 137.331 L
S
GR
GS
[0.75843 0 0 0.75866 0 0.189] CT
0.149 GC
2 setlinecap
1 LJ
0.66 LW
N
541 134.127 M
538.685 134.127 L
S
GR
GS
[0.75843 0 0 0.75866 0 0.189] CT
0.149 GC
2 setlinecap
1 LJ
0.66 LW
N
541 131.352 M
538.685 131.352 L
S
GR
GS
[0.75843 0 0 0.75866 0 0.189] CT
0.149 GC
2 setlinecap
1 LJ
0.66 LW
N
541 128.904 M
538.685 128.904 L
S
GR
GS
[0.75843 0 0 0.75866 0 0.189] CT
0.149 GC
2 setlinecap
1 LJ
0.66 LW
N
541 126.714 M
538.685 126.714 L
S
GR
GS
[0.75843 0 0 0.75866 0 0.189] CT
0.149 GC
2 setlinecap
1 LJ
0.66 LW
N
541 112.308 M
538.685 112.308 L
S
GR
GS
[0.75843 0 0 0.75866 0 0.189] CT
0.149 GC
2 setlinecap
1 LJ
0.66 LW
N
541 103.881 M
538.685 103.881 L
S
GR
GS
[0.75843 0 0 0.75866 0 0.189] CT
0.149 GC
2 setlinecap
1 LJ
0.66 LW
N
541 97.901 M
538.685 97.901 L
S
GR
GS
[0.75843 0 0 0.75866 0 0.189] CT
0.149 GC
2 setlinecap
1 LJ
0.66 LW
N
541 93.264 M
538.685 93.264 L
S
GR
GS
[0.75843 0 0 0.75866 0 0.189] CT
0.149 GC
2 setlinecap
1 LJ
0.66 LW
N
541 89.474 M
538.685 89.474 L
S
GR
GS
[0.75843 0 0 0.75866 0 0.189] CT
0.149 GC
2 setlinecap
1 LJ
0.66 LW
N
541 86.27 M
538.685 86.27 L
S
GR
GS
[0.75843 0 0 0.75866 0 0.189] CT
0.149 GC
2 setlinecap
1 LJ
0.66 LW
N
541 83.495 M
538.685 83.495 L
S
GR
GS
[0.75843 0 0 0.75866 0 0.189] CT
0.149 GC
2 setlinecap
1 LJ
0.66 LW
N
541 81.047 M
538.685 81.047 L
S
GR
GS
[0.75843 0 0 0.75866 0 0.189] CT
0.149 GC
2 setlinecap
1 LJ
0.66 LW
N
541 78.857 M
538.685 78.857 L
S
GR
GS
[0.75843 0 0 0.75866 0 0.189] CT
0.149 GC
2 setlinecap
1 LJ
0.66 LW
N
541 64.451 M
538.685 64.451 L
S
GR
GS
[0.75843 0 0 0.75866 0 0.189] CT
0.149 GC
2 setlinecap
1 LJ
0.66 LW
N
541 56.023 M
538.685 56.023 L
S
GR
GS
[0.75843 0 0 0.75866 0 0.189] CT
0.149 GC
2 setlinecap
1 LJ
0.66 LW
N
541 50.044 M
538.685 50.044 L
S
GR
GS
[0.75843 0 0 0.75866 0 0.189] CT
0.149 GC
2 setlinecap
1 LJ
0.66 LW
N
541 45.406 M
538.685 45.406 L
S
GR
GS
[0.75843 0 0 0.75866 0 0.189] CT
0.149 GC
2 setlinecap
1 LJ
0.66 LW
N
541 41.617 M
538.685 41.617 L
S
GR
GS
[0.75843 0 0 0.75866 0 0.189] CT
0.149 GC
2 setlinecap
1 LJ
0.66 LW
N
541 38.413 M
538.685 38.413 L
S
GR
GS
[0.75843 0 0 0.75866 0 0.189] CT
0.149 GC
2 setlinecap
1 LJ
0.66 LW
N
541 35.638 M
538.685 35.638 L
S
GR
GS
[0.75843 0 0 0.75866 0 0.189] CT
0.149 GC
2 setlinecap
1 LJ
0.66 LW
N
541 33.19 M
538.685 33.19 L
S
GR
GS
[0.75843 0 0 0.75866 0 0.189] CT
0.149 GC
2 setlinecap
1 LJ
0.66 LW
N
541 31 M
538.685 31 L
S
GR
GS
[0.75843 0 0 0.75866 34.12951 282.41209] CT
0.149 GC
/Helvetica 13.194 F
GS
[1 0 0 1 0 0] CT
0 0 moveto 
1 -1 scale
(10) t 
GR
GR
GS
[0.75843 0 0 0.75866 47.02288 277.86011] CT
0.149 GC
/Helvetica 10.556 F
GS
[1 0 0 1 0 0] CT
0 0 moveto 
1 -1 scale
(-7) t 
GR
GR
GS
[0.75843 0 0 0.75866 34.12951 245.99621] CT
0.149 GC
/Helvetica 13.194 F
GS
[1 0 0 1 0 0] CT
0 0 moveto 
1 -1 scale
(10) t 
GR
GR
GS
[0.75843 0 0 0.75866 47.02288 241.44423] CT
0.149 GC
/Helvetica 10.556 F
GS
[1 0 0 1 0 0] CT
0 0 moveto 
1 -1 scale
(-6) t 
GR
GR
GS
[0.75843 0 0 0.75866 34.12951 209.58033] CT
0.149 GC
/Helvetica 13.194 F
GS
[1 0 0 1 0 0] CT
0 0 moveto 
1 -1 scale
(10) t 
GR
GR
GS
[0.75843 0 0 0.75866 47.02288 205.02834] CT
0.149 GC
/Helvetica 10.556 F
GS
[1 0 0 1 0 0] CT
0 0 moveto 
1 -1 scale
(-5) t 
GR
GR
GS
[0.75843 0 0 0.75866 34.12951 173.16444] CT
0.149 GC
/Helvetica 13.194 F
GS
[1 0 0 1 0 0] CT
0 0 moveto 
1 -1 scale
(10) t 
GR
GR
GS
[0.75843 0 0 0.75866 47.02288 168.61246] CT
0.149 GC
/Helvetica 10.556 F
GS
[1 0 0 1 0 0] CT
0 0 moveto 
1 -1 scale
(-4) t 
GR
GR
GS
[0.75843 0 0 0.75866 34.12951 137.50722] CT
0.149 GC
/Helvetica 13.194 F
GS
[1 0 0 1 0 0] CT
0 0 moveto 
1 -1 scale
(10) t 
GR
GR
GS
[0.75843 0 0 0.75866 47.02288 132.95524] CT
0.149 GC
/Helvetica 10.556 F
GS
[1 0 0 1 0 0] CT
0 0 moveto 
1 -1 scale
(-3) t 
GR
GR
GS
[0.75843 0 0 0.75866 34.12951 101.09134] CT
0.149 GC
/Helvetica 13.194 F
GS
[1 0 0 1 0 0] CT
0 0 moveto 
1 -1 scale
(10) t 
GR
GR
GS
[0.75843 0 0 0.75866 47.02288 96.53935] CT
0.149 GC
/Helvetica 10.556 F
GS
[1 0 0 1 0 0] CT
0 0 moveto 
1 -1 scale
(-2) t 
GR
GR
GS
[0.75843 0 0 0.75866 34.12951 64.67546] CT
0.149 GC
/Helvetica 13.194 F
GS
[1 0 0 1 0 0] CT
0 0 moveto 
1 -1 scale
(10) t 
GR
GR
GS
[0.75843 0 0 0.75866 47.02288 60.12347] CT
0.149 GC
/Helvetica 10.556 F
GS
[1 0 0 1 0 0] CT
0 0 moveto 
1 -1 scale
(-1) t 
GR
GR
GS
[0.75843 0 0 0.75866 37.16325 28.25957] CT
0.149 GC
/Helvetica 13.194 F
GS
[1 0 0 1 0 0] CT
0 0 moveto 
1 -1 scale
(10) t 
GR
GR
GS
[0.75843 0 0 0.75866 50.05662 23.70759] CT
0.149 GC
/Helvetica 10.556 F
GS
[1 0 0 1 0 0] CT
0 0 moveto 
1 -1 scale
(0) t 
GR
GR
GS
[0 -0.75866 0.75843 0 30.9167 150.78373] CT
0.149 GC
/Helvetica 14.514 F
GS
[1 0 0 1 0 0] CT
-15 -4 moveto 
1 -1 scale
(BER) t 
GR
GR
GS
[0.75843 0 0 0.75866 0 0.189] CT
0.192 0.122 0.529 RC
1 LJ
1.319 LW
N
77.945 53.574 M
78 53.576 L
101.15 54.8 L
124.3 56.177 L
147.45 57.877 L
170.6 59.797 L
193.75 62.139 L
216.9 64.788 L
240.05 67.975 L
263.2 71.726 L
286.35 76.099 L
309.5 81.384 L
332.65 87.864 L
355.8 96.164 L
378.95 107.39 L
402.1 122.857 L
425.25 144.672 L
448.4 176.013 L
471.55 218.901 L
494.7 277.699 L
S
GR
GS
[0.75843 0 0 0.75866 59.15782 40.83521] CT
0.192 0.122 0.529 RC
10.0 ML
1.319 LW
N
-2.799 -2.799 M
2.799 2.799 L
-2.799 2.799 M
2.799 -2.799 L
S
GR
GS
[0.75843 0 0 0.75866 76.71556 41.76411] CT
0.192 0.122 0.529 RC
10.0 ML
1.319 LW
N
-2.799 -2.799 M
2.799 2.799 L
-2.799 2.799 M
2.799 -2.799 L
S
GR
GS
[0.75843 0 0 0.75866 94.2733 42.80873] CT
0.192 0.122 0.529 RC
10.0 ML
1.319 LW
N
-2.799 -2.799 M
2.799 2.799 L
-2.799 2.799 M
2.799 -2.799 L
S
GR
GS
[0.75843 0 0 0.75866 111.83103 44.09834] CT
0.192 0.122 0.529 RC
10.0 ML
1.319 LW
N
-2.799 -2.799 M
2.799 2.799 L
-2.799 2.799 M
2.799 -2.799 L
S
GR
GS
[0.75843 0 0 0.75866 129.38878 45.55497] CT
0.192 0.122 0.529 RC
10.0 ML
1.319 LW
N
-2.799 -2.799 M
2.799 2.799 L
-2.799 2.799 M
2.799 -2.799 L
S
GR
GS
[0.75843 0 0 0.75866 146.94651 47.33157] CT
0.192 0.122 0.529 RC
10.0 ML
1.319 LW
N
-2.799 -2.799 M
2.799 2.799 L
-2.799 2.799 M
2.799 -2.799 L
S
GR
GS
[0.75843 0 0 0.75866 164.50426 49.34108] CT
0.192 0.122 0.529 RC
10.0 ML
1.319 LW
N
-2.799 -2.799 M
2.799 2.799 L
-2.799 2.799 M
2.799 -2.799 L
S
GR
GS
[0.75843 0 0 0.75866 182.06199 51.75931] CT
0.192 0.122 0.529 RC
10.0 ML
1.319 LW
N
-2.799 -2.799 M
2.799 2.799 L
-2.799 2.799 M
2.799 -2.799 L
S
GR
GS
[0.75843 0 0 0.75866 199.61974 54.60475] CT
0.192 0.122 0.529 RC
10.0 ML
1.319 LW
N
-2.799 -2.799 M
2.799 2.799 L
-2.799 2.799 M
2.799 -2.799 L
S
GR
GS
[0.75843 0 0 0.75866 217.17747 57.92242] CT
0.192 0.122 0.529 RC
10.0 ML
1.319 LW
N
-2.799 -2.799 M
2.799 2.799 L
-2.799 2.799 M
2.799 -2.799 L
S
GR
GS
[0.75843 0 0 0.75866 234.73521 61.93179] CT
0.192 0.122 0.529 RC
10.0 ML
1.319 LW
N
-2.799 -2.799 M
2.799 2.799 L
-2.799 2.799 M
2.799 -2.799 L
S
GR
GS
[0.75843 0 0 0.75866 252.29294 66.84849] CT
0.192 0.122 0.529 RC
10.0 ML
1.319 LW
N
-2.799 -2.799 M
2.799 2.799 L
-2.799 2.799 M
2.799 -2.799 L
S
GR
GS
[0.75843 0 0 0.75866 269.8507 73.14507] CT
0.192 0.122 0.529 RC
10.0 ML
1.319 LW
N
-2.799 -2.799 M
2.799 2.799 L
-2.799 2.799 M
2.799 -2.799 L
S
GR
GS
[0.75843 0 0 0.75866 287.40841 81.66216] CT
0.192 0.122 0.529 RC
10.0 ML
1.319 LW
N
-2.799 -2.799 M
2.799 2.799 L
-2.799 2.799 M
2.799 -2.799 L
S
GR
GS
[0.75843 0 0 0.75866 304.96616 93.39656] CT
0.192 0.122 0.529 RC
10.0 ML
1.319 LW
N
-2.799 -2.799 M
2.799 2.799 L
-2.799 2.799 M
2.799 -2.799 L
S
GR
GS
[0.75843 0 0 0.75866 322.5239 109.9462] CT
0.192 0.122 0.529 RC
10.0 ML
1.319 LW
N
-2.799 -2.799 M
2.799 2.799 L
-2.799 2.799 M
2.799 -2.799 L
S
GR
GS
[0.75843 0 0 0.75866 340.08163 133.72361] CT
0.192 0.122 0.529 RC
10.0 ML
1.319 LW
N
-2.799 -2.799 M
2.799 2.799 L
-2.799 2.799 M
2.799 -2.799 L
S
GR
GS
[0.75843 0 0 0.75866 357.63939 166.26107] CT
0.192 0.122 0.529 RC
10.0 ML
1.319 LW
N
-2.799 -2.799 M
2.799 2.799 L
-2.799 2.799 M
2.799 -2.799 L
S
GR
GS
[0.75843 0 0 0.75866 375.1971 210.86921] CT
0.192 0.122 0.529 RC
10.0 ML
1.319 LW
N
-2.799 -2.799 M
2.799 2.799 L
-2.799 2.799 M
2.799 -2.799 L
S
GR
GS
[0.75843 0 0 0.75866 0 0.189] CT
0.161 0.384 0.792 RC
1 LJ
1.319 LW
N
77.945 60.548 M
78 60.553 L
101.15 62.89 L
124.3 65.741 L
147.45 69.016 L
170.6 73.014 L
193.75 77.81 L
216.9 83.674 L
240.05 90.766 L
263.2 99.563 L
286.35 110.331 L
309.5 124.022 L
332.65 140.964 L
355.8 163.254 L
378.95 190.858 L
402.1 227.262 L
425.25 274.924 L
448.4 346.956 L
S
GR
GS
[0.75843 0 0 0.75866 59.15782 46.12801] CT
0.161 0.384 0.792 RC
10.0 ML
1.319 LW
N
-2.799 -2.799 M
2.799 2.799 L
-2.799 2.799 M
2.799 -2.799 L
S
GR
GS
[0.75843 0 0 0.75866 76.71556 47.90168] CT
0.161 0.384 0.792 RC
10.0 ML
1.319 LW
N
-2.799 -2.799 M
2.799 2.799 L
-2.799 2.799 M
2.799 -2.799 L
S
GR
GS
[0.75843 0 0 0.75866 94.2733 50.06461] CT
0.161 0.384 0.792 RC
10.0 ML
1.319 LW
N
-2.799 -2.799 M
2.799 2.799 L
-2.799 2.799 M
2.799 -2.799 L
S
GR
GS
[0.75843 0 0 0.75866 111.83103 52.54864] CT
0.161 0.384 0.792 RC
10.0 ML
1.319 LW
N
-2.799 -2.799 M
2.799 2.799 L
-2.799 2.799 M
2.799 -2.799 L
S
GR
GS
[0.75843 0 0 0.75866 129.38878 55.5819] CT
0.161 0.384 0.792 RC
10.0 ML
1.319 LW
N
-2.799 -2.799 M
2.799 2.799 L
-2.799 2.799 M
2.799 -2.799 L
S
GR
GS
[0.75843 0 0 0.75866 146.94651 59.22028] CT
0.161 0.384 0.792 RC
10.0 ML
1.319 LW
N
-2.799 -2.799 M
2.799 2.799 L
-2.799 2.799 M
2.799 -2.799 L
S
GR
GS
[0.75843 0 0 0.75866 164.50426 63.66919] CT
0.161 0.384 0.792 RC
10.0 ML
1.319 LW
N
-2.799 -2.799 M
2.799 2.799 L
-2.799 2.799 M
2.799 -2.799 L
S
GR
GS
[0.75843 0 0 0.75866 182.06199 69.04965] CT
0.161 0.384 0.792 RC
10.0 ML
1.319 LW
N
-2.799 -2.799 M
2.799 2.799 L
-2.799 2.799 M
2.799 -2.799 L
S
GR
GS
[0.75843 0 0 0.75866 199.61974 75.72375] CT
0.161 0.384 0.792 RC
10.0 ML
1.319 LW
N
-2.799 -2.799 M
2.799 2.799 L
-2.799 2.799 M
2.799 -2.799 L
S
GR
GS
[0.75843 0 0 0.75866 217.17747 83.89296] CT
0.161 0.384 0.792 RC
10.0 ML
1.319 LW
N
-2.799 -2.799 M
2.799 2.799 L
-2.799 2.799 M
2.799 -2.799 L
S
GR
GS
[0.75843 0 0 0.75866 234.73521 94.2804] CT
0.161 0.384 0.792 RC
10.0 ML
1.319 LW
N
-2.799 -2.799 M
2.799 2.799 L
-2.799 2.799 M
2.799 -2.799 L
S
GR
GS
[0.75843 0 0 0.75866 252.29294 107.13363] CT
0.161 0.384 0.792 RC
10.0 ML
1.319 LW
N
-2.799 -2.799 M
2.799 2.799 L
-2.799 2.799 M
2.799 -2.799 L
S
GR
GS
[0.75843 0 0 0.75866 269.8507 124.04431] CT
0.161 0.384 0.792 RC
10.0 ML
1.319 LW
N
-2.799 -2.799 M
2.799 2.799 L
-2.799 2.799 M
2.799 -2.799 L
S
GR
GS
[0.75843 0 0 0.75866 287.40841 144.98631] CT
0.161 0.384 0.792 RC
10.0 ML
1.319 LW
N
-2.799 -2.799 M
2.799 2.799 L
-2.799 2.799 M
2.799 -2.799 L
S
GR
GS
[0.75843 0 0 0.75866 304.96616 172.60468] CT
0.161 0.384 0.792 RC
10.0 ML
1.319 LW
N
-2.799 -2.799 M
2.799 2.799 L
-2.799 2.799 M
2.799 -2.799 L
S
GR
GS
[0.75843 0 0 0.75866 322.5239 208.76367] CT
0.161 0.384 0.792 RC
10.0 ML
1.319 LW
N
-2.799 -2.799 M
2.799 2.799 L
-2.799 2.799 M
2.799 -2.799 L
S
GR
GS
[0.75843 0 0 0.75866 340.08163 263.41189] CT
0.161 0.384 0.792 RC
10.0 ML
1.319 LW
N
-2.799 -2.799 M
2.799 2.799 L
-2.799 2.799 M
2.799 -2.799 L
S
GR
GS
[0.75843 0 0 0.75866 0 0.189] CT
0.055 0.596 0.58 RC
1 LJ
1.319 LW
N
77.945 63.968 M
78 63.974 L
101.15 66.973 L
124.3 70.545 L
147.45 74.78 L
170.6 79.891 L
193.75 86.072 L
216.9 93.592 L
240.05 102.784 L
263.2 113.937 L
286.35 127.835 L
309.5 145.273 L
332.65 166.592 L
355.8 193.512 L
378.95 228.132 L
402.1 270.812 L
425.25 332.549 L
S
GR
GS
[0.75843 0 0 0.75866 59.15782 48.72357] CT
0.055 0.596 0.58 RC
10.0 ML
1.319 LW
N
-2.799 -2.799 M
2.799 2.799 L
-2.799 2.799 M
2.799 -2.799 L
S
GR
GS
[0.75843 0 0 0.75866 76.71556 50.99884] CT
0.055 0.596 0.58 RC
10.0 ML
1.319 LW
N
-2.799 -2.799 M
2.799 2.799 L
-2.799 2.799 M
2.799 -2.799 L
S
GR
GS
[0.75843 0 0 0.75866 94.2733 53.70902] CT
0.055 0.596 0.58 RC
10.0 ML
1.319 LW
N
-2.799 -2.799 M
2.799 2.799 L
-2.799 2.799 M
2.799 -2.799 L
S
GR
GS
[0.75843 0 0 0.75866 111.83103 56.92187] CT
0.055 0.596 0.58 RC
10.0 ML
1.319 LW
N
-2.799 -2.799 M
2.799 2.799 L
-2.799 2.799 M
2.799 -2.799 L
S
GR
GS
[0.75843 0 0 0.75866 129.38878 60.79909] CT
0.055 0.596 0.58 RC
10.0 ML
1.319 LW
N
-2.799 -2.799 M
2.799 2.799 L
-2.799 2.799 M
2.799 -2.799 L
S
GR
GS
[0.75843 0 0 0.75866 146.94651 65.48899] CT
0.055 0.596 0.58 RC
10.0 ML
1.319 LW
N
-2.799 -2.799 M
2.799 2.799 L
-2.799 2.799 M
2.799 -2.799 L
S
GR
GS
[0.75843 0 0 0.75866 164.50426 71.19377] CT
0.055 0.596 0.58 RC
10.0 ML
1.319 LW
N
-2.799 -2.799 M
2.799 2.799 L
-2.799 2.799 M
2.799 -2.799 L
S
GR
GS
[0.75843 0 0 0.75866 182.06199 78.16736] CT
0.055 0.596 0.58 RC
10.0 ML
1.319 LW
N
-2.799 -2.799 M
2.799 2.799 L
-2.799 2.799 M
2.799 -2.799 L
S
GR
GS
[0.75843 0 0 0.75866 199.61974 86.62865] CT
0.055 0.596 0.58 RC
10.0 ML
1.319 LW
N
-2.799 -2.799 M
2.799 2.799 L
-2.799 2.799 M
2.799 -2.799 L
S
GR
GS
[0.75843 0 0 0.75866 217.17747 97.17294] CT
0.055 0.596 0.58 RC
10.0 ML
1.319 LW
N
-2.799 -2.799 M
2.799 2.799 L
-2.799 2.799 M
2.799 -2.799 L
S
GR
GS
[0.75843 0 0 0.75866 234.73521 110.40261] CT
0.055 0.596 0.58 RC
10.0 ML
1.319 LW
N
-2.799 -2.799 M
2.799 2.799 L
-2.799 2.799 M
2.799 -2.799 L
S
GR
GS
[0.75843 0 0 0.75866 252.29294 126.5767] CT
0.055 0.596 0.58 RC
10.0 ML
1.319 LW
N
-2.799 -2.799 M
2.799 2.799 L
-2.799 2.799 M
2.799 -2.799 L
S
GR
GS
[0.75843 0 0 0.75866 269.8507 146.99966] CT
0.055 0.596 0.58 RC
10.0 ML
1.319 LW
N
-2.799 -2.799 M
2.799 2.799 L
-2.799 2.799 M
2.799 -2.799 L
S
GR
GS
[0.75843 0 0 0.75866 287.40841 173.26496] CT
0.055 0.596 0.58 RC
10.0 ML
1.319 LW
N
-2.799 -2.799 M
2.799 2.799 L
-2.799 2.799 M
2.799 -2.799 L
S
GR
GS
[0.75843 0 0 0.75866 304.96616 205.64432] CT
0.055 0.596 0.58 RC
10.0 ML
1.319 LW
N
-2.799 -2.799 M
2.799 2.799 L
-2.799 2.799 M
2.799 -2.799 L
S
GR
GS
[0.75843 0 0 0.75866 322.5239 252.48225] CT
0.055 0.596 0.58 RC
10.0 ML
1.319 LW
N
-2.799 -2.799 M
2.799 2.799 L
-2.799 2.799 M
2.799 -2.799 L
S
GR
GS
[0.75843 0 0 0.75866 0 0.189] CT
0.627 0.604 0.129 RC
1 LJ
1.319 LW
N
77.945 65.643 M
78 65.65 L
101.15 68.956 L
124.3 72.9 L
147.45 77.616 L
170.6 83.291 L
193.75 90.13 L
216.9 98.541 L
240.05 108.59 L
263.2 121.239 L
286.35 136.625 L
309.5 155.308 L
332.65 178.369 L
355.8 210.039 L
378.95 249.642 L
402.1 292.105 L
S
GR
GS
[0.75843 0 0 0.75866 59.15782 49.99515] CT
0.627 0.604 0.129 RC
10.0 ML
1.319 LW
N
-2.799 -2.799 M
2.799 2.799 L
-2.799 2.799 M
2.799 -2.799 L
S
GR
GS
[0.75843 0 0 0.75866 76.71556 52.50314] CT
0.627 0.604 0.129 RC
10.0 ML
1.319 LW
N
-2.799 -2.799 M
2.799 2.799 L
-2.799 2.799 M
2.799 -2.799 L
S
GR
GS
[0.75843 0 0 0.75866 94.2733 55.49554] CT
0.627 0.604 0.129 RC
10.0 ML
1.319 LW
N
-2.799 -2.799 M
2.799 2.799 L
-2.799 2.799 M
2.799 -2.799 L
S
GR
GS
[0.75843 0 0 0.75866 111.83103 59.07373] CT
0.627 0.604 0.129 RC
10.0 ML
1.319 LW
N
-2.799 -2.799 M
2.799 2.799 L
-2.799 2.799 M
2.799 -2.799 L
S
GR
GS
[0.75843 0 0 0.75866 129.38878 63.37866] CT
0.627 0.604 0.129 RC
10.0 ML
1.319 LW
N
-2.799 -2.799 M
2.799 2.799 L
-2.799 2.799 M
2.799 -2.799 L
S
GR
GS
[0.75843 0 0 0.75866 146.94651 68.56709] CT
0.627 0.604 0.129 RC
10.0 ML
1.319 LW
N
-2.799 -2.799 M
2.799 2.799 L
-2.799 2.799 M
2.799 -2.799 L
S
GR
GS
[0.75843 0 0 0.75866 164.50426 74.94825] CT
0.627 0.604 0.129 RC
10.0 ML
1.319 LW
N
-2.799 -2.799 M
2.799 2.799 L
-2.799 2.799 M
2.799 -2.799 L
S
GR
GS
[0.75843 0 0 0.75866 182.06199 82.5727] CT
0.627 0.604 0.129 RC
10.0 ML
1.319 LW
N
-2.799 -2.799 M
2.799 2.799 L
-2.799 2.799 M
2.799 -2.799 L
S
GR
GS
[0.75843 0 0 0.75866 199.61974 92.16862] CT
0.627 0.604 0.129 RC
10.0 ML
1.319 LW
N
-2.799 -2.799 M
2.799 2.799 L
-2.799 2.799 M
2.799 -2.799 L
S
GR
GS
[0.75843 0 0 0.75866 217.17747 103.84127] CT
0.627 0.604 0.129 RC
10.0 ML
1.319 LW
N
-2.799 -2.799 M
2.799 2.799 L
-2.799 2.799 M
2.799 -2.799 L
S
GR
GS
[0.75843 0 0 0.75866 234.73521 118.01562] CT
0.627 0.604 0.129 RC
10.0 ML
1.319 LW
N
-2.799 -2.799 M
2.799 2.799 L
-2.799 2.799 M
2.799 -2.799 L
S
GR
GS
[0.75843 0 0 0.75866 252.29294 135.51127] CT
0.627 0.604 0.129 RC
10.0 ML
1.319 LW
N
-2.799 -2.799 M
2.799 2.799 L
-2.799 2.799 M
2.799 -2.799 L
S
GR
GS
[0.75843 0 0 0.75866 269.8507 159.53843] CT
0.627 0.604 0.129 RC
10.0 ML
1.319 LW
N
-2.799 -2.799 M
2.799 2.799 L
-2.799 2.799 M
2.799 -2.799 L
S
GR
GS
[0.75843 0 0 0.75866 287.40841 189.58336] CT
0.627 0.604 0.129 RC
10.0 ML
1.319 LW
N
-2.799 -2.799 M
2.799 2.799 L
-2.799 2.799 M
2.799 -2.799 L
S
GR
GS
[0.75843 0 0 0.75866 304.96616 221.79885] CT
0.627 0.604 0.129 RC
10.0 ML
1.319 LW
N
-2.799 -2.799 M
2.799 2.799 L
-2.799 2.799 M
2.799 -2.799 L
S
GR
GS
[0.75843 0 0 0.75866 0 0.189] CT
0.192 0.122 0.529 RC
[10 6] 0 setdash
2 LJ
1.319 LW
N
77.945 54.348 M
78 54.351 L
101.15 55.468 L
124.3 56.703 L
147.45 57.994 L
170.6 59.427 L
193.75 60.888 L
216.9 62.303 L
240.05 63.585 L
263.2 64.795 L
286.35 65.903 L
309.5 67.016 L
332.65 68.406 L
355.8 70.334 L
378.95 73.234 L
402.1 77.551 L
425.25 83.913 L
448.4 92.947 L
471.55 105.881 L
494.7 125.221 L
517.85 156.523 L
541 206.738 L
541.055 206.921 L
S
GR
GS
[0.75843 0 0 0.75866 59.15782 41.423] CT
0.192 0.122 0.529 RC
10.0 ML
1.319 LW
N
-2.799 -2.799 M
2.799 2.799 L
-2.799 2.799 M
2.799 -2.799 L
S
GR
GS
[0.75843 0 0 0.75866 76.71556 42.27086] CT
0.192 0.122 0.529 RC
10.0 ML
1.319 LW
N
-2.799 -2.799 M
2.799 2.799 L
-2.799 2.799 M
2.799 -2.799 L
S
GR
GS
[0.75843 0 0 0.75866 94.2733 43.20723] CT
0.192 0.122 0.529 RC
10.0 ML
1.319 LW
N
-2.799 -2.799 M
2.799 2.799 L
-2.799 2.799 M
2.799 -2.799 L
S
GR
GS
[0.75843 0 0 0.75866 111.83103 44.18721] CT
0.192 0.122 0.529 RC
10.0 ML
1.319 LW
N
-2.799 -2.799 M
2.799 2.799 L
-2.799 2.799 M
2.799 -2.799 L
S
GR
GS
[0.75843 0 0 0.75866 129.38878 45.27417] CT
0.192 0.122 0.529 RC
10.0 ML
1.319 LW
N
-2.799 -2.799 M
2.799 2.799 L
-2.799 2.799 M
2.799 -2.799 L
S
GR
GS
[0.75843 0 0 0.75866 146.94651 46.38281] CT
0.192 0.122 0.529 RC
10.0 ML
1.319 LW
N
-2.799 -2.799 M
2.799 2.799 L
-2.799 2.799 M
2.799 -2.799 L
S
GR
GS
[0.75843 0 0 0.75866 164.50426 47.45622] CT
0.192 0.122 0.529 RC
10.0 ML
1.319 LW
N
-2.799 -2.799 M
2.799 2.799 L
-2.799 2.799 M
2.799 -2.799 L
S
GR
GS
[0.75843 0 0 0.75866 182.06199 48.42872] CT
0.192 0.122 0.529 RC
10.0 ML
1.319 LW
N
-2.799 -2.799 M
2.799 2.799 L
-2.799 2.799 M
2.799 -2.799 L
S
GR
GS
[0.75843 0 0 0.75866 199.61974 49.34688] CT
0.192 0.122 0.529 RC
10.0 ML
1.319 LW
N
-2.799 -2.799 M
2.799 2.799 L
-2.799 2.799 M
2.799 -2.799 L
S
GR
GS
[0.75843 0 0 0.75866 217.17747 50.18754] CT
0.192 0.122 0.529 RC
10.0 ML
1.319 LW
N
-2.799 -2.799 M
2.799 2.799 L
-2.799 2.799 M
2.799 -2.799 L
S
GR
GS
[0.75843 0 0 0.75866 234.73521 51.03165] CT
0.192 0.122 0.529 RC
10.0 ML
1.319 LW
N
-2.799 -2.799 M
2.799 2.799 L
-2.799 2.799 M
2.799 -2.799 L
S
GR
GS
[0.75843 0 0 0.75866 252.29294 52.08588] CT
0.192 0.122 0.529 RC
10.0 ML
1.319 LW
N
-2.799 -2.799 M
2.799 2.799 L
-2.799 2.799 M
2.799 -2.799 L
S
GR
GS
[0.75843 0 0 0.75866 269.8507 53.5486] CT
0.192 0.122 0.529 RC
10.0 ML
1.319 LW
N
-2.799 -2.799 M
2.799 2.799 L
-2.799 2.799 M
2.799 -2.799 L
S
GR
GS
[0.75843 0 0 0.75866 287.40841 55.74897] CT
0.192 0.122 0.529 RC
10.0 ML
1.319 LW
N
-2.799 -2.799 M
2.799 2.799 L
-2.799 2.799 M
2.799 -2.799 L
S
GR
GS
[0.75843 0 0 0.75866 304.96616 59.02387] CT
0.192 0.122 0.529 RC
10.0 ML
1.319 LW
N
-2.799 -2.799 M
2.799 2.799 L
-2.799 2.799 M
2.799 -2.799 L
S
GR
GS
[0.75843 0 0 0.75866 322.5239 63.85059] CT
0.192 0.122 0.529 RC
10.0 ML
1.319 LW
N
-2.799 -2.799 M
2.799 2.799 L
-2.799 2.799 M
2.799 -2.799 L
S
GR
GS
[0.75843 0 0 0.75866 340.08163 70.70446] CT
0.192 0.122 0.529 RC
10.0 ML
1.319 LW
N
-2.799 -2.799 M
2.799 2.799 L
-2.799 2.799 M
2.799 -2.799 L
S
GR
GS
[0.75843 0 0 0.75866 357.63939 80.51683] CT
0.192 0.122 0.529 RC
10.0 ML
1.319 LW
N
-2.799 -2.799 M
2.799 2.799 L
-2.799 2.799 M
2.799 -2.799 L
S
GR
GS
[0.75843 0 0 0.75866 375.1971 95.18994] CT
0.192 0.122 0.529 RC
10.0 ML
1.319 LW
N
-2.799 -2.799 M
2.799 2.799 L
-2.799 2.799 M
2.799 -2.799 L
S
GR
GS
[0.75843 0 0 0.75866 392.75483 118.93766] CT
0.192 0.122 0.529 RC
10.0 ML
1.319 LW
N
-2.799 -2.799 M
2.799 2.799 L
-2.799 2.799 M
2.799 -2.799 L
S
GR
GS
[0.75843 0 0 0.75866 410.31259 157.03347] CT
0.192 0.122 0.529 RC
10.0 ML
1.319 LW
N
-2.799 -2.799 M
2.799 2.799 L
-2.799 2.799 M
2.799 -2.799 L
S
GR
GS
[0.75843 0 0 0.75866 0 0.189] CT
0.161 0.384 0.792 RC
[10 6] 0 setdash
2 LJ
1.319 LW
N
77.945 56.576 M
78 56.579 L
101.15 58.188 L
124.3 60.092 L
147.45 62.302 L
170.6 64.85 L
193.75 67.862 L
216.9 71.314 L
240.05 75.324 L
263.2 80.03 L
286.35 85.509 L
309.5 92.191 L
332.65 100.412 L
355.8 111.046 L
378.95 125.381 L
402.1 145.103 L
425.25 172.114 L
448.4 210.679 L
471.55 258.655 L
494.7 318.143 L
S
GR
GS
[0.75843 0 0 0.75866 59.15782 43.11372] CT
0.161 0.384 0.792 RC
10.0 ML
1.319 LW
N
-2.799 -2.799 M
2.799 2.799 L
-2.799 2.799 M
2.799 -2.799 L
S
GR
GS
[0.75843 0 0 0.75866 76.71556 44.33432] CT
0.161 0.384 0.792 RC
10.0 ML
1.319 LW
N
-2.799 -2.799 M
2.799 2.799 L
-2.799 2.799 M
2.799 -2.799 L
S
GR
GS
[0.75843 0 0 0.75866 94.2733 45.77902] CT
0.161 0.384 0.792 RC
10.0 ML
1.319 LW
N
-2.799 -2.799 M
2.799 2.799 L
-2.799 2.799 M
2.799 -2.799 L
S
GR
GS
[0.75843 0 0 0.75866 111.83103 47.45558] CT
0.161 0.384 0.792 RC
10.0 ML
1.319 LW
N
-2.799 -2.799 M
2.799 2.799 L
-2.799 2.799 M
2.799 -2.799 L
S
GR
GS
[0.75843 0 0 0.75866 129.38878 49.38847] CT
0.161 0.384 0.792 RC
10.0 ML
1.319 LW
N
-2.799 -2.799 M
2.799 2.799 L
-2.799 2.799 M
2.799 -2.799 L
S
GR
GS
[0.75843 0 0 0.75866 146.94651 51.67317] CT
0.161 0.384 0.792 RC
10.0 ML
1.319 LW
N
-2.799 -2.799 M
2.799 2.799 L
-2.799 2.799 M
2.799 -2.799 L
S
GR
GS
[0.75843 0 0 0.75866 164.50426 54.29203] CT
0.161 0.384 0.792 RC
10.0 ML
1.319 LW
N
-2.799 -2.799 M
2.799 2.799 L
-2.799 2.799 M
2.799 -2.799 L
S
GR
GS
[0.75843 0 0 0.75866 182.06199 57.33474] CT
0.161 0.384 0.792 RC
10.0 ML
1.319 LW
N
-2.799 -2.799 M
2.799 2.799 L
-2.799 2.799 M
2.799 -2.799 L
S
GR
GS
[0.75843 0 0 0.75866 199.61974 60.90456] CT
0.161 0.384 0.792 RC
10.0 ML
1.319 LW
N
-2.799 -2.799 M
2.799 2.799 L
-2.799 2.799 M
2.799 -2.799 L
S
GR
GS
[0.75843 0 0 0.75866 217.17747 65.06137] CT
0.161 0.384 0.792 RC
10.0 ML
1.319 LW
N
-2.799 -2.799 M
2.799 2.799 L
-2.799 2.799 M
2.799 -2.799 L
S
GR
GS
[0.75843 0 0 0.75866 234.73521 70.13072] CT
0.161 0.384 0.792 RC
10.0 ML
1.319 LW
N
-2.799 -2.799 M
2.799 2.799 L
-2.799 2.799 M
2.799 -2.799 L
S
GR
GS
[0.75843 0 0 0.75866 252.29294 76.36806] CT
0.161 0.384 0.792 RC
10.0 ML
1.319 LW
N
-2.799 -2.799 M
2.799 2.799 L
-2.799 2.799 M
2.799 -2.799 L
S
GR
GS
[0.75843 0 0 0.75866 269.8507 84.43533] CT
0.161 0.384 0.792 RC
10.0 ML
1.319 LW
N
-2.799 -2.799 M
2.799 2.799 L
-2.799 2.799 M
2.799 -2.799 L
S
GR
GS
[0.75843 0 0 0.75866 287.40841 95.3111] CT
0.161 0.384 0.792 RC
10.0 ML
1.319 LW
N
-2.799 -2.799 M
2.799 2.799 L
-2.799 2.799 M
2.799 -2.799 L
S
GR
GS
[0.75843 0 0 0.75866 304.96616 110.27316] CT
0.161 0.384 0.792 RC
10.0 ML
1.319 LW
N
-2.799 -2.799 M
2.799 2.799 L
-2.799 2.799 M
2.799 -2.799 L
S
GR
GS
[0.75843 0 0 0.75866 322.5239 130.76586] CT
0.161 0.384 0.792 RC
10.0 ML
1.319 LW
N
-2.799 -2.799 M
2.799 2.799 L
-2.799 2.799 M
2.799 -2.799 L
S
GR
GS
[0.75843 0 0 0.75866 340.08163 160.02366] CT
0.161 0.384 0.792 RC
10.0 ML
1.319 LW
N
-2.799 -2.799 M
2.799 2.799 L
-2.799 2.799 M
2.799 -2.799 L
S
GR
GS
[0.75843 0 0 0.75866 357.63939 196.42099] CT
0.161 0.384 0.792 RC
10.0 ML
1.319 LW
N
-2.799 -2.799 M
2.799 2.799 L
-2.799 2.799 M
2.799 -2.799 L
S
GR
GS
[0.75843 0 0 0.75866 375.1971 241.5526] CT
0.161 0.384 0.792 RC
10.0 ML
1.319 LW
N
-2.799 -2.799 M
2.799 2.799 L
-2.799 2.799 M
2.799 -2.799 L
S
GR
GS
[0.75843 0 0 0.75866 0 0.189] CT
0.055 0.596 0.58 RC
[10 6] 0 setdash
2 LJ
1.319 LW
N
77.945 66.132 M
78 66.139 L
101.15 69.605 L
124.3 73.593 L
147.45 78.503 L
170.6 84.306 L
193.75 91.402 L
216.9 100.012 L
240.05 110.368 L
263.2 123.228 L
286.35 138.963 L
309.5 158.362 L
332.65 182.526 L
355.8 211.157 L
378.95 251.241 L
402.1 299.099 L
S
GR
GS
[0.75843 0 0 0.75866 59.15782 50.36614] CT
0.055 0.596 0.58 RC
10.0 ML
1.319 LW
N
-2.799 -2.799 M
2.799 2.799 L
-2.799 2.799 M
2.799 -2.799 L
S
GR
GS
[0.75843 0 0 0.75866 76.71556 52.99567] CT
0.055 0.596 0.58 RC
10.0 ML
1.319 LW
N
-2.799 -2.799 M
2.799 2.799 L
-2.799 2.799 M
2.799 -2.799 L
S
GR
GS
[0.75843 0 0 0.75866 94.2733 56.02117] CT
0.055 0.596 0.58 RC
10.0 ML
1.319 LW
N
-2.799 -2.799 M
2.799 2.799 L
-2.799 2.799 M
2.799 -2.799 L
S
GR
GS
[0.75843 0 0 0.75866 111.83103 59.74653] CT
0.055 0.596 0.58 RC
10.0 ML
1.319 LW
N
-2.799 -2.799 M
2.799 2.799 L
-2.799 2.799 M
2.799 -2.799 L
S
GR
GS
[0.75843 0 0 0.75866 129.38878 64.14861] CT
0.055 0.596 0.58 RC
10.0 ML
1.319 LW
N
-2.799 -2.799 M
2.799 2.799 L
-2.799 2.799 M
2.799 -2.799 L
S
GR
GS
[0.75843 0 0 0.75866 146.94651 69.5323] CT
0.055 0.596 0.58 RC
10.0 ML
1.319 LW
N
-2.799 -2.799 M
2.799 2.799 L
-2.799 2.799 M
2.799 -2.799 L
S
GR
GS
[0.75843 0 0 0.75866 164.50426 76.06463] CT
0.055 0.596 0.58 RC
10.0 ML
1.319 LW
N
-2.799 -2.799 M
2.799 2.799 L
-2.799 2.799 M
2.799 -2.799 L
S
GR
GS
[0.75843 0 0 0.75866 182.06199 83.92146] CT
0.055 0.596 0.58 RC
10.0 ML
1.319 LW
N
-2.799 -2.799 M
2.799 2.799 L
-2.799 2.799 M
2.799 -2.799 L
S
GR
GS
[0.75843 0 0 0.75866 199.61974 93.67736] CT
0.055 0.596 0.58 RC
10.0 ML
1.319 LW
N
-2.799 -2.799 M
2.799 2.799 L
-2.799 2.799 M
2.799 -2.799 L
S
GR
GS
[0.75843 0 0 0.75866 217.17747 105.61521] CT
0.055 0.596 0.58 RC
10.0 ML
1.319 LW
N
-2.799 -2.799 M
2.799 2.799 L
-2.799 2.799 M
2.799 -2.799 L
S
GR
GS
[0.75843 0 0 0.75866 234.73521 120.33255] CT
0.055 0.596 0.58 RC
10.0 ML
1.319 LW
N
-2.799 -2.799 M
2.799 2.799 L
-2.799 2.799 M
2.799 -2.799 L
S
GR
GS
[0.75843 0 0 0.75866 252.29294 138.66497] CT
0.055 0.596 0.58 RC
10.0 ML
1.319 LW
N
-2.799 -2.799 M
2.799 2.799 L
-2.799 2.799 M
2.799 -2.799 L
S
GR
GS
[0.75843 0 0 0.75866 269.8507 160.38616] CT
0.055 0.596 0.58 RC
10.0 ML
1.319 LW
N
-2.799 -2.799 M
2.799 2.799 L
-2.799 2.799 M
2.799 -2.799 L
S
GR
GS
[0.75843 0 0 0.75866 287.40841 190.79689] CT
0.055 0.596 0.58 RC
10.0 ML
1.319 LW
N
-2.799 -2.799 M
2.799 2.799 L
-2.799 2.799 M
2.799 -2.799 L
S
GR
GS
[0.75843 0 0 0.75866 304.96616 227.10439] CT
0.055 0.596 0.58 RC
10.0 ML
1.319 LW
N
-2.799 -2.799 M
2.799 2.799 L
-2.799 2.799 M
2.799 -2.799 L
S
GR
GS
[0.75843 0 0 0.75866 0 0.189] CT
0.627 0.604 0.129 RC
[10 6] 0 setdash
2 LJ
1.319 LW
N
77.945 63.313 M
78 63.319 L
101.15 66.169 L
124.3 69.536 L
147.45 73.603 L
170.6 78.462 L
193.75 84.251 L
216.9 91.274 L
240.05 99.843 L
263.2 110.248 L
286.35 123.039 L
309.5 138.925 L
332.65 159.253 L
355.8 184.879 L
378.95 215.398 L
402.1 251.241 L
425.25 301.288 L
448.4 346.956 L
S
GR
GS
[0.75843 0 0 0.75866 59.15782 48.22677] CT
0.627 0.604 0.129 RC
10.0 ML
1.319 LW
N
-2.799 -2.799 M
2.799 2.799 L
-2.799 2.799 M
2.799 -2.799 L
S
GR
GS
[0.75843 0 0 0.75866 76.71556 50.38871] CT
0.627 0.604 0.129 RC
10.0 ML
1.319 LW
N
-2.799 -2.799 M
2.799 2.799 L
-2.799 2.799 M
2.799 -2.799 L
S
GR
GS
[0.75843 0 0 0.75866 94.2733 52.94364] CT
0.627 0.604 0.129 RC
10.0 ML
1.319 LW
N
-2.799 -2.799 M
2.799 2.799 L
-2.799 2.799 M
2.799 -2.799 L
S
GR
GS
[0.75843 0 0 0.75866 111.83103 56.02894] CT
0.627 0.604 0.129 RC
10.0 ML
1.319 LW
N
-2.799 -2.799 M
2.799 2.799 L
-2.799 2.799 M
2.799 -2.799 L
S
GR
GS
[0.75843 0 0 0.75866 129.38878 59.71517] CT
0.627 0.604 0.129 RC
10.0 ML
1.319 LW
N
-2.799 -2.799 M
2.799 2.799 L
-2.799 2.799 M
2.799 -2.799 L
S
GR
GS
[0.75843 0 0 0.75866 146.94651 64.10733] CT
0.627 0.604 0.129 RC
10.0 ML
1.319 LW
N
-2.799 -2.799 M
2.799 2.799 L
-2.799 2.799 M
2.799 -2.799 L
S
GR
GS
[0.75843 0 0 0.75866 164.50426 69.43543] CT
0.627 0.604 0.129 RC
10.0 ML
1.319 LW
N
-2.799 -2.799 M
2.799 2.799 L
-2.799 2.799 M
2.799 -2.799 L
S
GR
GS
[0.75843 0 0 0.75866 182.06199 75.93632] CT
0.627 0.604 0.129 RC
10.0 ML
1.319 LW
N
-2.799 -2.799 M
2.799 2.799 L
-2.799 2.799 M
2.799 -2.799 L
S
GR
GS
[0.75843 0 0 0.75866 199.61974 83.83052] CT
0.627 0.604 0.129 RC
10.0 ML
1.319 LW
N
-2.799 -2.799 M
2.799 2.799 L
-2.799 2.799 M
2.799 -2.799 L
S
GR
GS
[0.75843 0 0 0.75866 217.17747 93.53402] CT
0.627 0.604 0.129 RC
10.0 ML
1.319 LW
N
-2.799 -2.799 M
2.799 2.799 L
-2.799 2.799 M
2.799 -2.799 L
S
GR
GS
[0.75843 0 0 0.75866 234.73521 105.5868] CT
0.627 0.604 0.129 RC
10.0 ML
1.319 LW
N
-2.799 -2.799 M
2.799 2.799 L
-2.799 2.799 M
2.799 -2.799 L
S
GR
GS
[0.75843 0 0 0.75866 252.29294 121.00827] CT
0.627 0.604 0.129 RC
10.0 ML
1.319 LW
N
-2.799 -2.799 M
2.799 2.799 L
-2.799 2.799 M
2.799 -2.799 L
S
GR
GS
[0.75843 0 0 0.75866 269.8507 140.4501] CT
0.627 0.604 0.129 RC
10.0 ML
1.319 LW
N
-2.799 -2.799 M
2.799 2.799 L
-2.799 2.799 M
2.799 -2.799 L
S
GR
GS
[0.75843 0 0 0.75866 287.40841 163.60393] CT
0.627 0.604 0.129 RC
10.0 ML
1.319 LW
N
-2.799 -2.799 M
2.799 2.799 L
-2.799 2.799 M
2.799 -2.799 L
S
GR
GS
[0.75843 0 0 0.75866 304.96616 190.79689] CT
0.627 0.604 0.129 RC
10.0 ML
1.319 LW
N
-2.799 -2.799 M
2.799 2.799 L
-2.799 2.799 M
2.799 -2.799 L
S
GR
GS
[0.75843 0 0 0.75866 322.5239 228.76573] CT
0.627 0.604 0.129 RC
10.0 ML
1.319 LW
N
-2.799 -2.799 M
2.799 2.799 L
-2.799 2.799 M
2.799 -2.799 L
S
GR
GS
[0.75843 0 0 0.75866 340.08163 263.41189] CT
0.627 0.604 0.129 RC
10.0 ML
1.319 LW
N
-2.799 -2.799 M
2.799 2.799 L
-2.799 2.799 M
2.799 -2.799 L
S
GR
GS
[0.75843 0 0 0.75866 0 0.189] CT
0.192 0.122 0.529 RC
[1 3] 0 setdash
2 LJ
1.319 LW
N
77.945 58.638 M
78 58.642 L
101.15 60.593 L
124.3 62.837 L
147.45 65.417 L
170.6 68.429 L
193.75 71.964 L
216.9 76.093 L
240.05 81.024 L
263.2 86.917 L
286.35 94.053 L
309.5 103.029 L
332.65 114.572 L
355.8 129.631 L
378.95 149.502 L
402.1 175.852 L
425.25 210.473 L
448.4 255.114 L
471.55 324.122 L
S
GR
GS
[0.75843 0 0 0.75866 59.15782 44.67892] CT
0.192 0.122 0.529 RC
10.0 ML
1.319 LW
N
-2.799 -2.799 M
2.799 2.799 L
-2.799 2.799 M
2.799 -2.799 L
S
GR
GS
[0.75843 0 0 0.75866 76.71556 46.15837] CT
0.192 0.122 0.529 RC
10.0 ML
1.319 LW
N
-2.799 -2.799 M
2.799 2.799 L
-2.799 2.799 M
2.799 -2.799 L
S
GR
GS
[0.75843 0 0 0.75866 94.2733 47.86148] CT
0.192 0.122 0.529 RC
10.0 ML
1.319 LW
N
-2.799 -2.799 M
2.799 2.799 L
-2.799 2.799 M
2.799 -2.799 L
S
GR
GS
[0.75843 0 0 0.75866 111.83103 49.81842] CT
0.192 0.122 0.529 RC
10.0 ML
1.319 LW
N
-2.799 -2.799 M
2.799 2.799 L
-2.799 2.799 M
2.799 -2.799 L
S
GR
GS
[0.75843 0 0 0.75866 129.38878 52.1037] CT
0.192 0.122 0.529 RC
10.0 ML
1.319 LW
N
-2.799 -2.799 M
2.799 2.799 L
-2.799 2.799 M
2.799 -2.799 L
S
GR
GS
[0.75843 0 0 0.75866 146.94651 54.78519] CT
0.192 0.122 0.529 RC
10.0 ML
1.319 LW
N
-2.799 -2.799 M
2.799 2.799 L
-2.799 2.799 M
2.799 -2.799 L
S
GR
GS
[0.75843 0 0 0.75866 164.50426 57.91799] CT
0.192 0.122 0.529 RC
10.0 ML
1.319 LW
N
-2.799 -2.799 M
2.799 2.799 L
-2.799 2.799 M
2.799 -2.799 L
S
GR
GS
[0.75843 0 0 0.75866 182.06199 61.65901] CT
0.192 0.122 0.529 RC
10.0 ML
1.319 LW
N
-2.799 -2.799 M
2.799 2.799 L
-2.799 2.799 M
2.799 -2.799 L
S
GR
GS
[0.75843 0 0 0.75866 199.61974 66.12953] CT
0.192 0.122 0.529 RC
10.0 ML
1.319 LW
N
-2.799 -2.799 M
2.799 2.799 L
-2.799 2.799 M
2.799 -2.799 L
S
GR
GS
[0.75843 0 0 0.75866 217.17747 71.54341] CT
0.192 0.122 0.529 RC
10.0 ML
1.319 LW
N
-2.799 -2.799 M
2.799 2.799 L
-2.799 2.799 M
2.799 -2.799 L
S
GR
GS
[0.75843 0 0 0.75866 234.73521 78.35367] CT
0.192 0.122 0.529 RC
10.0 ML
1.319 LW
N
-2.799 -2.799 M
2.799 2.799 L
-2.799 2.799 M
2.799 -2.799 L
S
GR
GS
[0.75843 0 0 0.75866 252.29294 87.11067] CT
0.192 0.122 0.529 RC
10.0 ML
1.319 LW
N
-2.799 -2.799 M
2.799 2.799 L
-2.799 2.799 M
2.799 -2.799 L
S
GR
GS
[0.75843 0 0 0.75866 269.8507 98.53528] CT
0.192 0.122 0.529 RC
10.0 ML
1.319 LW
N
-2.799 -2.799 M
2.799 2.799 L
-2.799 2.799 M
2.799 -2.799 L
S
GR
GS
[0.75843 0 0 0.75866 287.40841 113.61063] CT
0.192 0.122 0.529 RC
10.0 ML
1.319 LW
N
-2.799 -2.799 M
2.799 2.799 L
-2.799 2.799 M
2.799 -2.799 L
S
GR
GS
[0.75843 0 0 0.75866 304.96616 133.60155] CT
0.192 0.122 0.529 RC
10.0 ML
1.319 LW
N
-2.799 -2.799 M
2.799 2.799 L
-2.799 2.799 M
2.799 -2.799 L
S
GR
GS
[0.75843 0 0 0.75866 322.5239 159.86763] CT
0.192 0.122 0.529 RC
10.0 ML
1.319 LW
N
-2.799 -2.799 M
2.799 2.799 L
-2.799 2.799 M
2.799 -2.799 L
S
GR
GS
[0.75843 0 0 0.75866 340.08163 193.73497] CT
0.192 0.122 0.529 RC
10.0 ML
1.319 LW
N
-2.799 -2.799 M
2.799 2.799 L
-2.799 2.799 M
2.799 -2.799 L
S
GR
GS
[0.75843 0 0 0.75866 357.63939 246.08882] CT
0.192 0.122 0.529 RC
10.0 ML
1.319 LW
N
-2.799 -2.799 M
2.799 2.799 L
-2.799 2.799 M
2.799 -2.799 L
S
GR
GS
[0.75843 0 0 0.75866 0 0.189] CT
0.161 0.384 0.792 RC
[1 3] 0 setdash
2 LJ
1.319 LW
N
77.945 55.354 M
78 55.356 L
101.15 56.744 L
124.3 58.227 L
147.45 59.932 L
170.6 61.882 L
193.75 64.092 L
216.9 66.585 L
240.05 69.597 L
263.2 73.119 L
286.35 77.499 L
309.5 83.078 L
332.65 90.422 L
355.8 100.207 L
378.95 113.31 L
402.1 131.257 L
425.25 155.222 L
448.4 189.419 L
471.55 236.221 L
494.7 303.736 L
S
GR
GS
[0.75843 0 0 0.75866 59.15782 42.18588] CT
0.161 0.384 0.792 RC
10.0 ML
1.319 LW
N
-2.799 -2.799 M
2.799 2.799 L
-2.799 2.799 M
2.799 -2.799 L
S
GR
GS
[0.75843 0 0 0.75866 76.71556 43.23844] CT
0.161 0.384 0.792 RC
10.0 ML
1.319 LW
N
-2.799 -2.799 M
2.799 2.799 L
-2.799 2.799 M
2.799 -2.799 L
S
GR
GS
[0.75843 0 0 0.75866 94.2733 44.36379] CT
0.161 0.384 0.792 RC
10.0 ML
1.319 LW
N
-2.799 -2.799 M
2.799 2.799 L
-2.799 2.799 M
2.799 -2.799 L
S
GR
GS
[0.75843 0 0 0.75866 111.83103 45.65725] CT
0.161 0.384 0.792 RC
10.0 ML
1.319 LW
N
-2.799 -2.799 M
2.799 2.799 L
-2.799 2.799 M
2.799 -2.799 L
S
GR
GS
[0.75843 0 0 0.75866 129.38878 47.13636] CT
0.161 0.384 0.792 RC
10.0 ML
1.319 LW
N
-2.799 -2.799 M
2.799 2.799 L
-2.799 2.799 M
2.799 -2.799 L
S
GR
GS
[0.75843 0 0 0.75866 146.94651 48.8131] CT
0.161 0.384 0.792 RC
10.0 ML
1.319 LW
N
-2.799 -2.799 M
2.799 2.799 L
-2.799 2.799 M
2.799 -2.799 L
S
GR
GS
[0.75843 0 0 0.75866 164.50426 50.70464] CT
0.161 0.384 0.792 RC
10.0 ML
1.319 LW
N
-2.799 -2.799 M
2.799 2.799 L
-2.799 2.799 M
2.799 -2.799 L
S
GR
GS
[0.75843 0 0 0.75866 182.06199 52.98937] CT
0.161 0.384 0.792 RC
10.0 ML
1.319 LW
N
-2.799 -2.799 M
2.799 2.799 L
-2.799 2.799 M
2.799 -2.799 L
S
GR
GS
[0.75843 0 0 0.75866 199.61974 55.66153] CT
0.161 0.384 0.792 RC
10.0 ML
1.319 LW
N
-2.799 -2.799 M
2.799 2.799 L
-2.799 2.799 M
2.799 -2.799 L
S
GR
GS
[0.75843 0 0 0.75866 217.17747 58.98498] CT
0.161 0.384 0.792 RC
10.0 ML
1.319 LW
N
-2.799 -2.799 M
2.799 2.799 L
-2.799 2.799 M
2.799 -2.799 L
S
GR
GS
[0.75843 0 0 0.75866 234.73521 63.21744] CT
0.161 0.384 0.792 RC
10.0 ML
1.319 LW
N
-2.799 -2.799 M
2.799 2.799 L
-2.799 2.799 M
2.799 -2.799 L
S
GR
GS
[0.75843 0 0 0.75866 252.29294 68.78922] CT
0.161 0.384 0.792 RC
10.0 ML
1.319 LW
N
-2.799 -2.799 M
2.799 2.799 L
-2.799 2.799 M
2.799 -2.799 L
S
GR
GS
[0.75843 0 0 0.75866 269.8507 76.21215] CT
0.161 0.384 0.792 RC
10.0 ML
1.319 LW
N
-2.799 -2.799 M
2.799 2.799 L
-2.799 2.799 M
2.799 -2.799 L
S
GR
GS
[0.75843 0 0 0.75866 287.40841 86.15286] CT
0.161 0.384 0.792 RC
10.0 ML
1.319 LW
N
-2.799 -2.799 M
2.799 2.799 L
-2.799 2.799 M
2.799 -2.799 L
S
GR
GS
[0.75843 0 0 0.75866 304.96616 99.76889] CT
0.161 0.384 0.792 RC
10.0 ML
1.319 LW
N
-2.799 -2.799 M
2.799 2.799 L
-2.799 2.799 M
2.799 -2.799 L
S
GR
GS
[0.75843 0 0 0.75866 322.5239 117.95023] CT
0.161 0.384 0.792 RC
10.0 ML
1.319 LW
N
-2.799 -2.799 M
2.799 2.799 L
-2.799 2.799 M
2.799 -2.799 L
S
GR
GS
[0.75843 0 0 0.75866 340.08163 143.8944] CT
0.161 0.384 0.792 RC
10.0 ML
1.319 LW
N
-2.799 -2.799 M
2.799 2.799 L
-2.799 2.799 M
2.799 -2.799 L
S
GR
GS
[0.75843 0 0 0.75866 357.63939 179.40116] CT
0.161 0.384 0.792 RC
10.0 ML
1.319 LW
N
-2.799 -2.799 M
2.799 2.799 L
-2.799 2.799 M
2.799 -2.799 L
S
GR
GS
[0.75843 0 0 0.75866 375.1971 230.62296] CT
0.161 0.384 0.792 RC
10.0 ML
1.319 LW
N
-2.799 -2.799 M
2.799 2.799 L
-2.799 2.799 M
2.799 -2.799 L
S
GR
GS
[0.75843 0 0 0.75866 0 0.189] CT
0.055 0.596 0.58 RC
[1 3] 0 setdash
2 LJ
1.319 LW
N
77.945 59.952 M
78 59.957 L
101.15 62.176 L
124.3 64.816 L
147.45 67.976 L
170.6 71.721 L
193.75 76.219 L
216.9 81.689 L
240.05 88.408 L
263.2 96.748 L
286.35 107.067 L
309.5 120.32 L
332.65 136.962 L
355.8 158.827 L
378.95 186.567 L
402.1 222.955 L
425.25 274.284 L
S
GR
GS
[0.75843 0 0 0.75866 59.15782 45.67599] CT
0.055 0.596 0.58 RC
10.0 ML
1.319 LW
N
-2.799 -2.799 M
2.799 2.799 L
-2.799 2.799 M
2.799 -2.799 L
S
GR
GS
[0.75843 0 0 0.75866 76.71556 47.3598] CT
0.055 0.596 0.58 RC
10.0 ML
1.319 LW
N
-2.799 -2.799 M
2.799 2.799 L
-2.799 2.799 M
2.799 -2.799 L
S
GR
GS
[0.75843 0 0 0.75866 94.2733 49.36272] CT
0.055 0.596 0.58 RC
10.0 ML
1.319 LW
N
-2.799 -2.799 M
2.799 2.799 L
-2.799 2.799 M
2.799 -2.799 L
S
GR
GS
[0.75843 0 0 0.75866 111.83103 51.75993] CT
0.055 0.596 0.58 RC
10.0 ML
1.319 LW
N
-2.799 -2.799 M
2.799 2.799 L
-2.799 2.799 M
2.799 -2.799 L
S
GR
GS
[0.75843 0 0 0.75866 129.38878 54.60146] CT
0.055 0.596 0.58 RC
10.0 ML
1.319 LW
N
-2.799 -2.799 M
2.799 2.799 L
-2.799 2.799 M
2.799 -2.799 L
S
GR
GS
[0.75843 0 0 0.75866 146.94651 58.0136] CT
0.055 0.596 0.58 RC
10.0 ML
1.319 LW
N
-2.799 -2.799 M
2.799 2.799 L
-2.799 2.799 M
2.799 -2.799 L
S
GR
GS
[0.75843 0 0 0.75866 164.50426 62.16367] CT
0.055 0.596 0.58 RC
10.0 ML
1.319 LW
N
-2.799 -2.799 M
2.799 2.799 L
-2.799 2.799 M
2.799 -2.799 L
S
GR
GS
[0.75843 0 0 0.75866 182.06199 67.2611] CT
0.055 0.596 0.58 RC
10.0 ML
1.319 LW
N
-2.799 -2.799 M
2.799 2.799 L
-2.799 2.799 M
2.799 -2.799 L
S
GR
GS
[0.75843 0 0 0.75866 199.61974 73.58789] CT
0.055 0.596 0.58 RC
10.0 ML
1.319 LW
N
-2.799 -2.799 M
2.799 2.799 L
-2.799 2.799 M
2.799 -2.799 L
S
GR
GS
[0.75843 0 0 0.75866 217.17747 81.41672] CT
0.055 0.596 0.58 RC
10.0 ML
1.319 LW
N
-2.799 -2.799 M
2.799 2.799 L
-2.799 2.799 M
2.799 -2.799 L
S
GR
GS
[0.75843 0 0 0.75866 234.73521 91.47152] CT
0.055 0.596 0.58 RC
10.0 ML
1.319 LW
N
-2.799 -2.799 M
2.799 2.799 L
-2.799 2.799 M
2.799 -2.799 L
S
GR
GS
[0.75843 0 0 0.75866 252.29294 104.09736] CT
0.055 0.596 0.58 RC
10.0 ML
1.319 LW
N
-2.799 -2.799 M
2.799 2.799 L
-2.799 2.799 M
2.799 -2.799 L
S
GR
GS
[0.75843 0 0 0.75866 269.8507 120.68525] CT
0.055 0.596 0.58 RC
10.0 ML
1.319 LW
N
-2.799 -2.799 M
2.799 2.799 L
-2.799 2.799 M
2.799 -2.799 L
S
GR
GS
[0.75843 0 0 0.75866 287.40841 141.73058] CT
0.055 0.596 0.58 RC
10.0 ML
1.319 LW
N
-2.799 -2.799 M
2.799 2.799 L
-2.799 2.799 M
2.799 -2.799 L
S
GR
GS
[0.75843 0 0 0.75866 304.96616 169.33681] CT
0.055 0.596 0.58 RC
10.0 ML
1.319 LW
N
-2.799 -2.799 M
2.799 2.799 L
-2.799 2.799 M
2.799 -2.799 L
S
GR
GS
[0.75843 0 0 0.75866 322.5239 208.27846] CT
0.055 0.596 0.58 RC
10.0 ML
1.319 LW
N
-2.799 -2.799 M
2.799 2.799 L
-2.799 2.799 M
2.799 -2.799 L
S
GR
GS
[0.75843 0 0 0.75866 0 0.189] CT
0.627 0.604 0.129 RC
[1 3] 0 setdash
2 LJ
1.319 LW
N
77.945 68.031 M
78 68.038 L
101.15 71.756 L
124.3 76.251 L
147.45 81.641 L
170.6 88.1 L
193.75 95.88 L
216.9 105.494 L
240.05 117.123 L
263.2 131.278 L
286.35 149.001 L
309.5 170.869 L
332.65 198.124 L
355.8 230.986 L
378.95 274.284 L
S
GR
GS
[0.75843 0 0 0.75866 59.15782 51.80704] CT
0.627 0.604 0.129 RC
10.0 ML
1.319 LW
N
-2.799 -2.799 M
2.799 2.799 L
-2.799 2.799 M
2.799 -2.799 L
S
GR
GS
[0.75843 0 0 0.75866 76.71556 54.62746] CT
0.627 0.604 0.129 RC
10.0 ML
1.319 LW
N
-2.799 -2.799 M
2.799 2.799 L
-2.799 2.799 M
2.799 -2.799 L
S
GR
GS
[0.75843 0 0 0.75866 94.2733 58.03761] CT
0.627 0.604 0.129 RC
10.0 ML
1.319 LW
N
-2.799 -2.799 M
2.799 2.799 L
-2.799 2.799 M
2.799 -2.799 L
S
GR
GS
[0.75843 0 0 0.75866 111.83103 62.12725] CT
0.627 0.604 0.129 RC
10.0 ML
1.319 LW
N
-2.799 -2.799 M
2.799 2.799 L
-2.799 2.799 M
2.799 -2.799 L
S
GR
GS
[0.75843 0 0 0.75866 129.38878 67.02711] CT
0.627 0.604 0.129 RC
10.0 ML
1.319 LW
N
-2.799 -2.799 M
2.799 2.799 L
-2.799 2.799 M
2.799 -2.799 L
S
GR
GS
[0.75843 0 0 0.75866 146.94651 72.92974] CT
0.627 0.604 0.129 RC
10.0 ML
1.319 LW
N
-2.799 -2.799 M
2.799 2.799 L
-2.799 2.799 M
2.799 -2.799 L
S
GR
GS
[0.75843 0 0 0.75866 164.50426 80.22356] CT
0.627 0.604 0.129 RC
10.0 ML
1.319 LW
N
-2.799 -2.799 M
2.799 2.799 L
-2.799 2.799 M
2.799 -2.799 L
S
GR
GS
[0.75843 0 0 0.75866 182.06199 89.04611] CT
0.627 0.604 0.129 RC
10.0 ML
1.319 LW
N
-2.799 -2.799 M
2.799 2.799 L
-2.799 2.799 M
2.799 -2.799 L
S
GR
GS
[0.75843 0 0 0.75866 199.61974 99.78507] CT
0.627 0.604 0.129 RC
10.0 ML
1.319 LW
N
-2.799 -2.799 M
2.799 2.799 L
-2.799 2.799 M
2.799 -2.799 L
S
GR
GS
[0.75843 0 0 0.75866 217.17747 113.23057] CT
0.627 0.604 0.129 RC
10.0 ML
1.319 LW
N
-2.799 -2.799 M
2.799 2.799 L
-2.799 2.799 M
2.799 -2.799 L
S
GR
GS
[0.75843 0 0 0.75866 234.73521 129.82106] CT
0.627 0.604 0.129 RC
10.0 ML
1.319 LW
N
-2.799 -2.799 M
2.799 2.799 L
-2.799 2.799 M
2.799 -2.799 L
S
GR
GS
[0.75843 0 0 0.75866 252.29294 150.49861] CT
0.627 0.604 0.129 RC
10.0 ML
1.319 LW
N
-2.799 -2.799 M
2.799 2.799 L
-2.799 2.799 M
2.799 -2.799 L
S
GR
GS
[0.75843 0 0 0.75866 269.8507 175.42989] CT
0.627 0.604 0.129 RC
10.0 ML
1.319 LW
N
-2.799 -2.799 M
2.799 2.799 L
-2.799 2.799 M
2.799 -2.799 L
S
GR
GS
[0.75843 0 0 0.75866 287.40841 208.27846] CT
0.627 0.604 0.129 RC
10.0 ML
1.319 LW
N
-2.799 -2.799 M
2.799 2.799 L
-2.799 2.799 M
2.799 -2.799 L
S
GR
GS
[0.75843 0 0 0.75866 0 0.189] CT
1 GC
N
185 361 M
185 94 L
86 94 L
86 361 L
cp
f
GR
GS
[0.75843 0 0 0.75866 100.70498 78.71074] CT
/Helvetica 11.875 F
GS
[1 0 0 1 0 0] CT
0 4.5 moveto 
1 -1 scale
(n = 64) t 
GR
GR
GS
[0.75843 0 0 0.75866 100.70498 90.47003] CT
/Helvetica 11.875 F
GS
[1 0 0 1 0 0] CT
0 4.5 moveto 
1 -1 scale
(4/256) t 
GR
GR
GS
[0.75843 0 0 0.75866 0 0.189] CT
0.192 0.122 0.529 RC
1 LJ
1.319 LW
N
90.017 119 M
129.768 119 L
S
GR
GS
[0.75843 0 0 0.75866 83.34595 90.47004] CT
0.192 0.122 0.529 RC
10.0 ML
1.319 LW
N
-2.799 -2.799 M
2.799 2.799 L
-2.799 2.799 M
2.799 -2.799 L
S
GR
GS
[0.75843 0 0 0.75866 100.70498 102.22934] CT
/Helvetica 11.875 F
GS
[1 0 0 1 0 0] CT
0 4.5 moveto 
1 -1 scale
(12/256) t 
GR
GR
GS
[0.75843 0 0 0.75866 0 0.189] CT
0.161 0.384 0.792 RC
1 LJ
1.319 LW
N
90.017 134.5 M
129.768 134.5 L
S
GR
GS
[0.75843 0 0 0.75866 83.34595 102.22934] CT
0.161 0.384 0.792 RC
10.0 ML
1.319 LW
N
-2.799 -2.799 M
2.799 2.799 L
-2.799 2.799 M
2.799 -2.799 L
S
GR
GS
[0.75843 0 0 0.75866 100.70498 113.98863] CT
/Helvetica 11.875 F
GS
[1 0 0 1 0 0] CT
0 4.5 moveto 
1 -1 scale
(20/256) t 
GR
GR
GS
[0.75843 0 0 0.75866 0 0.189] CT
0.055 0.596 0.58 RC
1 LJ
1.319 LW
N
90.017 150 M
129.768 150 L
S
GR
GS
[0.75843 0 0 0.75866 83.34595 113.98863] CT
0.055 0.596 0.58 RC
10.0 ML
1.319 LW
N
-2.799 -2.799 M
2.799 2.799 L
-2.799 2.799 M
2.799 -2.799 L
S
GR
GS
[0.75843 0 0 0.75866 100.70498 125.74793] CT
/Helvetica 11.875 F
GS
[1 0 0 1 0 0] CT
0 4.5 moveto 
1 -1 scale
(28/256) t 
GR
GR
GS
[0.75843 0 0 0.75866 0 0.189] CT
0.627 0.604 0.129 RC
1 LJ
1.319 LW
N
90.017 165.5 M
129.768 165.5 L
S
GR
GS
[0.75843 0 0 0.75866 83.34595 125.74793] CT
0.627 0.604 0.129 RC
10.0 ML
1.319 LW
N
-2.799 -2.799 M
2.799 2.799 L
-2.799 2.799 M
2.799 -2.799 L
S
GR
GS
[0.75843 0 0 0.75866 100.70498 149.26652] CT
/Helvetica 11.875 F
GS
[1 0 0 1 0 0] CT
0 4.5 moveto 
1 -1 scale
(n = 128) t 
GR
GR
GS
[0.75843 0 0 0.75866 100.70498 161.02582] CT
/Helvetica 11.875 F
GS
[1 0 0 1 0 0] CT
0 4.5 moveto 
1 -1 scale
(2/256) t 
GR
GR
GS
[0.75843 0 0 0.75866 0 0.189] CT
0.192 0.122 0.529 RC
[10 6] 0 setdash
2 LJ
1.319 LW
N
90.017 212 M
129.768 212 L
S
GR
GS
[0.75843 0 0 0.75866 83.34595 161.02582] CT
0.192 0.122 0.529 RC
10.0 ML
1.319 LW
N
-2.799 -2.799 M
2.799 2.799 L
-2.799 2.799 M
2.799 -2.799 L
S
GR
GS
[0.75843 0 0 0.75866 100.70498 172.78511] CT
/Helvetica 11.875 F
GS
[1 0 0 1 0 0] CT
0 4.5 moveto 
1 -1 scale
(10/256) t 
GR
GR
GS
[0.75843 0 0 0.75866 0 0.189] CT
0.161 0.384 0.792 RC
[10 6] 0 setdash
2 LJ
1.319 LW
N
90.017 227.5 M
129.768 227.5 L
S
GR
GS
[0.75843 0 0 0.75866 83.34595 172.78511] CT
0.161 0.384 0.792 RC
10.0 ML
1.319 LW
N
-2.799 -2.799 M
2.799 2.799 L
-2.799 2.799 M
2.799 -2.799 L
S
GR
GS
[0.75843 0 0 0.75866 100.70498 184.54441] CT
/Helvetica 11.875 F
GS
[1 0 0 1 0 0] CT
0 4.5 moveto 
1 -1 scale
(18/256) t 
GR
GR
GS
[0.75843 0 0 0.75866 0 0.189] CT
0.055 0.596 0.58 RC
[10 6] 0 setdash
2 LJ
1.319 LW
N
90.017 243 M
129.768 243 L
S
GR
GS
[0.75843 0 0 0.75866 83.34595 184.54441] CT
0.055 0.596 0.58 RC
10.0 ML
1.319 LW
N
-2.799 -2.799 M
2.799 2.799 L
-2.799 2.799 M
2.799 -2.799 L
S
GR
GS
[0.75843 0 0 0.75866 100.70498 196.3037] CT
/Helvetica 11.875 F
GS
[1 0 0 1 0 0] CT
0 4.5 moveto 
1 -1 scale
(26/256) t 
GR
GR
GS
[0.75843 0 0 0.75866 0 0.189] CT
0.627 0.604 0.129 RC
[10 6] 0 setdash
2 LJ
1.319 LW
N
90.017 258.5 M
129.768 258.5 L
S
GR
GS
[0.75843 0 0 0.75866 83.34595 196.3037] CT
0.627 0.604 0.129 RC
10.0 ML
1.319 LW
N
-2.799 -2.799 M
2.799 2.799 L
-2.799 2.799 M
2.799 -2.799 L
S
GR
GS
[0.75843 0 0 0.75866 100.70498 219.82229] CT
/Helvetica 11.875 F
GS
[1 0 0 1 0 0] CT
0 4.5 moveto 
1 -1 scale
(n = 256) t 
GR
GR
GS
[0.75843 0 0 0.75866 100.70498 231.58159] CT
/Helvetica 11.875 F
GS
[1 0 0 1 0 0] CT
0 4.5 moveto 
1 -1 scale
(3/256) t 
GR
GR
GS
[0.75843 0 0 0.75866 0 0.189] CT
0.192 0.122 0.529 RC
[1 3] 0 setdash
2 LJ
1.319 LW
N
90.017 305 M
129.768 305 L
S
GR
GS
[0.75843 0 0 0.75866 83.34595 231.58159] CT
0.192 0.122 0.529 RC
10.0 ML
1.319 LW
N
-2.799 -2.799 M
2.799 2.799 L
-2.799 2.799 M
2.799 -2.799 L
S
GR
GS
[0.75843 0 0 0.75866 100.70498 243.34089] CT
/Helvetica 11.875 F
GS
[1 0 0 1 0 0] CT
0 4.5 moveto 
1 -1 scale
(11/256) t 
GR
GR
GS
[0.75843 0 0 0.75866 0 0.189] CT
0.161 0.384 0.792 RC
[1 3] 0 setdash
2 LJ
1.319 LW
N
90.017 320.5 M
129.768 320.5 L
S
GR
GS
[0.75843 0 0 0.75866 83.34595 243.34089] CT
0.161 0.384 0.792 RC
10.0 ML
1.319 LW
N
-2.799 -2.799 M
2.799 2.799 L
-2.799 2.799 M
2.799 -2.799 L
S
GR
GS
[0.75843 0 0 0.75866 100.70498 255.10018] CT
/Helvetica 11.875 F
GS
[1 0 0 1 0 0] CT
0 4.5 moveto 
1 -1 scale
(19/256) t 
GR
GR
GS
[0.75843 0 0 0.75866 0 0.189] CT
0.055 0.596 0.58 RC
[1 3] 0 setdash
2 LJ
1.319 LW
N
90.017 336 M
129.768 336 L
S
GR
GS
[0.75843 0 0 0.75866 83.34595 255.10018] CT
0.055 0.596 0.58 RC
10.0 ML
1.319 LW
N
-2.799 -2.799 M
2.799 2.799 L
-2.799 2.799 M
2.799 -2.799 L
S
GR
GS
[0.75843 0 0 0.75866 100.70498 266.85948] CT
/Helvetica 11.875 F
GS
[1 0 0 1 0 0] CT
0 4.5 moveto 
1 -1 scale
(27/256) t 
GR
GR
GS
[0.75843 0 0 0.75866 0 0.189] CT
0.627 0.604 0.129 RC
[1 3] 0 setdash
2 LJ
1.319 LW
N
90.017 351.5 M
129.768 351.5 L
S
GR
GS
[0.75843 0 0 0.75866 83.34595 266.85948] CT
0.627 0.604 0.129 RC
10.0 ML
1.319 LW
N
-2.799 -2.799 M
2.799 2.799 L
-2.799 2.799 M
2.799 -2.799 L
S
GR
GS
[0.75843 0 0 0.75866 0 0.189] CT
0.149 GC
10.0 ML
0.66 LW
N
86 361 M
86 94 L
185 94 L
185 361 L
cp
S
GR
%%Trailer
%%Pages: 1
%%EOF
