%!PS-Adobe-3.0 EPSF-3.0
%%Creator: (MATLAB, The Mathworks, Inc. Version 9.12.0.1956245 \(R2022a\) Update 2. Operating System: Linux)
%%Title: ./fig_ofdm.eps
%%CreationDate: 2022-08-04T15:47:05
%%Pages: (atend)
%%BoundingBox:    19     3   416   295
%%LanguageLevel: 3
%%EndComments
%%BeginProlog
%%BeginResource: procset (Apache XML Graphics Std ProcSet) 1.2 0
%%Version: 1.2 0
%%Copyright: (Copyright 2001-2003,2010 The Apache Software Foundation. License terms: http://www.apache.org/licenses/LICENSE-2.0)
/bd{bind def}bind def
/ld{load def}bd
/GR/grestore ld
/GS/gsave ld
/RM/rmoveto ld
/C/curveto ld
/t/show ld
/L/lineto ld
/ML/setmiterlimit ld
/CT/concat ld
/f/fill ld
/N/newpath ld
/S/stroke ld
/CC/setcmykcolor ld
/A/ashow ld
/cp/closepath ld
/RC/setrgbcolor ld
/LJ/setlinejoin ld
/GC/setgray ld
/LW/setlinewidth ld
/M/moveto ld
/re {4 2 roll M
1 index 0 rlineto
0 exch rlineto
neg 0 rlineto
cp } bd
/_ctm matrix def
/_tm matrix def
/BT { _ctm currentmatrix pop matrix _tm copy pop 0 0 moveto } bd
/ET { _ctm setmatrix } bd
/iTm { _ctm setmatrix _tm concat } bd
/Tm { _tm astore pop iTm 0 0 moveto } bd
/ux 0.0 def
/uy 0.0 def
/F {
  /Tp exch def
  /Tf exch def
  Tf findfont Tp scalefont setfont
  /cf Tf def  /cs Tp def
} bd
/ULS {currentpoint /uy exch def /ux exch def} bd
/ULE {
  /Tcx currentpoint pop def
  gsave
  newpath
  cf findfont cs scalefont dup
  /FontMatrix get 0 get /Ts exch def /FontInfo get dup
  /UnderlinePosition get Ts mul /To exch def
  /UnderlineThickness get Ts mul /Tt exch def
  ux uy To add moveto  Tcx uy To add lineto
  Tt setlinewidth stroke
  grestore
} bd
/OLE {
  /Tcx currentpoint pop def
  gsave
  newpath
  cf findfont cs scalefont dup
  /FontMatrix get 0 get /Ts exch def /FontInfo get dup
  /UnderlinePosition get Ts mul /To exch def
  /UnderlineThickness get Ts mul /Tt exch def
  ux uy To add cs add moveto Tcx uy To add cs add lineto
  Tt setlinewidth stroke
  grestore
} bd
/SOE {
  /Tcx currentpoint pop def
  gsave
  newpath
  cf findfont cs scalefont dup
  /FontMatrix get 0 get /Ts exch def /FontInfo get dup
  /UnderlinePosition get Ts mul /To exch def
  /UnderlineThickness get Ts mul /Tt exch def
  ux uy To add cs 10 mul 26 idiv add moveto Tcx uy To add cs 10 mul 26 idiv add lineto
  Tt setlinewidth stroke
  grestore
} bd
/QT {
/Y22 exch store
/X22 exch store
/Y21 exch store
/X21 exch store
currentpoint
/Y21 load 2 mul add 3 div exch
/X21 load 2 mul add 3 div exch
/X21 load 2 mul /X22 load add 3 div
/Y21 load 2 mul /Y22 load add 3 div
/X22 load /Y22 load curveto
} bd
/SSPD {
dup length /d exch dict def
{
/v exch def
/k exch def
currentpagedevice k known {
/cpdv currentpagedevice k get def
v cpdv ne {
/upd false def
/nullv v type /nulltype eq def
/nullcpdv cpdv type /nulltype eq def
nullv nullcpdv or
{
/upd true def
} {
/sametype v type cpdv type eq def
sametype {
v type /arraytype eq {
/vlen v length def
/cpdvlen cpdv length def
vlen cpdvlen eq {
0 1 vlen 1 sub {
/i exch def
/obj v i get def
/cpdobj cpdv i get def
obj cpdobj ne {
/upd true def
exit
} if
} for
} {
/upd true def
} ifelse
} {
v type /dicttype eq {
v {
/dv exch def
/dk exch def
/cpddv cpdv dk get def
dv cpddv ne {
/upd true def
exit
} if
} forall
} {
/upd true def
} ifelse
} ifelse
} if
} ifelse
upd true eq {
d k v put
} if
} if
} if
} forall
d length 0 gt {
d setpagedevice
} if
} bd
/RE { % /NewFontName [NewEncodingArray] /FontName RE -
  findfont dup length dict begin
  {
    1 index /FID ne
    {def} {pop pop} ifelse
  } forall
  /Encoding exch def
  /FontName 1 index def
  currentdict definefont pop
  end
} bind def
%%EndResource
%%BeginResource: procset (Apache XML Graphics EPS ProcSet) 1.0 0
%%Version: 1.0 0
%%Copyright: (Copyright 2002-2003 The Apache Software Foundation. License terms: http://www.apache.org/licenses/LICENSE-2.0)
/BeginEPSF { %def
/b4_Inc_state save def         % Save state for cleanup
/dict_count countdictstack def % Count objects on dict stack
/op_count count 1 sub def      % Count objects on operand stack
userdict begin                 % Push userdict on dict stack
/showpage { } def              % Redefine showpage, { } = null proc
0 setgray 0 setlinecap         % Prepare graphics state
1 setlinewidth 0 setlinejoin
10 setmiterlimit [ ] 0 setdash newpath
/languagelevel where           % If level not equal to 1 then
{pop languagelevel             % set strokeadjust and
1 ne                           % overprint to their defaults.
{false setstrokeadjust false setoverprint
} if
} if
} bd
/EndEPSF { %def
count op_count sub {pop} repeat            % Clean up stacks
countdictstack dict_count sub {end} repeat
b4_Inc_state restore
} bd
%%EndResource
%FOPBeginFontDict
%%IncludeResource: font Courier-Oblique
%%IncludeResource: font Courier-BoldOblique
%%IncludeResource: font Courier-Bold
%%IncludeResource: font ZapfDingbats
%%IncludeResource: font Symbol
%%IncludeResource: font Helvetica
%%IncludeResource: font Helvetica-Oblique
%%IncludeResource: font Helvetica-Bold
%%IncludeResource: font Helvetica-BoldOblique
%%IncludeResource: font Times-Roman
%%IncludeResource: font Times-Italic
%%IncludeResource: font Times-Bold
%%IncludeResource: font Times-BoldItalic
%%IncludeResource: font Courier
%FOPEndFontDict
%%BeginResource: encoding WinAnsiEncoding
/WinAnsiEncoding [
/.notdef /.notdef /.notdef /.notdef /.notdef
/.notdef /.notdef /.notdef /.notdef /.notdef
/.notdef /.notdef /.notdef /.notdef /.notdef
/.notdef /.notdef /.notdef /.notdef /.notdef
/.notdef /.notdef /.notdef /.notdef /.notdef
/.notdef /.notdef /.notdef /.notdef /.notdef
/.notdef /.notdef /space /exclam /quotedbl
/numbersign /dollar /percent /ampersand /quotesingle
/parenleft /parenright /asterisk /plus /comma
/hyphen /period /slash /zero /one
/two /three /four /five /six
/seven /eight /nine /colon /semicolon
/less /equal /greater /question /at
/A /B /C /D /E
/F /G /H /I /J
/K /L /M /N /O
/P /Q /R /S /T
/U /V /W /X /Y
/Z /bracketleft /backslash /bracketright /asciicircum
/underscore /quoteleft /a /b /c
/d /e /f /g /h
/i /j /k /l /m
/n /o /p /q /r
/s /t /u /v /w
/x /y /z /braceleft /bar
/braceright /asciitilde /bullet /Euro /bullet
/quotesinglbase /florin /quotedblbase /ellipsis /dagger
/daggerdbl /circumflex /perthousand /Scaron /guilsinglleft
/OE /bullet /Zcaron /bullet /bullet
/quoteleft /quoteright /quotedblleft /quotedblright /bullet
/endash /emdash /asciitilde /trademark /scaron
/guilsinglright /oe /bullet /zcaron /Ydieresis
/space /exclamdown /cent /sterling /currency
/yen /brokenbar /section /dieresis /copyright
/ordfeminine /guillemotleft /logicalnot /sfthyphen /registered
/macron /degree /plusminus /twosuperior /threesuperior
/acute /mu /paragraph /middot /cedilla
/onesuperior /ordmasculine /guillemotright /onequarter /onehalf
/threequarters /questiondown /Agrave /Aacute /Acircumflex
/Atilde /Adieresis /Aring /AE /Ccedilla
/Egrave /Eacute /Ecircumflex /Edieresis /Igrave
/Iacute /Icircumflex /Idieresis /Eth /Ntilde
/Ograve /Oacute /Ocircumflex /Otilde /Odieresis
/multiply /Oslash /Ugrave /Uacute /Ucircumflex
/Udieresis /Yacute /Thorn /germandbls /agrave
/aacute /acircumflex /atilde /adieresis /aring
/ae /ccedilla /egrave /eacute /ecircumflex
/edieresis /igrave /iacute /icircumflex /idieresis
/eth /ntilde /ograve /oacute /ocircumflex
/otilde /odieresis /divide /oslash /ugrave
/uacute /ucircumflex /udieresis /yacute /thorn
/ydieresis
] def
%%EndResource
%FOPBeginFontReencode
/Courier-Oblique findfont
dup length dict begin
  {1 index /FID ne {def} {pop pop} ifelse} forall
  /Encoding WinAnsiEncoding def
  currentdict
end
/Courier-Oblique exch definefont pop
/Courier-BoldOblique findfont
dup length dict begin
  {1 index /FID ne {def} {pop pop} ifelse} forall
  /Encoding WinAnsiEncoding def
  currentdict
end
/Courier-BoldOblique exch definefont pop
/Courier-Bold findfont
dup length dict begin
  {1 index /FID ne {def} {pop pop} ifelse} forall
  /Encoding WinAnsiEncoding def
  currentdict
end
/Courier-Bold exch definefont pop
/Helvetica findfont
dup length dict begin
  {1 index /FID ne {def} {pop pop} ifelse} forall
  /Encoding WinAnsiEncoding def
  currentdict
end
/Helvetica exch definefont pop
/Helvetica-Oblique findfont
dup length dict begin
  {1 index /FID ne {def} {pop pop} ifelse} forall
  /Encoding WinAnsiEncoding def
  currentdict
end
/Helvetica-Oblique exch definefont pop
/Helvetica-Bold findfont
dup length dict begin
  {1 index /FID ne {def} {pop pop} ifelse} forall
  /Encoding WinAnsiEncoding def
  currentdict
end
/Helvetica-Bold exch definefont pop
/Helvetica-BoldOblique findfont
dup length dict begin
  {1 index /FID ne {def} {pop pop} ifelse} forall
  /Encoding WinAnsiEncoding def
  currentdict
end
/Helvetica-BoldOblique exch definefont pop
/Times-Roman findfont
dup length dict begin
  {1 index /FID ne {def} {pop pop} ifelse} forall
  /Encoding WinAnsiEncoding def
  currentdict
end
/Times-Roman exch definefont pop
/Times-Italic findfont
dup length dict begin
  {1 index /FID ne {def} {pop pop} ifelse} forall
  /Encoding WinAnsiEncoding def
  currentdict
end
/Times-Italic exch definefont pop
/Times-Bold findfont
dup length dict begin
  {1 index /FID ne {def} {pop pop} ifelse} forall
  /Encoding WinAnsiEncoding def
  currentdict
end
/Times-Bold exch definefont pop
/Times-BoldItalic findfont
dup length dict begin
  {1 index /FID ne {def} {pop pop} ifelse} forall
  /Encoding WinAnsiEncoding def
  currentdict
end
/Times-BoldItalic exch definefont pop
/Courier findfont
dup length dict begin
  {1 index /FID ne {def} {pop pop} ifelse} forall
  /Encoding WinAnsiEncoding def
  currentdict
end
/Courier exch definefont pop
%FOPEndFontReencode
%%EndProlog
%%Page: 1 1
%%PageBoundingBox: 0 0 454 312
%%BeginPageSetup
N
   19     3 M
  435     3 L
  435   298 L
   19   298 L
cp
clip
[1 0 0 -1 0 312] CT
%%EndPageSetup
GS
[0.75843 0 0 0.75866 0 0.189] CT
1 GC
N
0 0 598 411 re
f
GR
GS
[0.75843 0 0 0.75866 0 0.189] CT
1 GC
N
0 0 598 411 re
f
GR
GS
[0.75843 0 0 0.75866 0 0.189] CT
1 GC
N
78 366 M
541 366 L
541 31 L
78 31 L
cp
f
GR
GS
[0.75843 0 0 0.75866 0 0.189] CT
0.873 GC
1 LJ
0.66 LW
N
78 366 M
78 31 L
S
GR
GS
[0.75843 0 0 0.75866 0 0.189] CT
0.873 GC
1 LJ
0.66 LW
N
155.167 366 M
155.167 31 L
S
GR
GS
[0.75843 0 0 0.75866 0 0.189] CT
0.873 GC
1 LJ
0.66 LW
N
232.333 366 M
232.333 31 L
S
GR
GS
[0.75843 0 0 0.75866 0 0.189] CT
0.873 GC
1 LJ
0.66 LW
N
309.5 366 M
309.5 31 L
S
GR
GS
[0.75843 0 0 0.75866 0 0.189] CT
0.873 GC
1 LJ
0.66 LW
N
386.667 366 M
386.667 31 L
S
GR
GS
[0.75843 0 0 0.75866 0 0.189] CT
0.873 GC
1 LJ
0.66 LW
N
463.833 366 M
463.833 31 L
S
GR
GS
[0.75843 0 0 0.75866 0 0.189] CT
0.873 GC
1 LJ
0.66 LW
N
541 366 M
541 31 L
S
GR
GS
[0.75843 0 0 0.75866 0 0.189] CT
0.775 GC
[1 3] 0 setdash
2 LJ
0.66 LW
N
541 353.394 M
78 353.394 L
S
GR
GS
[0.75843 0 0 0.75866 0 0.189] CT
0.775 GC
[1 3] 0 setdash
2 LJ
0.66 LW
N
541 346.021 M
78 346.021 L
S
GR
GS
[0.75843 0 0 0.75866 0 0.189] CT
0.775 GC
[1 3] 0 setdash
2 LJ
0.66 LW
N
541 340.789 M
78 340.789 L
S
GR
GS
[0.75843 0 0 0.75866 0 0.189] CT
0.775 GC
[1 3] 0 setdash
2 LJ
0.66 LW
N
541 336.731 M
78 336.731 L
S
GR
GS
[0.75843 0 0 0.75866 0 0.189] CT
0.775 GC
[1 3] 0 setdash
2 LJ
0.66 LW
N
541 333.415 M
78 333.415 L
S
GR
GS
[0.75843 0 0 0.75866 0 0.189] CT
0.775 GC
[1 3] 0 setdash
2 LJ
0.66 LW
N
541 330.612 M
78 330.612 L
S
GR
GS
[0.75843 0 0 0.75866 0 0.189] CT
0.775 GC
[1 3] 0 setdash
2 LJ
0.66 LW
N
541 328.183 M
78 328.183 L
S
GR
GS
[0.75843 0 0 0.75866 0 0.189] CT
0.775 GC
[1 3] 0 setdash
2 LJ
0.66 LW
N
541 326.041 M
78 326.041 L
S
GR
GS
[0.75843 0 0 0.75866 0 0.189] CT
0.775 GC
[1 3] 0 setdash
2 LJ
0.66 LW
N
541 324.125 M
78 324.125 L
S
GR
GS
[0.75843 0 0 0.75866 0 0.189] CT
0.775 GC
[1 3] 0 setdash
2 LJ
0.66 LW
N
541 311.519 M
78 311.519 L
S
GR
GS
[0.75843 0 0 0.75866 0 0.189] CT
0.775 GC
[1 3] 0 setdash
2 LJ
0.66 LW
N
541 304.146 M
78 304.146 L
S
GR
GS
[0.75843 0 0 0.75866 0 0.189] CT
0.775 GC
[1 3] 0 setdash
2 LJ
0.66 LW
N
541 298.914 M
78 298.914 L
S
GR
GS
[0.75843 0 0 0.75866 0 0.189] CT
0.775 GC
[1 3] 0 setdash
2 LJ
0.66 LW
N
541 294.856 M
78 294.856 L
S
GR
GS
[0.75843 0 0 0.75866 0 0.189] CT
0.775 GC
[1 3] 0 setdash
2 LJ
0.66 LW
N
541 291.54 M
78 291.54 L
S
GR
GS
[0.75843 0 0 0.75866 0 0.189] CT
0.775 GC
[1 3] 0 setdash
2 LJ
0.66 LW
N
541 288.737 M
78 288.737 L
S
GR
GS
[0.75843 0 0 0.75866 0 0.189] CT
0.775 GC
[1 3] 0 setdash
2 LJ
0.66 LW
N
541 286.308 M
78 286.308 L
S
GR
GS
[0.75843 0 0 0.75866 0 0.189] CT
0.775 GC
[1 3] 0 setdash
2 LJ
0.66 LW
N
541 284.166 M
78 284.166 L
S
GR
GS
[0.75843 0 0 0.75866 0 0.189] CT
0.775 GC
[1 3] 0 setdash
2 LJ
0.66 LW
N
541 269.644 M
78 269.644 L
S
GR
GS
[0.75843 0 0 0.75866 0 0.189] CT
0.775 GC
[1 3] 0 setdash
2 LJ
0.66 LW
N
541 262.271 M
78 262.271 L
S
GR
GS
[0.75843 0 0 0.75866 0 0.189] CT
0.775 GC
[1 3] 0 setdash
2 LJ
0.66 LW
N
541 257.039 M
78 257.039 L
S
GR
GS
[0.75843 0 0 0.75866 0 0.189] CT
0.775 GC
[1 3] 0 setdash
2 LJ
0.66 LW
N
541 252.981 M
78 252.981 L
S
GR
GS
[0.75843 0 0 0.75866 0 0.189] CT
0.775 GC
[1 3] 0 setdash
2 LJ
0.66 LW
N
541 249.665 M
78 249.665 L
S
GR
GS
[0.75843 0 0 0.75866 0 0.189] CT
0.775 GC
[1 3] 0 setdash
2 LJ
0.66 LW
N
541 246.862 M
78 246.862 L
S
GR
GS
[0.75843 0 0 0.75866 0 0.189] CT
0.775 GC
[1 3] 0 setdash
2 LJ
0.66 LW
N
541 244.433 M
78 244.433 L
S
GR
GS
[0.75843 0 0 0.75866 0 0.189] CT
0.775 GC
[1 3] 0 setdash
2 LJ
0.66 LW
N
541 242.291 M
78 242.291 L
S
GR
GS
[0.75843 0 0 0.75866 0 0.189] CT
0.775 GC
[1 3] 0 setdash
2 LJ
0.66 LW
N
541 240.375 M
78 240.375 L
S
GR
GS
[0.75843 0 0 0.75866 0 0.189] CT
0.775 GC
[1 3] 0 setdash
2 LJ
0.66 LW
N
541 227.769 M
78 227.769 L
S
GR
GS
[0.75843 0 0 0.75866 0 0.189] CT
0.775 GC
[1 3] 0 setdash
2 LJ
0.66 LW
N
541 220.396 M
78 220.396 L
S
GR
GS
[0.75843 0 0 0.75866 0 0.189] CT
0.775 GC
[1 3] 0 setdash
2 LJ
0.66 LW
N
541 215.164 M
78 215.164 L
S
GR
GS
[0.75843 0 0 0.75866 0 0.189] CT
0.775 GC
[1 3] 0 setdash
2 LJ
0.66 LW
N
541 211.106 M
78 211.106 L
S
GR
GS
[0.75843 0 0 0.75866 0 0.189] CT
0.775 GC
[1 3] 0 setdash
2 LJ
0.66 LW
N
541 207.79 M
78 207.79 L
S
GR
GS
[0.75843 0 0 0.75866 0 0.189] CT
0.775 GC
[1 3] 0 setdash
2 LJ
0.66 LW
N
541 204.987 M
78 204.987 L
S
GR
GS
[0.75843 0 0 0.75866 0 0.189] CT
0.775 GC
[1 3] 0 setdash
2 LJ
0.66 LW
N
541 202.558 M
78 202.558 L
S
GR
GS
[0.75843 0 0 0.75866 0 0.189] CT
0.775 GC
[1 3] 0 setdash
2 LJ
0.66 LW
N
541 200.416 M
78 200.416 L
S
GR
GS
[0.75843 0 0 0.75866 0 0.189] CT
0.775 GC
[1 3] 0 setdash
2 LJ
0.66 LW
N
541 198.5 M
78 198.5 L
S
GR
GS
[0.75843 0 0 0.75866 0 0.189] CT
0.775 GC
[1 3] 0 setdash
2 LJ
0.66 LW
N
541 185.894 M
78 185.894 L
S
GR
GS
[0.75843 0 0 0.75866 0 0.189] CT
0.775 GC
[1 3] 0 setdash
2 LJ
0.66 LW
N
541 178.521 M
78 178.521 L
S
GR
GS
[0.75843 0 0 0.75866 0 0.189] CT
0.775 GC
[1 3] 0 setdash
2 LJ
0.66 LW
N
541 173.289 M
78 173.289 L
S
GR
GS
[0.75843 0 0 0.75866 0 0.189] CT
0.775 GC
[1 3] 0 setdash
2 LJ
0.66 LW
N
541 169.231 M
78 169.231 L
S
GR
GS
[0.75843 0 0 0.75866 0 0.189] CT
0.775 GC
[1 3] 0 setdash
2 LJ
0.66 LW
N
541 165.915 M
78 165.915 L
S
GR
GS
[0.75843 0 0 0.75866 0 0.189] CT
0.775 GC
[1 3] 0 setdash
2 LJ
0.66 LW
N
541 163.112 M
78 163.112 L
S
GR
GS
[0.75843 0 0 0.75866 0 0.189] CT
0.775 GC
[1 3] 0 setdash
2 LJ
0.66 LW
N
541 160.683 M
78 160.683 L
S
GR
GS
[0.75843 0 0 0.75866 0 0.189] CT
0.775 GC
[1 3] 0 setdash
2 LJ
0.66 LW
N
541 158.541 M
78 158.541 L
S
GR
GS
[0.75843 0 0 0.75866 0 0.189] CT
0.775 GC
[1 3] 0 setdash
2 LJ
0.66 LW
N
541 156.625 M
78 156.625 L
S
GR
GS
[0.75843 0 0 0.75866 0 0.189] CT
0.775 GC
[1 3] 0 setdash
2 LJ
0.66 LW
N
541 144.019 M
78 144.019 L
S
GR
GS
[0.75843 0 0 0.75866 0 0.189] CT
0.775 GC
[1 3] 0 setdash
2 LJ
0.66 LW
N
541 136.646 M
78 136.646 L
S
GR
GS
[0.75843 0 0 0.75866 0 0.189] CT
0.775 GC
[1 3] 0 setdash
2 LJ
0.66 LW
N
541 131.414 M
78 131.414 L
S
GR
GS
[0.75843 0 0 0.75866 0 0.189] CT
0.775 GC
[1 3] 0 setdash
2 LJ
0.66 LW
N
541 127.356 M
78 127.356 L
S
GR
GS
[0.75843 0 0 0.75866 0 0.189] CT
0.775 GC
[1 3] 0 setdash
2 LJ
0.66 LW
N
541 124.04 M
78 124.04 L
S
GR
GS
[0.75843 0 0 0.75866 0 0.189] CT
0.775 GC
[1 3] 0 setdash
2 LJ
0.66 LW
N
541 121.237 M
78 121.237 L
S
GR
GS
[0.75843 0 0 0.75866 0 0.189] CT
0.775 GC
[1 3] 0 setdash
2 LJ
0.66 LW
N
541 118.808 M
78 118.808 L
S
GR
GS
[0.75843 0 0 0.75866 0 0.189] CT
0.775 GC
[1 3] 0 setdash
2 LJ
0.66 LW
N
541 116.666 M
78 116.666 L
S
GR
GS
[0.75843 0 0 0.75866 0 0.189] CT
0.775 GC
[1 3] 0 setdash
2 LJ
0.66 LW
N
541 102.144 M
78 102.144 L
S
GR
GS
[0.75843 0 0 0.75866 0 0.189] CT
0.775 GC
[1 3] 0 setdash
2 LJ
0.66 LW
N
541 94.771 M
78 94.771 L
S
GR
GS
[0.75843 0 0 0.75866 0 0.189] CT
0.775 GC
[1 3] 0 setdash
2 LJ
0.66 LW
N
541 89.539 M
78 89.539 L
S
GR
GS
[0.75843 0 0 0.75866 0 0.189] CT
0.775 GC
[1 3] 0 setdash
2 LJ
0.66 LW
N
541 85.481 M
78 85.481 L
S
GR
GS
[0.75843 0 0 0.75866 0 0.189] CT
0.775 GC
[1 3] 0 setdash
2 LJ
0.66 LW
N
541 82.165 M
78 82.165 L
S
GR
GS
[0.75843 0 0 0.75866 0 0.189] CT
0.775 GC
[1 3] 0 setdash
2 LJ
0.66 LW
N
541 79.362 M
78 79.362 L
S
GR
GS
[0.75843 0 0 0.75866 0 0.189] CT
0.775 GC
[1 3] 0 setdash
2 LJ
0.66 LW
N
541 76.933 M
78 76.933 L
S
GR
GS
[0.75843 0 0 0.75866 0 0.189] CT
0.775 GC
[1 3] 0 setdash
2 LJ
0.66 LW
N
541 74.791 M
78 74.791 L
S
GR
GS
[0.75843 0 0 0.75866 0 0.189] CT
0.775 GC
[1 3] 0 setdash
2 LJ
0.66 LW
N
541 72.875 M
78 72.875 L
S
GR
GS
[0.75843 0 0 0.75866 0 0.189] CT
0.775 GC
[1 3] 0 setdash
2 LJ
0.66 LW
N
541 60.269 M
78 60.269 L
S
GR
GS
[0.75843 0 0 0.75866 0 0.189] CT
0.775 GC
[1 3] 0 setdash
2 LJ
0.66 LW
N
541 52.896 M
78 52.896 L
S
GR
GS
[0.75843 0 0 0.75866 0 0.189] CT
0.775 GC
[1 3] 0 setdash
2 LJ
0.66 LW
N
541 47.664 M
78 47.664 L
S
GR
GS
[0.75843 0 0 0.75866 0 0.189] CT
0.775 GC
[1 3] 0 setdash
2 LJ
0.66 LW
N
541 43.606 M
78 43.606 L
S
GR
GS
[0.75843 0 0 0.75866 0 0.189] CT
0.775 GC
[1 3] 0 setdash
2 LJ
0.66 LW
N
541 40.29 M
78 40.29 L
S
GR
GS
[0.75843 0 0 0.75866 0 0.189] CT
0.775 GC
[1 3] 0 setdash
2 LJ
0.66 LW
N
541 37.487 M
78 37.487 L
S
GR
GS
[0.75843 0 0 0.75866 0 0.189] CT
0.775 GC
[1 3] 0 setdash
2 LJ
0.66 LW
N
541 35.058 M
78 35.058 L
S
GR
GS
[0.75843 0 0 0.75866 0 0.189] CT
0.775 GC
[1 3] 0 setdash
2 LJ
0.66 LW
N
541 32.916 M
78 32.916 L
S
GR
GS
[0.75843 0 0 0.75866 0 0.189] CT
0.873 GC
1 LJ
0.66 LW
N
541 366 M
78 366 L
S
GR
GS
[0.75843 0 0 0.75866 0 0.189] CT
0.873 GC
1 LJ
0.66 LW
N
541 282.25 M
78 282.25 L
S
GR
GS
[0.75843 0 0 0.75866 0 0.189] CT
0.873 GC
1 LJ
0.66 LW
N
541 198.5 M
78 198.5 L
S
GR
GS
[0.75843 0 0 0.75866 0 0.189] CT
0.873 GC
1 LJ
0.66 LW
N
541 114.75 M
78 114.75 L
S
GR
GS
[0.75843 0 0 0.75866 0 0.189] CT
0.873 GC
1 LJ
0.66 LW
N
541 31 M
78 31 L
S
GR
GS
[0.75843 0 0 0.75866 0 0.189] CT
0.149 GC
2 setlinecap
1 LJ
0.66 LW
N
78 366 M
541 366 L
S
GR
GS
[0.75843 0 0 0.75866 0 0.189] CT
0.149 GC
2 setlinecap
1 LJ
0.66 LW
N
78 31 M
541 31 L
S
GR
GS
[0.75843 0 0 0.75866 0 0.189] CT
0.149 GC
2 setlinecap
1 LJ
0.66 LW
N
78 366 M
78 361.37 L
S
GR
GS
[0.75843 0 0 0.75866 0 0.189] CT
0.149 GC
2 setlinecap
1 LJ
0.66 LW
N
155.167 366 M
155.167 361.37 L
S
GR
GS
[0.75843 0 0 0.75866 0 0.189] CT
0.149 GC
2 setlinecap
1 LJ
0.66 LW
N
232.333 366 M
232.333 361.37 L
S
GR
GS
[0.75843 0 0 0.75866 0 0.189] CT
0.149 GC
2 setlinecap
1 LJ
0.66 LW
N
309.5 366 M
309.5 361.37 L
S
GR
GS
[0.75843 0 0 0.75866 0 0.189] CT
0.149 GC
2 setlinecap
1 LJ
0.66 LW
N
386.667 366 M
386.667 361.37 L
S
GR
GS
[0.75843 0 0 0.75866 0 0.189] CT
0.149 GC
2 setlinecap
1 LJ
0.66 LW
N
463.833 366 M
463.833 361.37 L
S
GR
GS
[0.75843 0 0 0.75866 0 0.189] CT
0.149 GC
2 setlinecap
1 LJ
0.66 LW
N
541 366 M
541 361.37 L
S
GR
GS
[0.75843 0 0 0.75866 0 0.189] CT
0.149 GC
2 setlinecap
1 LJ
0.66 LW
N
78 31 M
78 35.63 L
S
GR
GS
[0.75843 0 0 0.75866 0 0.189] CT
0.149 GC
2 setlinecap
1 LJ
0.66 LW
N
155.167 31 M
155.167 35.63 L
S
GR
GS
[0.75843 0 0 0.75866 0 0.189] CT
0.149 GC
2 setlinecap
1 LJ
0.66 LW
N
232.333 31 M
232.333 35.63 L
S
GR
GS
[0.75843 0 0 0.75866 0 0.189] CT
0.149 GC
2 setlinecap
1 LJ
0.66 LW
N
309.5 31 M
309.5 35.63 L
S
GR
GS
[0.75843 0 0 0.75866 0 0.189] CT
0.149 GC
2 setlinecap
1 LJ
0.66 LW
N
386.667 31 M
386.667 35.63 L
S
GR
GS
[0.75843 0 0 0.75866 0 0.189] CT
0.149 GC
2 setlinecap
1 LJ
0.66 LW
N
463.833 31 M
463.833 35.63 L
S
GR
GS
[0.75843 0 0 0.75866 0 0.189] CT
0.149 GC
2 setlinecap
1 LJ
0.66 LW
N
541 31 M
541 35.63 L
S
GR
GS
[0.75843 0 0 0.75866 59.15782 281.86417] CT
0.149 GC
/Helvetica 13.194 F
GS
[1 0 0 1 0 0] CT
-7 13 moveto 
1 -1 scale
(-5) t 
GR
GR
GS
[0.75843 0 0 0.75866 117.68362 281.86417] CT
0.149 GC
/Helvetica 13.194 F
GS
[1 0 0 1 0 0] CT
-4.5 13 moveto 
1 -1 scale
(0) t 
GR
GR
GS
[0.75843 0 0 0.75866 176.20942 281.86417] CT
0.149 GC
/Helvetica 13.194 F
GS
[1 0 0 1 0 0] CT
-4.5 13 moveto 
1 -1 scale
(5) t 
GR
GR
GS
[0.75843 0 0 0.75866 234.73521 281.86417] CT
0.149 GC
/Helvetica 13.194 F
GS
[1 0 0 1 0 0] CT
-8.5 13 moveto 
1 -1 scale
(10) t 
GR
GR
GS
[0.75843 0 0 0.75866 293.26101 281.86417] CT
0.149 GC
/Helvetica 13.194 F
GS
[1 0 0 1 0 0] CT
-8.5 13 moveto 
1 -1 scale
(15) t 
GR
GR
GS
[0.75843 0 0 0.75866 351.78678 281.86417] CT
0.149 GC
/Helvetica 13.194 F
GS
[1 0 0 1 0 0] CT
-8.5 13 moveto 
1 -1 scale
(20) t 
GR
GR
GS
[0.75843 0 0 0.75866 410.31259 281.86417] CT
0.149 GC
/Helvetica 13.194 F
GS
[1 0 0 1 0 0] CT
-8.5 13 moveto 
1 -1 scale
(25) t 
GR
GR
GS
[0.75843 0 0 0.75866 234.73537 295.76248] CT
0.149 GC
/Helvetica 14.514 F
GS
[1 0 0 1 0 0] CT
-88.5 14 moveto 
1 -1 scale
(OFDM Signal Power [dB]) t 
GR
GR
GS
[0.75843 0 0 0.75866 0 0.189] CT
0.149 GC
2 setlinecap
1 LJ
0.66 LW
N
78 366 M
78 31 L
S
GR
GS
[0.75843 0 0 0.75866 0 0.189] CT
0.149 GC
2 setlinecap
1 LJ
0.66 LW
N
541 366 M
541 31 L
S
GR
GS
[0.75843 0 0 0.75866 0 0.189] CT
0.149 GC
2 setlinecap
1 LJ
0.66 LW
N
78 366 M
82.63 366 L
S
GR
GS
[0.75843 0 0 0.75866 0 0.189] CT
0.149 GC
2 setlinecap
1 LJ
0.66 LW
N
78 282.25 M
82.63 282.25 L
S
GR
GS
[0.75843 0 0 0.75866 0 0.189] CT
0.149 GC
2 setlinecap
1 LJ
0.66 LW
N
78 198.5 M
82.63 198.5 L
S
GR
GS
[0.75843 0 0 0.75866 0 0.189] CT
0.149 GC
2 setlinecap
1 LJ
0.66 LW
N
78 114.75 M
82.63 114.75 L
S
GR
GS
[0.75843 0 0 0.75866 0 0.189] CT
0.149 GC
2 setlinecap
1 LJ
0.66 LW
N
78 31 M
82.63 31 L
S
GR
GS
[0.75843 0 0 0.75866 0 0.189] CT
0.149 GC
2 setlinecap
1 LJ
0.66 LW
N
541 366 M
536.37 366 L
S
GR
GS
[0.75843 0 0 0.75866 0 0.189] CT
0.149 GC
2 setlinecap
1 LJ
0.66 LW
N
541 282.25 M
536.37 282.25 L
S
GR
GS
[0.75843 0 0 0.75866 0 0.189] CT
0.149 GC
2 setlinecap
1 LJ
0.66 LW
N
541 198.5 M
536.37 198.5 L
S
GR
GS
[0.75843 0 0 0.75866 0 0.189] CT
0.149 GC
2 setlinecap
1 LJ
0.66 LW
N
541 114.75 M
536.37 114.75 L
S
GR
GS
[0.75843 0 0 0.75866 0 0.189] CT
0.149 GC
2 setlinecap
1 LJ
0.66 LW
N
541 31 M
536.37 31 L
S
GR
GS
[0.75843 0 0 0.75866 0 0.189] CT
0.149 GC
2 setlinecap
1 LJ
0.66 LW
N
78 366 M
80.315 366 L
S
GR
GS
[0.75843 0 0 0.75866 0 0.189] CT
0.149 GC
2 setlinecap
1 LJ
0.66 LW
N
78 353.394 M
80.315 353.394 L
S
GR
GS
[0.75843 0 0 0.75866 0 0.189] CT
0.149 GC
2 setlinecap
1 LJ
0.66 LW
N
78 346.021 M
80.315 346.021 L
S
GR
GS
[0.75843 0 0 0.75866 0 0.189] CT
0.149 GC
2 setlinecap
1 LJ
0.66 LW
N
78 340.789 M
80.315 340.789 L
S
GR
GS
[0.75843 0 0 0.75866 0 0.189] CT
0.149 GC
2 setlinecap
1 LJ
0.66 LW
N
78 336.731 M
80.315 336.731 L
S
GR
GS
[0.75843 0 0 0.75866 0 0.189] CT
0.149 GC
2 setlinecap
1 LJ
0.66 LW
N
78 333.415 M
80.315 333.415 L
S
GR
GS
[0.75843 0 0 0.75866 0 0.189] CT
0.149 GC
2 setlinecap
1 LJ
0.66 LW
N
78 330.612 M
80.315 330.612 L
S
GR
GS
[0.75843 0 0 0.75866 0 0.189] CT
0.149 GC
2 setlinecap
1 LJ
0.66 LW
N
78 328.183 M
80.315 328.183 L
S
GR
GS
[0.75843 0 0 0.75866 0 0.189] CT
0.149 GC
2 setlinecap
1 LJ
0.66 LW
N
78 326.041 M
80.315 326.041 L
S
GR
GS
[0.75843 0 0 0.75866 0 0.189] CT
0.149 GC
2 setlinecap
1 LJ
0.66 LW
N
78 324.125 M
80.315 324.125 L
S
GR
GS
[0.75843 0 0 0.75866 0 0.189] CT
0.149 GC
2 setlinecap
1 LJ
0.66 LW
N
78 311.519 M
80.315 311.519 L
S
GR
GS
[0.75843 0 0 0.75866 0 0.189] CT
0.149 GC
2 setlinecap
1 LJ
0.66 LW
N
78 304.146 M
80.315 304.146 L
S
GR
GS
[0.75843 0 0 0.75866 0 0.189] CT
0.149 GC
2 setlinecap
1 LJ
0.66 LW
N
78 298.914 M
80.315 298.914 L
S
GR
GS
[0.75843 0 0 0.75866 0 0.189] CT
0.149 GC
2 setlinecap
1 LJ
0.66 LW
N
78 294.856 M
80.315 294.856 L
S
GR
GS
[0.75843 0 0 0.75866 0 0.189] CT
0.149 GC
2 setlinecap
1 LJ
0.66 LW
N
78 291.54 M
80.315 291.54 L
S
GR
GS
[0.75843 0 0 0.75866 0 0.189] CT
0.149 GC
2 setlinecap
1 LJ
0.66 LW
N
78 288.737 M
80.315 288.737 L
S
GR
GS
[0.75843 0 0 0.75866 0 0.189] CT
0.149 GC
2 setlinecap
1 LJ
0.66 LW
N
78 286.308 M
80.315 286.308 L
S
GR
GS
[0.75843 0 0 0.75866 0 0.189] CT
0.149 GC
2 setlinecap
1 LJ
0.66 LW
N
78 284.166 M
80.315 284.166 L
S
GR
GS
[0.75843 0 0 0.75866 0 0.189] CT
0.149 GC
2 setlinecap
1 LJ
0.66 LW
N
78 282.25 M
80.315 282.25 L
S
GR
GS
[0.75843 0 0 0.75866 0 0.189] CT
0.149 GC
2 setlinecap
1 LJ
0.66 LW
N
78 269.644 M
80.315 269.644 L
S
GR
GS
[0.75843 0 0 0.75866 0 0.189] CT
0.149 GC
2 setlinecap
1 LJ
0.66 LW
N
78 262.271 M
80.315 262.271 L
S
GR
GS
[0.75843 0 0 0.75866 0 0.189] CT
0.149 GC
2 setlinecap
1 LJ
0.66 LW
N
78 257.039 M
80.315 257.039 L
S
GR
GS
[0.75843 0 0 0.75866 0 0.189] CT
0.149 GC
2 setlinecap
1 LJ
0.66 LW
N
78 252.981 M
80.315 252.981 L
S
GR
GS
[0.75843 0 0 0.75866 0 0.189] CT
0.149 GC
2 setlinecap
1 LJ
0.66 LW
N
78 249.665 M
80.315 249.665 L
S
GR
GS
[0.75843 0 0 0.75866 0 0.189] CT
0.149 GC
2 setlinecap
1 LJ
0.66 LW
N
78 246.862 M
80.315 246.862 L
S
GR
GS
[0.75843 0 0 0.75866 0 0.189] CT
0.149 GC
2 setlinecap
1 LJ
0.66 LW
N
78 244.433 M
80.315 244.433 L
S
GR
GS
[0.75843 0 0 0.75866 0 0.189] CT
0.149 GC
2 setlinecap
1 LJ
0.66 LW
N
78 242.291 M
80.315 242.291 L
S
GR
GS
[0.75843 0 0 0.75866 0 0.189] CT
0.149 GC
2 setlinecap
1 LJ
0.66 LW
N
78 240.375 M
80.315 240.375 L
S
GR
GS
[0.75843 0 0 0.75866 0 0.189] CT
0.149 GC
2 setlinecap
1 LJ
0.66 LW
N
78 227.769 M
80.315 227.769 L
S
GR
GS
[0.75843 0 0 0.75866 0 0.189] CT
0.149 GC
2 setlinecap
1 LJ
0.66 LW
N
78 220.396 M
80.315 220.396 L
S
GR
GS
[0.75843 0 0 0.75866 0 0.189] CT
0.149 GC
2 setlinecap
1 LJ
0.66 LW
N
78 215.164 M
80.315 215.164 L
S
GR
GS
[0.75843 0 0 0.75866 0 0.189] CT
0.149 GC
2 setlinecap
1 LJ
0.66 LW
N
78 211.106 M
80.315 211.106 L
S
GR
GS
[0.75843 0 0 0.75866 0 0.189] CT
0.149 GC
2 setlinecap
1 LJ
0.66 LW
N
78 207.79 M
80.315 207.79 L
S
GR
GS
[0.75843 0 0 0.75866 0 0.189] CT
0.149 GC
2 setlinecap
1 LJ
0.66 LW
N
78 204.987 M
80.315 204.987 L
S
GR
GS
[0.75843 0 0 0.75866 0 0.189] CT
0.149 GC
2 setlinecap
1 LJ
0.66 LW
N
78 202.558 M
80.315 202.558 L
S
GR
GS
[0.75843 0 0 0.75866 0 0.189] CT
0.149 GC
2 setlinecap
1 LJ
0.66 LW
N
78 200.416 M
80.315 200.416 L
S
GR
GS
[0.75843 0 0 0.75866 0 0.189] CT
0.149 GC
2 setlinecap
1 LJ
0.66 LW
N
78 198.5 M
80.315 198.5 L
S
GR
GS
[0.75843 0 0 0.75866 0 0.189] CT
0.149 GC
2 setlinecap
1 LJ
0.66 LW
N
78 198.5 M
80.315 198.5 L
S
GR
GS
[0.75843 0 0 0.75866 0 0.189] CT
0.149 GC
2 setlinecap
1 LJ
0.66 LW
N
78 185.894 M
80.315 185.894 L
S
GR
GS
[0.75843 0 0 0.75866 0 0.189] CT
0.149 GC
2 setlinecap
1 LJ
0.66 LW
N
78 178.521 M
80.315 178.521 L
S
GR
GS
[0.75843 0 0 0.75866 0 0.189] CT
0.149 GC
2 setlinecap
1 LJ
0.66 LW
N
78 173.289 M
80.315 173.289 L
S
GR
GS
[0.75843 0 0 0.75866 0 0.189] CT
0.149 GC
2 setlinecap
1 LJ
0.66 LW
N
78 169.231 M
80.315 169.231 L
S
GR
GS
[0.75843 0 0 0.75866 0 0.189] CT
0.149 GC
2 setlinecap
1 LJ
0.66 LW
N
78 165.915 M
80.315 165.915 L
S
GR
GS
[0.75843 0 0 0.75866 0 0.189] CT
0.149 GC
2 setlinecap
1 LJ
0.66 LW
N
78 163.112 M
80.315 163.112 L
S
GR
GS
[0.75843 0 0 0.75866 0 0.189] CT
0.149 GC
2 setlinecap
1 LJ
0.66 LW
N
78 160.683 M
80.315 160.683 L
S
GR
GS
[0.75843 0 0 0.75866 0 0.189] CT
0.149 GC
2 setlinecap
1 LJ
0.66 LW
N
78 158.541 M
80.315 158.541 L
S
GR
GS
[0.75843 0 0 0.75866 0 0.189] CT
0.149 GC
2 setlinecap
1 LJ
0.66 LW
N
78 156.625 M
80.315 156.625 L
S
GR
GS
[0.75843 0 0 0.75866 0 0.189] CT
0.149 GC
2 setlinecap
1 LJ
0.66 LW
N
78 144.019 M
80.315 144.019 L
S
GR
GS
[0.75843 0 0 0.75866 0 0.189] CT
0.149 GC
2 setlinecap
1 LJ
0.66 LW
N
78 136.646 M
80.315 136.646 L
S
GR
GS
[0.75843 0 0 0.75866 0 0.189] CT
0.149 GC
2 setlinecap
1 LJ
0.66 LW
N
78 131.414 M
80.315 131.414 L
S
GR
GS
[0.75843 0 0 0.75866 0 0.189] CT
0.149 GC
2 setlinecap
1 LJ
0.66 LW
N
78 127.356 M
80.315 127.356 L
S
GR
GS
[0.75843 0 0 0.75866 0 0.189] CT
0.149 GC
2 setlinecap
1 LJ
0.66 LW
N
78 124.04 M
80.315 124.04 L
S
GR
GS
[0.75843 0 0 0.75866 0 0.189] CT
0.149 GC
2 setlinecap
1 LJ
0.66 LW
N
78 121.237 M
80.315 121.237 L
S
GR
GS
[0.75843 0 0 0.75866 0 0.189] CT
0.149 GC
2 setlinecap
1 LJ
0.66 LW
N
78 118.808 M
80.315 118.808 L
S
GR
GS
[0.75843 0 0 0.75866 0 0.189] CT
0.149 GC
2 setlinecap
1 LJ
0.66 LW
N
78 116.666 M
80.315 116.666 L
S
GR
GS
[0.75843 0 0 0.75866 0 0.189] CT
0.149 GC
2 setlinecap
1 LJ
0.66 LW
N
78 114.75 M
80.315 114.75 L
S
GR
GS
[0.75843 0 0 0.75866 0 0.189] CT
0.149 GC
2 setlinecap
1 LJ
0.66 LW
N
78 102.144 M
80.315 102.144 L
S
GR
GS
[0.75843 0 0 0.75866 0 0.189] CT
0.149 GC
2 setlinecap
1 LJ
0.66 LW
N
78 94.771 M
80.315 94.771 L
S
GR
GS
[0.75843 0 0 0.75866 0 0.189] CT
0.149 GC
2 setlinecap
1 LJ
0.66 LW
N
78 89.539 M
80.315 89.539 L
S
GR
GS
[0.75843 0 0 0.75866 0 0.189] CT
0.149 GC
2 setlinecap
1 LJ
0.66 LW
N
78 85.481 M
80.315 85.481 L
S
GR
GS
[0.75843 0 0 0.75866 0 0.189] CT
0.149 GC
2 setlinecap
1 LJ
0.66 LW
N
78 82.165 M
80.315 82.165 L
S
GR
GS
[0.75843 0 0 0.75866 0 0.189] CT
0.149 GC
2 setlinecap
1 LJ
0.66 LW
N
78 79.362 M
80.315 79.362 L
S
GR
GS
[0.75843 0 0 0.75866 0 0.189] CT
0.149 GC
2 setlinecap
1 LJ
0.66 LW
N
78 76.933 M
80.315 76.933 L
S
GR
GS
[0.75843 0 0 0.75866 0 0.189] CT
0.149 GC
2 setlinecap
1 LJ
0.66 LW
N
78 74.791 M
80.315 74.791 L
S
GR
GS
[0.75843 0 0 0.75866 0 0.189] CT
0.149 GC
2 setlinecap
1 LJ
0.66 LW
N
78 72.875 M
80.315 72.875 L
S
GR
GS
[0.75843 0 0 0.75866 0 0.189] CT
0.149 GC
2 setlinecap
1 LJ
0.66 LW
N
78 60.269 M
80.315 60.269 L
S
GR
GS
[0.75843 0 0 0.75866 0 0.189] CT
0.149 GC
2 setlinecap
1 LJ
0.66 LW
N
78 52.896 M
80.315 52.896 L
S
GR
GS
[0.75843 0 0 0.75866 0 0.189] CT
0.149 GC
2 setlinecap
1 LJ
0.66 LW
N
78 47.664 M
80.315 47.664 L
S
GR
GS
[0.75843 0 0 0.75866 0 0.189] CT
0.149 GC
2 setlinecap
1 LJ
0.66 LW
N
78 43.606 M
80.315 43.606 L
S
GR
GS
[0.75843 0 0 0.75866 0 0.189] CT
0.149 GC
2 setlinecap
1 LJ
0.66 LW
N
78 40.29 M
80.315 40.29 L
S
GR
GS
[0.75843 0 0 0.75866 0 0.189] CT
0.149 GC
2 setlinecap
1 LJ
0.66 LW
N
78 37.487 M
80.315 37.487 L
S
GR
GS
[0.75843 0 0 0.75866 0 0.189] CT
0.149 GC
2 setlinecap
1 LJ
0.66 LW
N
78 35.058 M
80.315 35.058 L
S
GR
GS
[0.75843 0 0 0.75866 0 0.189] CT
0.149 GC
2 setlinecap
1 LJ
0.66 LW
N
78 32.916 M
80.315 32.916 L
S
GR
GS
[0.75843 0 0 0.75866 0 0.189] CT
0.149 GC
2 setlinecap
1 LJ
0.66 LW
N
78 31 M
80.315 31 L
S
GR
GS
[0.75843 0 0 0.75866 0 0.189] CT
0.149 GC
2 setlinecap
1 LJ
0.66 LW
N
541 366 M
538.685 366 L
S
GR
GS
[0.75843 0 0 0.75866 0 0.189] CT
0.149 GC
2 setlinecap
1 LJ
0.66 LW
N
541 353.394 M
538.685 353.394 L
S
GR
GS
[0.75843 0 0 0.75866 0 0.189] CT
0.149 GC
2 setlinecap
1 LJ
0.66 LW
N
541 346.021 M
538.685 346.021 L
S
GR
GS
[0.75843 0 0 0.75866 0 0.189] CT
0.149 GC
2 setlinecap
1 LJ
0.66 LW
N
541 340.789 M
538.685 340.789 L
S
GR
GS
[0.75843 0 0 0.75866 0 0.189] CT
0.149 GC
2 setlinecap
1 LJ
0.66 LW
N
541 336.731 M
538.685 336.731 L
S
GR
GS
[0.75843 0 0 0.75866 0 0.189] CT
0.149 GC
2 setlinecap
1 LJ
0.66 LW
N
541 333.415 M
538.685 333.415 L
S
GR
GS
[0.75843 0 0 0.75866 0 0.189] CT
0.149 GC
2 setlinecap
1 LJ
0.66 LW
N
541 330.612 M
538.685 330.612 L
S
GR
GS
[0.75843 0 0 0.75866 0 0.189] CT
0.149 GC
2 setlinecap
1 LJ
0.66 LW
N
541 328.183 M
538.685 328.183 L
S
GR
GS
[0.75843 0 0 0.75866 0 0.189] CT
0.149 GC
2 setlinecap
1 LJ
0.66 LW
N
541 326.041 M
538.685 326.041 L
S
GR
GS
[0.75843 0 0 0.75866 0 0.189] CT
0.149 GC
2 setlinecap
1 LJ
0.66 LW
N
541 324.125 M
538.685 324.125 L
S
GR
GS
[0.75843 0 0 0.75866 0 0.189] CT
0.149 GC
2 setlinecap
1 LJ
0.66 LW
N
541 311.519 M
538.685 311.519 L
S
GR
GS
[0.75843 0 0 0.75866 0 0.189] CT
0.149 GC
2 setlinecap
1 LJ
0.66 LW
N
541 304.146 M
538.685 304.146 L
S
GR
GS
[0.75843 0 0 0.75866 0 0.189] CT
0.149 GC
2 setlinecap
1 LJ
0.66 LW
N
541 298.914 M
538.685 298.914 L
S
GR
GS
[0.75843 0 0 0.75866 0 0.189] CT
0.149 GC
2 setlinecap
1 LJ
0.66 LW
N
541 294.856 M
538.685 294.856 L
S
GR
GS
[0.75843 0 0 0.75866 0 0.189] CT
0.149 GC
2 setlinecap
1 LJ
0.66 LW
N
541 291.54 M
538.685 291.54 L
S
GR
GS
[0.75843 0 0 0.75866 0 0.189] CT
0.149 GC
2 setlinecap
1 LJ
0.66 LW
N
541 288.737 M
538.685 288.737 L
S
GR
GS
[0.75843 0 0 0.75866 0 0.189] CT
0.149 GC
2 setlinecap
1 LJ
0.66 LW
N
541 286.308 M
538.685 286.308 L
S
GR
GS
[0.75843 0 0 0.75866 0 0.189] CT
0.149 GC
2 setlinecap
1 LJ
0.66 LW
N
541 284.166 M
538.685 284.166 L
S
GR
GS
[0.75843 0 0 0.75866 0 0.189] CT
0.149 GC
2 setlinecap
1 LJ
0.66 LW
N
541 282.25 M
538.685 282.25 L
S
GR
GS
[0.75843 0 0 0.75866 0 0.189] CT
0.149 GC
2 setlinecap
1 LJ
0.66 LW
N
541 269.644 M
538.685 269.644 L
S
GR
GS
[0.75843 0 0 0.75866 0 0.189] CT
0.149 GC
2 setlinecap
1 LJ
0.66 LW
N
541 262.271 M
538.685 262.271 L
S
GR
GS
[0.75843 0 0 0.75866 0 0.189] CT
0.149 GC
2 setlinecap
1 LJ
0.66 LW
N
541 257.039 M
538.685 257.039 L
S
GR
GS
[0.75843 0 0 0.75866 0 0.189] CT
0.149 GC
2 setlinecap
1 LJ
0.66 LW
N
541 252.981 M
538.685 252.981 L
S
GR
GS
[0.75843 0 0 0.75866 0 0.189] CT
0.149 GC
2 setlinecap
1 LJ
0.66 LW
N
541 249.665 M
538.685 249.665 L
S
GR
GS
[0.75843 0 0 0.75866 0 0.189] CT
0.149 GC
2 setlinecap
1 LJ
0.66 LW
N
541 246.862 M
538.685 246.862 L
S
GR
GS
[0.75843 0 0 0.75866 0 0.189] CT
0.149 GC
2 setlinecap
1 LJ
0.66 LW
N
541 244.433 M
538.685 244.433 L
S
GR
GS
[0.75843 0 0 0.75866 0 0.189] CT
0.149 GC
2 setlinecap
1 LJ
0.66 LW
N
541 242.291 M
538.685 242.291 L
S
GR
GS
[0.75843 0 0 0.75866 0 0.189] CT
0.149 GC
2 setlinecap
1 LJ
0.66 LW
N
541 240.375 M
538.685 240.375 L
S
GR
GS
[0.75843 0 0 0.75866 0 0.189] CT
0.149 GC
2 setlinecap
1 LJ
0.66 LW
N
541 227.769 M
538.685 227.769 L
S
GR
GS
[0.75843 0 0 0.75866 0 0.189] CT
0.149 GC
2 setlinecap
1 LJ
0.66 LW
N
541 220.396 M
538.685 220.396 L
S
GR
GS
[0.75843 0 0 0.75866 0 0.189] CT
0.149 GC
2 setlinecap
1 LJ
0.66 LW
N
541 215.164 M
538.685 215.164 L
S
GR
GS
[0.75843 0 0 0.75866 0 0.189] CT
0.149 GC
2 setlinecap
1 LJ
0.66 LW
N
541 211.106 M
538.685 211.106 L
S
GR
GS
[0.75843 0 0 0.75866 0 0.189] CT
0.149 GC
2 setlinecap
1 LJ
0.66 LW
N
541 207.79 M
538.685 207.79 L
S
GR
GS
[0.75843 0 0 0.75866 0 0.189] CT
0.149 GC
2 setlinecap
1 LJ
0.66 LW
N
541 204.987 M
538.685 204.987 L
S
GR
GS
[0.75843 0 0 0.75866 0 0.189] CT
0.149 GC
2 setlinecap
1 LJ
0.66 LW
N
541 202.558 M
538.685 202.558 L
S
GR
GS
[0.75843 0 0 0.75866 0 0.189] CT
0.149 GC
2 setlinecap
1 LJ
0.66 LW
N
541 200.416 M
538.685 200.416 L
S
GR
GS
[0.75843 0 0 0.75866 0 0.189] CT
0.149 GC
2 setlinecap
1 LJ
0.66 LW
N
541 198.5 M
538.685 198.5 L
S
GR
GS
[0.75843 0 0 0.75866 0 0.189] CT
0.149 GC
2 setlinecap
1 LJ
0.66 LW
N
541 198.5 M
538.685 198.5 L
S
GR
GS
[0.75843 0 0 0.75866 0 0.189] CT
0.149 GC
2 setlinecap
1 LJ
0.66 LW
N
541 185.894 M
538.685 185.894 L
S
GR
GS
[0.75843 0 0 0.75866 0 0.189] CT
0.149 GC
2 setlinecap
1 LJ
0.66 LW
N
541 178.521 M
538.685 178.521 L
S
GR
GS
[0.75843 0 0 0.75866 0 0.189] CT
0.149 GC
2 setlinecap
1 LJ
0.66 LW
N
541 173.289 M
538.685 173.289 L
S
GR
GS
[0.75843 0 0 0.75866 0 0.189] CT
0.149 GC
2 setlinecap
1 LJ
0.66 LW
N
541 169.231 M
538.685 169.231 L
S
GR
GS
[0.75843 0 0 0.75866 0 0.189] CT
0.149 GC
2 setlinecap
1 LJ
0.66 LW
N
541 165.915 M
538.685 165.915 L
S
GR
GS
[0.75843 0 0 0.75866 0 0.189] CT
0.149 GC
2 setlinecap
1 LJ
0.66 LW
N
541 163.112 M
538.685 163.112 L
S
GR
GS
[0.75843 0 0 0.75866 0 0.189] CT
0.149 GC
2 setlinecap
1 LJ
0.66 LW
N
541 160.683 M
538.685 160.683 L
S
GR
GS
[0.75843 0 0 0.75866 0 0.189] CT
0.149 GC
2 setlinecap
1 LJ
0.66 LW
N
541 158.541 M
538.685 158.541 L
S
GR
GS
[0.75843 0 0 0.75866 0 0.189] CT
0.149 GC
2 setlinecap
1 LJ
0.66 LW
N
541 156.625 M
538.685 156.625 L
S
GR
GS
[0.75843 0 0 0.75866 0 0.189] CT
0.149 GC
2 setlinecap
1 LJ
0.66 LW
N
541 144.019 M
538.685 144.019 L
S
GR
GS
[0.75843 0 0 0.75866 0 0.189] CT
0.149 GC
2 setlinecap
1 LJ
0.66 LW
N
541 136.646 M
538.685 136.646 L
S
GR
GS
[0.75843 0 0 0.75866 0 0.189] CT
0.149 GC
2 setlinecap
1 LJ
0.66 LW
N
541 131.414 M
538.685 131.414 L
S
GR
GS
[0.75843 0 0 0.75866 0 0.189] CT
0.149 GC
2 setlinecap
1 LJ
0.66 LW
N
541 127.356 M
538.685 127.356 L
S
GR
GS
[0.75843 0 0 0.75866 0 0.189] CT
0.149 GC
2 setlinecap
1 LJ
0.66 LW
N
541 124.04 M
538.685 124.04 L
S
GR
GS
[0.75843 0 0 0.75866 0 0.189] CT
0.149 GC
2 setlinecap
1 LJ
0.66 LW
N
541 121.237 M
538.685 121.237 L
S
GR
GS
[0.75843 0 0 0.75866 0 0.189] CT
0.149 GC
2 setlinecap
1 LJ
0.66 LW
N
541 118.808 M
538.685 118.808 L
S
GR
GS
[0.75843 0 0 0.75866 0 0.189] CT
0.149 GC
2 setlinecap
1 LJ
0.66 LW
N
541 116.666 M
538.685 116.666 L
S
GR
GS
[0.75843 0 0 0.75866 0 0.189] CT
0.149 GC
2 setlinecap
1 LJ
0.66 LW
N
541 114.75 M
538.685 114.75 L
S
GR
GS
[0.75843 0 0 0.75866 0 0.189] CT
0.149 GC
2 setlinecap
1 LJ
0.66 LW
N
541 102.144 M
538.685 102.144 L
S
GR
GS
[0.75843 0 0 0.75866 0 0.189] CT
0.149 GC
2 setlinecap
1 LJ
0.66 LW
N
541 94.771 M
538.685 94.771 L
S
GR
GS
[0.75843 0 0 0.75866 0 0.189] CT
0.149 GC
2 setlinecap
1 LJ
0.66 LW
N
541 89.539 M
538.685 89.539 L
S
GR
GS
[0.75843 0 0 0.75866 0 0.189] CT
0.149 GC
2 setlinecap
1 LJ
0.66 LW
N
541 85.481 M
538.685 85.481 L
S
GR
GS
[0.75843 0 0 0.75866 0 0.189] CT
0.149 GC
2 setlinecap
1 LJ
0.66 LW
N
541 82.165 M
538.685 82.165 L
S
GR
GS
[0.75843 0 0 0.75866 0 0.189] CT
0.149 GC
2 setlinecap
1 LJ
0.66 LW
N
541 79.362 M
538.685 79.362 L
S
GR
GS
[0.75843 0 0 0.75866 0 0.189] CT
0.149 GC
2 setlinecap
1 LJ
0.66 LW
N
541 76.933 M
538.685 76.933 L
S
GR
GS
[0.75843 0 0 0.75866 0 0.189] CT
0.149 GC
2 setlinecap
1 LJ
0.66 LW
N
541 74.791 M
538.685 74.791 L
S
GR
GS
[0.75843 0 0 0.75866 0 0.189] CT
0.149 GC
2 setlinecap
1 LJ
0.66 LW
N
541 72.875 M
538.685 72.875 L
S
GR
GS
[0.75843 0 0 0.75866 0 0.189] CT
0.149 GC
2 setlinecap
1 LJ
0.66 LW
N
541 60.269 M
538.685 60.269 L
S
GR
GS
[0.75843 0 0 0.75866 0 0.189] CT
0.149 GC
2 setlinecap
1 LJ
0.66 LW
N
541 52.896 M
538.685 52.896 L
S
GR
GS
[0.75843 0 0 0.75866 0 0.189] CT
0.149 GC
2 setlinecap
1 LJ
0.66 LW
N
541 47.664 M
538.685 47.664 L
S
GR
GS
[0.75843 0 0 0.75866 0 0.189] CT
0.149 GC
2 setlinecap
1 LJ
0.66 LW
N
541 43.606 M
538.685 43.606 L
S
GR
GS
[0.75843 0 0 0.75866 0 0.189] CT
0.149 GC
2 setlinecap
1 LJ
0.66 LW
N
541 40.29 M
538.685 40.29 L
S
GR
GS
[0.75843 0 0 0.75866 0 0.189] CT
0.149 GC
2 setlinecap
1 LJ
0.66 LW
N
541 37.487 M
538.685 37.487 L
S
GR
GS
[0.75843 0 0 0.75866 0 0.189] CT
0.149 GC
2 setlinecap
1 LJ
0.66 LW
N
541 35.058 M
538.685 35.058 L
S
GR
GS
[0.75843 0 0 0.75866 0 0.189] CT
0.149 GC
2 setlinecap
1 LJ
0.66 LW
N
541 32.916 M
538.685 32.916 L
S
GR
GS
[0.75843 0 0 0.75866 0 0.189] CT
0.149 GC
2 setlinecap
1 LJ
0.66 LW
N
541 31 M
538.685 31 L
S
GR
GS
[0.75843 0 0 0.75866 34.12951 282.41209] CT
0.149 GC
/Helvetica 13.194 F
GS
[1 0 0 1 0 0] CT
0 0 moveto 
1 -1 scale
(10) t 
GR
GR
GS
[0.75843 0 0 0.75866 47.02288 277.86011] CT
0.149 GC
/Helvetica 10.556 F
GS
[1 0 0 1 0 0] CT
0 0 moveto 
1 -1 scale
(-8) t 
GR
GR
GS
[0.75843 0 0 0.75866 34.12951 218.6843] CT
0.149 GC
/Helvetica 13.194 F
GS
[1 0 0 1 0 0] CT
0 0 moveto 
1 -1 scale
(10) t 
GR
GR
GS
[0.75843 0 0 0.75866 47.02288 214.13231] CT
0.149 GC
/Helvetica 10.556 F
GS
[1 0 0 1 0 0] CT
0 0 moveto 
1 -1 scale
(-6) t 
GR
GR
GS
[0.75843 0 0 0.75866 34.12951 155.71517] CT
0.149 GC
/Helvetica 13.194 F
GS
[1 0 0 1 0 0] CT
0 0 moveto 
1 -1 scale
(10) t 
GR
GR
GS
[0.75843 0 0 0.75866 47.02288 151.16318] CT
0.149 GC
/Helvetica 10.556 F
GS
[1 0 0 1 0 0] CT
0 0 moveto 
1 -1 scale
(-4) t 
GR
GR
GS
[0.75843 0 0 0.75866 34.12951 91.98737] CT
0.149 GC
/Helvetica 13.194 F
GS
[1 0 0 1 0 0] CT
0 0 moveto 
1 -1 scale
(10) t 
GR
GR
GS
[0.75843 0 0 0.75866 47.02288 87.43538] CT
0.149 GC
/Helvetica 10.556 F
GS
[1 0 0 1 0 0] CT
0 0 moveto 
1 -1 scale
(-2) t 
GR
GR
GS
[0.75843 0 0 0.75866 37.16325 28.25957] CT
0.149 GC
/Helvetica 13.194 F
GS
[1 0 0 1 0 0] CT
0 0 moveto 
1 -1 scale
(10) t 
GR
GR
GS
[0.75843 0 0 0.75866 50.05662 23.70759] CT
0.149 GC
/Helvetica 10.556 F
GS
[1 0 0 1 0 0] CT
0 0 moveto 
1 -1 scale
(0) t 
GR
GR
GS
[0 -0.75866 0.75843 0 30.9167 150.78373] CT
0.149 GC
/Helvetica 14.514 F
GS
[1 0 0 1 0 0] CT
-15 -4 moveto 
1 -1 scale
(BER) t 
GR
GR
GS
[0.75843 0 0 0.75866 0 0.189] CT
0.192 0.122 0.529 RC
1 LJ
1.319 LW
N
77.945 43.581 M
78 43.581 L
93.433 43.59 L
108.867 43.626 L
124.3 43.607 L
139.733 43.626 L
155.167 43.583 L
170.6 43.595 L
186.033 43.616 L
201.467 43.592 L
216.9 43.595 L
232.333 43.615 L
247.767 43.62 L
263.2 43.612 L
278.633 43.675 L
294.067 43.864 L
309.5 44.313 L
324.933 45.274 L
340.367 46.714 L
355.8 48.068 L
371.233 48.729 L
386.667 48.9 L
402.1 49.606 L
417.533 52.524 L
432.967 56.507 L
448.4 63.226 L
463.833 81.429 L
479.267 141.609 L
494.7 282.25 L
S
GR
GS
[0.75843 0 0 0.75866 59.15782 33.25217] CT
0.192 0.122 0.529 RC
10.0 ML
1.319 LW
N
-2.799 -2.799 M
2.799 2.799 L
-2.799 2.799 M
2.799 -2.799 L
S
GR
GS
[0.75843 0 0 0.75866 70.86298 33.25951] CT
0.192 0.122 0.529 RC
10.0 ML
1.319 LW
N
-2.799 -2.799 M
2.799 2.799 L
-2.799 2.799 M
2.799 -2.799 L
S
GR
GS
[0.75843 0 0 0.75866 82.56814 33.28615] CT
0.192 0.122 0.529 RC
10.0 ML
1.319 LW
N
-2.799 -2.799 M
2.799 2.799 L
-2.799 2.799 M
2.799 -2.799 L
S
GR
GS
[0.75843 0 0 0.75866 94.2733 33.27223] CT
0.192 0.122 0.529 RC
10.0 ML
1.319 LW
N
-2.799 -2.799 M
2.799 2.799 L
-2.799 2.799 M
2.799 -2.799 L
S
GR
GS
[0.75843 0 0 0.75866 105.97846 33.28641] CT
0.192 0.122 0.529 RC
10.0 ML
1.319 LW
N
-2.799 -2.799 M
2.799 2.799 L
-2.799 2.799 M
2.799 -2.799 L
S
GR
GS
[0.75843 0 0 0.75866 117.68362 33.25422] CT
0.192 0.122 0.529 RC
10.0 ML
1.319 LW
N
-2.799 -2.799 M
2.799 2.799 L
-2.799 2.799 M
2.799 -2.799 L
S
GR
GS
[0.75843 0 0 0.75866 129.38878 33.26287] CT
0.192 0.122 0.529 RC
10.0 ML
1.319 LW
N
-2.799 -2.799 M
2.799 2.799 L
-2.799 2.799 M
2.799 -2.799 L
S
GR
GS
[0.75843 0 0 0.75866 141.09394 33.27899] CT
0.192 0.122 0.529 RC
10.0 ML
1.319 LW
N
-2.799 -2.799 M
2.799 2.799 L
-2.799 2.799 M
2.799 -2.799 L
S
GR
GS
[0.75843 0 0 0.75866 152.7991 33.26067] CT
0.192 0.122 0.529 RC
10.0 ML
1.319 LW
N
-2.799 -2.799 M
2.799 2.799 L
-2.799 2.799 M
2.799 -2.799 L
S
GR
GS
[0.75843 0 0 0.75866 164.50426 33.26307] CT
0.192 0.122 0.529 RC
10.0 ML
1.319 LW
N
-2.799 -2.799 M
2.799 2.799 L
-2.799 2.799 M
2.799 -2.799 L
S
GR
GS
[0.75843 0 0 0.75866 176.20942 33.2784] CT
0.192 0.122 0.529 RC
10.0 ML
1.319 LW
N
-2.799 -2.799 M
2.799 2.799 L
-2.799 2.799 M
2.799 -2.799 L
S
GR
GS
[0.75843 0 0 0.75866 187.91458 33.28158] CT
0.192 0.122 0.529 RC
10.0 ML
1.319 LW
N
-2.799 -2.799 M
2.799 2.799 L
-2.799 2.799 M
2.799 -2.799 L
S
GR
GS
[0.75843 0 0 0.75866 199.61974 33.27587] CT
0.192 0.122 0.529 RC
10.0 ML
1.319 LW
N
-2.799 -2.799 M
2.799 2.799 L
-2.799 2.799 M
2.799 -2.799 L
S
GR
GS
[0.75843 0 0 0.75866 211.32489 33.32336] CT
0.192 0.122 0.529 RC
10.0 ML
1.319 LW
N
-2.799 -2.799 M
2.799 2.799 L
-2.799 2.799 M
2.799 -2.799 L
S
GR
GS
[0.75843 0 0 0.75866 223.03006 33.46691] CT
0.192 0.122 0.529 RC
10.0 ML
1.319 LW
N
-2.799 -2.799 M
2.799 2.799 L
-2.799 2.799 M
2.799 -2.799 L
S
GR
GS
[0.75843 0 0 0.75866 234.73521 33.80786] CT
0.192 0.122 0.529 RC
10.0 ML
1.319 LW
N
-2.799 -2.799 M
2.799 2.799 L
-2.799 2.799 M
2.799 -2.799 L
S
GR
GS
[0.75843 0 0 0.75866 246.44038 34.53651] CT
0.192 0.122 0.529 RC
10.0 ML
1.319 LW
N
-2.799 -2.799 M
2.799 2.799 L
-2.799 2.799 M
2.799 -2.799 L
S
GR
GS
[0.75843 0 0 0.75866 258.14552 35.62901] CT
0.192 0.122 0.529 RC
10.0 ML
1.319 LW
N
-2.799 -2.799 M
2.799 2.799 L
-2.799 2.799 M
2.799 -2.799 L
S
GR
GS
[0.75843 0 0 0.75866 269.8507 36.65676] CT
0.192 0.122 0.529 RC
10.0 ML
1.319 LW
N
-2.799 -2.799 M
2.799 2.799 L
-2.799 2.799 M
2.799 -2.799 L
S
GR
GS
[0.75843 0 0 0.75866 281.55584 37.15801] CT
0.192 0.122 0.529 RC
10.0 ML
1.319 LW
N
-2.799 -2.799 M
2.799 2.799 L
-2.799 2.799 M
2.799 -2.799 L
S
GR
GS
[0.75843 0 0 0.75866 293.26101 37.28735] CT
0.192 0.122 0.529 RC
10.0 ML
1.319 LW
N
-2.799 -2.799 M
2.799 2.799 L
-2.799 2.799 M
2.799 -2.799 L
S
GR
GS
[0.75843 0 0 0.75866 304.96616 37.82356] CT
0.192 0.122 0.529 RC
10.0 ML
1.319 LW
N
-2.799 -2.799 M
2.799 2.799 L
-2.799 2.799 M
2.799 -2.799 L
S
GR
GS
[0.75843 0 0 0.75866 316.67133 40.03676] CT
0.192 0.122 0.529 RC
10.0 ML
1.319 LW
N
-2.799 -2.799 M
2.799 2.799 L
-2.799 2.799 M
2.799 -2.799 L
S
GR
GS
[0.75843 0 0 0.75866 328.37646 43.05897] CT
0.192 0.122 0.529 RC
10.0 ML
1.319 LW
N
-2.799 -2.799 M
2.799 2.799 L
-2.799 2.799 M
2.799 -2.799 L
S
GR
GS
[0.75843 0 0 0.75866 340.08163 48.1566] CT
0.192 0.122 0.529 RC
10.0 ML
1.319 LW
N
-2.799 -2.799 M
2.799 2.799 L
-2.799 2.799 M
2.799 -2.799 L
S
GR
GS
[0.75843 0 0 0.75866 351.78678 61.96643] CT
0.192 0.122 0.529 RC
10.0 ML
1.319 LW
N
-2.799 -2.799 M
2.799 2.799 L
-2.799 2.799 M
2.799 -2.799 L
S
GR
GS
[0.75843 0 0 0.75866 363.49195 107.62236] CT
0.192 0.122 0.529 RC
10.0 ML
1.319 LW
N
-2.799 -2.799 M
2.799 2.799 L
-2.799 2.799 M
2.799 -2.799 L
S
GR
GS
[0.75843 0 0 0.75866 375.1971 214.32198] CT
0.192 0.122 0.529 RC
10.0 ML
1.319 LW
N
-2.799 -2.799 M
2.799 2.799 L
-2.799 2.799 M
2.799 -2.799 L
S
GR
GS
[0.75843 0 0 0.75866 0 0.189] CT
0.212 0.322 0.796 RC
1 LJ
1.319 LW
N
77.945 50.751 M
78 50.754 L
93.433 51.825 L
108.867 53.03 L
124.3 54.518 L
139.733 56.198 L
155.167 58.247 L
170.6 60.564 L
186.033 63.353 L
201.467 66.635 L
216.9 70.461 L
232.333 75.086 L
247.767 80.756 L
263.2 88.018 L
278.633 97.841 L
294.067 111.375 L
309.5 130.463 L
324.933 157.886 L
340.367 195.413 L
355.8 246.862 L
S
GR
GS
[0.75843 0 0 0.75866 59.15782 38.69424] CT
0.212 0.322 0.796 RC
10.0 ML
1.319 LW
N
-2.799 -2.799 M
2.799 2.799 L
-2.799 2.799 M
2.799 -2.799 L
S
GR
GS
[0.75843 0 0 0.75866 70.86298 39.50705] CT
0.212 0.322 0.796 RC
10.0 ML
1.319 LW
N
-2.799 -2.799 M
2.799 2.799 L
-2.799 2.799 M
2.799 -2.799 L
S
GR
GS
[0.75843 0 0 0.75866 82.56814 40.42108] CT
0.212 0.322 0.796 RC
10.0 ML
1.319 LW
N
-2.799 -2.799 M
2.799 2.799 L
-2.799 2.799 M
2.799 -2.799 L
S
GR
GS
[0.75843 0 0 0.75866 94.2733 41.54948] CT
0.212 0.322 0.796 RC
10.0 ML
1.319 LW
N
-2.799 -2.799 M
2.799 2.799 L
-2.799 2.799 M
2.799 -2.799 L
S
GR
GS
[0.75843 0 0 0.75866 105.97846 42.82404] CT
0.212 0.322 0.796 RC
10.0 ML
1.319 LW
N
-2.799 -2.799 M
2.799 2.799 L
-2.799 2.799 M
2.799 -2.799 L
S
GR
GS
[0.75843 0 0 0.75866 117.68362 44.37859] CT
0.212 0.322 0.796 RC
10.0 ML
1.319 LW
N
-2.799 -2.799 M
2.799 2.799 L
-2.799 2.799 M
2.799 -2.799 L
S
GR
GS
[0.75843 0 0 0.75866 129.38878 46.13689] CT
0.212 0.322 0.796 RC
10.0 ML
1.319 LW
N
-2.799 -2.799 M
2.799 2.799 L
-2.799 2.799 M
2.799 -2.799 L
S
GR
GS
[0.75843 0 0 0.75866 141.09394 48.25283] CT
0.212 0.322 0.796 RC
10.0 ML
1.319 LW
N
-2.799 -2.799 M
2.799 2.799 L
-2.799 2.799 M
2.799 -2.799 L
S
GR
GS
[0.75843 0 0 0.75866 152.7991 50.7426] CT
0.212 0.322 0.796 RC
10.0 ML
1.319 LW
N
-2.799 -2.799 M
2.799 2.799 L
-2.799 2.799 M
2.799 -2.799 L
S
GR
GS
[0.75843 0 0 0.75866 164.50426 53.64555] CT
0.212 0.322 0.796 RC
10.0 ML
1.319 LW
N
-2.799 -2.799 M
2.799 2.799 L
-2.799 2.799 M
2.799 -2.799 L
S
GR
GS
[0.75843 0 0 0.75866 176.20942 57.15376] CT
0.212 0.322 0.796 RC
10.0 ML
1.319 LW
N
-2.799 -2.799 M
2.799 2.799 L
-2.799 2.799 M
2.799 -2.799 L
S
GR
GS
[0.75843 0 0 0.75866 187.91458 61.45588] CT
0.212 0.322 0.796 RC
10.0 ML
1.319 LW
N
-2.799 -2.799 M
2.799 2.799 L
-2.799 2.799 M
2.799 -2.799 L
S
GR
GS
[0.75843 0 0 0.75866 199.61974 66.96539] CT
0.212 0.322 0.796 RC
10.0 ML
1.319 LW
N
-2.799 -2.799 M
2.799 2.799 L
-2.799 2.799 M
2.799 -2.799 L
S
GR
GS
[0.75843 0 0 0.75866 211.32489 74.41784] CT
0.212 0.322 0.796 RC
10.0 ML
1.319 LW
N
-2.799 -2.799 M
2.799 2.799 L
-2.799 2.799 M
2.799 -2.799 L
S
GR
GS
[0.75843 0 0 0.75866 223.03006 84.68544] CT
0.212 0.322 0.796 RC
10.0 ML
1.319 LW
N
-2.799 -2.799 M
2.799 2.799 L
-2.799 2.799 M
2.799 -2.799 L
S
GR
GS
[0.75843 0 0 0.75866 234.73521 99.16638] CT
0.212 0.322 0.796 RC
10.0 ML
1.319 LW
N
-2.799 -2.799 M
2.799 2.799 L
-2.799 2.799 M
2.799 -2.799 L
S
GR
GS
[0.75843 0 0 0.75866 246.44038 119.97162] CT
0.212 0.322 0.796 RC
10.0 ML
1.319 LW
N
-2.799 -2.799 M
2.799 2.799 L
-2.799 2.799 M
2.799 -2.799 L
S
GR
GS
[0.75843 0 0 0.75866 258.14552 148.44188] CT
0.212 0.322 0.796 RC
10.0 ML
1.319 LW
N
-2.799 -2.799 M
2.799 2.799 L
-2.799 2.799 M
2.799 -2.799 L
S
GR
GS
[0.75843 0 0 0.75866 269.8507 187.47401] CT
0.212 0.322 0.796 RC
10.0 ML
1.319 LW
N
-2.799 -2.799 M
2.799 2.799 L
-2.799 2.799 M
2.799 -2.799 L
S
GR
GS
[0.75843 0 0 0.75866 0 0.189] CT
0.086 0.533 0.698 RC
1 LJ
1.319 LW
N
77.945 56.852 M
78 56.858 L
93.433 58.904 L
108.867 61.399 L
124.3 64.264 L
139.733 67.762 L
155.167 71.958 L
170.6 77.089 L
186.033 83.295 L
201.467 90.992 L
216.9 100.414 L
232.333 112.395 L
247.767 127.219 L
263.2 146.723 L
278.633 170.876 L
294.067 202.729 L
309.5 244.433 L
324.933 307.461 L
S
GR
GS
[0.75843 0 0 0.75866 59.15782 43.32546] CT
0.086 0.533 0.698 RC
10.0 ML
1.319 LW
N
-2.799 -2.799 M
2.799 2.799 L
-2.799 2.799 M
2.799 -2.799 L
S
GR
GS
[0.75843 0 0 0.75866 70.86298 44.87743] CT
0.086 0.533 0.698 RC
10.0 ML
1.319 LW
N
-2.799 -2.799 M
2.799 2.799 L
-2.799 2.799 M
2.799 -2.799 L
S
GR
GS
[0.75843 0 0 0.75866 82.56814 46.76998] CT
0.086 0.533 0.698 RC
10.0 ML
1.319 LW
N
-2.799 -2.799 M
2.799 2.799 L
-2.799 2.799 M
2.799 -2.799 L
S
GR
GS
[0.75843 0 0 0.75866 94.2733 48.94352] CT
0.086 0.533 0.698 RC
10.0 ML
1.319 LW
N
-2.799 -2.799 M
2.799 2.799 L
-2.799 2.799 M
2.799 -2.799 L
S
GR
GS
[0.75843 0 0 0.75866 105.97846 51.59761] CT
0.086 0.533 0.698 RC
10.0 ML
1.319 LW
N
-2.799 -2.799 M
2.799 2.799 L
-2.799 2.799 M
2.799 -2.799 L
S
GR
GS
[0.75843 0 0 0.75866 117.68362 54.78121] CT
0.086 0.533 0.698 RC
10.0 ML
1.319 LW
N
-2.799 -2.799 M
2.799 2.799 L
-2.799 2.799 M
2.799 -2.799 L
S
GR
GS
[0.75843 0 0 0.75866 129.38878 58.67399] CT
0.086 0.533 0.698 RC
10.0 ML
1.319 LW
N
-2.799 -2.799 M
2.799 2.799 L
-2.799 2.799 M
2.799 -2.799 L
S
GR
GS
[0.75843 0 0 0.75866 141.09394 63.3819] CT
0.086 0.533 0.698 RC
10.0 ML
1.319 LW
N
-2.799 -2.799 M
2.799 2.799 L
-2.799 2.799 M
2.799 -2.799 L
S
GR
GS
[0.75843 0 0 0.75866 152.7991 69.22172] CT
0.086 0.533 0.698 RC
10.0 ML
1.319 LW
N
-2.799 -2.799 M
2.799 2.799 L
-2.799 2.799 M
2.799 -2.799 L
S
GR
GS
[0.75843 0 0 0.75866 164.50426 76.36977] CT
0.086 0.533 0.698 RC
10.0 ML
1.319 LW
N
-2.799 -2.799 M
2.799 2.799 L
-2.799 2.799 M
2.799 -2.799 L
S
GR
GS
[0.75843 0 0 0.75866 176.20942 85.45879] CT
0.086 0.533 0.698 RC
10.0 ML
1.319 LW
N
-2.799 -2.799 M
2.799 2.799 L
-2.799 2.799 M
2.799 -2.799 L
S
GR
GS
[0.75843 0 0 0.75866 187.91458 96.70538] CT
0.086 0.533 0.698 RC
10.0 ML
1.319 LW
N
-2.799 -2.799 M
2.799 2.799 L
-2.799 2.799 M
2.799 -2.799 L
S
GR
GS
[0.75843 0 0 0.75866 199.61974 111.50221] CT
0.086 0.533 0.698 RC
10.0 ML
1.319 LW
N
-2.799 -2.799 M
2.799 2.799 L
-2.799 2.799 M
2.799 -2.799 L
S
GR
GS
[0.75843 0 0 0.75866 211.32489 129.82648] CT
0.086 0.533 0.698 RC
10.0 ML
1.319 LW
N
-2.799 -2.799 M
2.799 2.799 L
-2.799 2.799 M
2.799 -2.799 L
S
GR
GS
[0.75843 0 0 0.75866 223.03006 153.99254] CT
0.086 0.533 0.698 RC
10.0 ML
1.319 LW
N
-2.799 -2.799 M
2.799 2.799 L
-2.799 2.799 M
2.799 -2.799 L
S
GR
GS
[0.75843 0 0 0.75866 234.73521 185.63165] CT
0.086 0.533 0.698 RC
10.0 ML
1.319 LW
N
-2.799 -2.799 M
2.799 2.799 L
-2.799 2.799 M
2.799 -2.799 L
S
GR
GS
[0.75843 0 0 0.75866 246.44038 233.44887] CT
0.086 0.533 0.698 RC
10.0 ML
1.319 LW
N
-2.799 -2.799 M
2.799 2.799 L
-2.799 2.799 M
2.799 -2.799 L
S
GR
GS
[0.75843 0 0 0.75866 0 0.189] CT
0.224 0.635 0.42 RC
1 LJ
1.319 LW
N
77.945 59.844 M
78 59.852 L
93.433 62.476 L
108.867 65.602 L
124.3 69.307 L
139.733 73.779 L
155.167 79.188 L
170.6 85.768 L
186.033 93.811 L
201.467 103.57 L
216.9 115.731 L
232.333 130.989 L
247.767 149.643 L
263.2 173.198 L
278.633 203.491 L
294.067 240.835 L
309.5 294.856 L
S
GR
GS
[0.75843 0 0 0.75866 59.15782 45.59657] CT
0.224 0.635 0.42 RC
10.0 ML
1.319 LW
N
-2.799 -2.799 M
2.799 2.799 L
-2.799 2.799 M
2.799 -2.799 L
S
GR
GS
[0.75843 0 0 0.75866 70.86298 47.58744] CT
0.224 0.635 0.42 RC
10.0 ML
1.319 LW
N
-2.799 -2.799 M
2.799 2.799 L
-2.799 2.799 M
2.799 -2.799 L
S
GR
GS
[0.75843 0 0 0.75866 82.56814 49.95884] CT
0.224 0.635 0.42 RC
10.0 ML
1.319 LW
N
-2.799 -2.799 M
2.799 2.799 L
-2.799 2.799 M
2.799 -2.799 L
S
GR
GS
[0.75843 0 0 0.75866 94.2733 52.77008] CT
0.224 0.635 0.42 RC
10.0 ML
1.319 LW
N
-2.799 -2.799 M
2.799 2.799 L
-2.799 2.799 M
2.799 -2.799 L
S
GR
GS
[0.75843 0 0 0.75866 105.97846 56.16266] CT
0.224 0.635 0.42 RC
10.0 ML
1.319 LW
N
-2.799 -2.799 M
2.799 2.799 L
-2.799 2.799 M
2.799 -2.799 L
S
GR
GS
[0.75843 0 0 0.75866 117.68362 60.26631] CT
0.224 0.635 0.42 RC
10.0 ML
1.319 LW
N
-2.799 -2.799 M
2.799 2.799 L
-2.799 2.799 M
2.799 -2.799 L
S
GR
GS
[0.75843 0 0 0.75866 129.38878 65.25801] CT
0.224 0.635 0.42 RC
10.0 ML
1.319 LW
N
-2.799 -2.799 M
2.799 2.799 L
-2.799 2.799 M
2.799 -2.799 L
S
GR
GS
[0.75843 0 0 0.75866 141.09394 71.35988] CT
0.224 0.635 0.42 RC
10.0 ML
1.319 LW
N
-2.799 -2.799 M
2.799 2.799 L
-2.799 2.799 M
2.799 -2.799 L
S
GR
GS
[0.75843 0 0 0.75866 152.7991 78.76352] CT
0.224 0.635 0.42 RC
10.0 ML
1.319 LW
N
-2.799 -2.799 M
2.799 2.799 L
-2.799 2.799 M
2.799 -2.799 L
S
GR
GS
[0.75843 0 0 0.75866 164.50426 87.98977] CT
0.224 0.635 0.42 RC
10.0 ML
1.319 LW
N
-2.799 -2.799 M
2.799 2.799 L
-2.799 2.799 M
2.799 -2.799 L
S
GR
GS
[0.75843 0 0 0.75866 176.20942 99.56573] CT
0.224 0.635 0.42 RC
10.0 ML
1.319 LW
N
-2.799 -2.799 M
2.799 2.799 L
-2.799 2.799 M
2.799 -2.799 L
S
GR
GS
[0.75843 0 0 0.75866 187.91458 113.71805] CT
0.224 0.635 0.42 RC
10.0 ML
1.319 LW
N
-2.799 -2.799 M
2.799 2.799 L
-2.799 2.799 M
2.799 -2.799 L
S
GR
GS
[0.75843 0 0 0.75866 199.61974 131.58815] CT
0.224 0.635 0.42 RC
10.0 ML
1.319 LW
N
-2.799 -2.799 M
2.799 2.799 L
-2.799 2.799 M
2.799 -2.799 L
S
GR
GS
[0.75843 0 0 0.75866 211.32489 154.57029] CT
0.224 0.635 0.42 RC
10.0 ML
1.319 LW
N
-2.799 -2.799 M
2.799 2.799 L
-2.799 2.799 M
2.799 -2.799 L
S
GR
GS
[0.75843 0 0 0.75866 223.03006 182.90223] CT
0.224 0.635 0.42 RC
10.0 ML
1.319 LW
N
-2.799 -2.799 M
2.799 2.799 L
-2.799 2.799 M
2.799 -2.799 L
S
GR
GS
[0.75843 0 0 0.75866 234.73521 223.88541] CT
0.224 0.635 0.42 RC
10.0 ML
1.319 LW
N
-2.799 -2.799 M
2.799 2.799 L
-2.799 2.799 M
2.799 -2.799 L
S
GR
GS
[0.75843 0 0 0.75866 0 0.189] CT
0.733 0.584 0.153 RC
1 LJ
1.319 LW
N
77.945 61.31 M
78 61.319 L
93.433 64.211 L
108.867 67.662 L
124.3 71.789 L
139.733 76.754 L
155.167 82.738 L
170.6 90.098 L
186.033 98.892 L
201.467 109.959 L
216.9 123.422 L
232.333 139.77 L
247.767 159.948 L
263.2 187.66 L
278.633 222.312 L
294.067 259.467 L
S
GR
GS
[0.75843 0 0 0.75866 59.15782 46.70921] CT
0.733 0.584 0.153 RC
10.0 ML
1.319 LW
N
-2.799 -2.799 M
2.799 2.799 L
-2.799 2.799 M
2.799 -2.799 L
S
GR
GS
[0.75843 0 0 0.75866 70.86298 48.90369] CT
0.733 0.584 0.153 RC
10.0 ML
1.319 LW
N
-2.799 -2.799 M
2.799 2.799 L
-2.799 2.799 M
2.799 -2.799 L
S
GR
GS
[0.75843 0 0 0.75866 82.56814 51.52204] CT
0.733 0.584 0.153 RC
10.0 ML
1.319 LW
N
-2.799 -2.799 M
2.799 2.799 L
-2.799 2.799 M
2.799 -2.799 L
S
GR
GS
[0.75843 0 0 0.75866 94.2733 54.65298] CT
0.733 0.584 0.153 RC
10.0 ML
1.319 LW
N
-2.799 -2.799 M
2.799 2.799 L
-2.799 2.799 M
2.799 -2.799 L
S
GR
GS
[0.75843 0 0 0.75866 105.97846 58.41976] CT
0.733 0.584 0.153 RC
10.0 ML
1.319 LW
N
-2.799 -2.799 M
2.799 2.799 L
-2.799 2.799 M
2.799 -2.799 L
S
GR
GS
[0.75843 0 0 0.75866 117.68362 62.95966] CT
0.733 0.584 0.153 RC
10.0 ML
1.319 LW
N
-2.799 -2.799 M
2.799 2.799 L
-2.799 2.799 M
2.799 -2.799 L
S
GR
GS
[0.75843 0 0 0.75866 129.38878 68.54317] CT
0.733 0.584 0.153 RC
10.0 ML
1.319 LW
N
-2.799 -2.799 M
2.799 2.799 L
-2.799 2.799 M
2.799 -2.799 L
S
GR
GS
[0.75843 0 0 0.75866 141.09394 75.21455] CT
0.733 0.584 0.153 RC
10.0 ML
1.319 LW
N
-2.799 -2.799 M
2.799 2.799 L
-2.799 2.799 M
2.799 -2.799 L
S
GR
GS
[0.75843 0 0 0.75866 152.7991 83.61099] CT
0.733 0.584 0.153 RC
10.0 ML
1.319 LW
N
-2.799 -2.799 M
2.799 2.799 L
-2.799 2.799 M
2.799 -2.799 L
S
GR
GS
[0.75843 0 0 0.75866 164.50426 93.82456] CT
0.733 0.584 0.153 RC
10.0 ML
1.319 LW
N
-2.799 -2.799 M
2.799 2.799 L
-2.799 2.799 M
2.799 -2.799 L
S
GR
GS
[0.75843 0 0 0.75866 176.20942 106.22712] CT
0.733 0.584 0.153 RC
10.0 ML
1.319 LW
N
-2.799 -2.799 M
2.799 2.799 L
-2.799 2.799 M
2.799 -2.799 L
S
GR
GS
[0.75843 0 0 0.75866 187.91458 121.53581] CT
0.733 0.584 0.153 RC
10.0 ML
1.319 LW
N
-2.799 -2.799 M
2.799 2.799 L
-2.799 2.799 M
2.799 -2.799 L
S
GR
GS
[0.75843 0 0 0.75866 199.61974 142.55957] CT
0.733 0.584 0.153 RC
10.0 ML
1.319 LW
N
-2.799 -2.799 M
2.799 2.799 L
-2.799 2.799 M
2.799 -2.799 L
S
GR
GS
[0.75843 0 0 0.75866 211.32489 168.84889] CT
0.733 0.584 0.153 RC
10.0 ML
1.319 LW
N
-2.799 -2.799 M
2.799 2.799 L
-2.799 2.799 M
2.799 -2.799 L
S
GR
GS
[0.75843 0 0 0.75866 223.03006 197.03745] CT
0.733 0.584 0.153 RC
10.0 ML
1.319 LW
N
-2.799 -2.799 M
2.799 2.799 L
-2.799 2.799 M
2.799 -2.799 L
S
GR
GS
[0.75843 0 0 0.75866 0 0.189] CT
0.78 0.788 0.063 RC
1 LJ
1.319 LW
N
77.945 63.754 M
78 63.764 L
93.433 67.12 L
108.867 71.136 L
124.3 75.952 L
139.733 81.764 L
155.167 88.804 L
170.6 97.382 L
186.033 107.88 L
201.467 120.682 L
216.9 136.445 L
232.333 155.888 L
247.767 179.975 L
263.2 210.02 L
278.633 246.378 L
294.067 295.915 L
309.5 354.454 L
S
GR
GS
[0.75843 0 0 0.75866 59.15782 48.56424] CT
0.78 0.788 0.063 RC
10.0 ML
1.319 LW
N
-2.799 -2.799 M
2.799 2.799 L
-2.799 2.799 M
2.799 -2.799 L
S
GR
GS
[0.75843 0 0 0.75866 70.86298 51.11026] CT
0.78 0.788 0.063 RC
10.0 ML
1.319 LW
N
-2.799 -2.799 M
2.799 2.799 L
-2.799 2.799 M
2.799 -2.799 L
S
GR
GS
[0.75843 0 0 0.75866 82.56814 54.15764] CT
0.78 0.788 0.063 RC
10.0 ML
1.319 LW
N
-2.799 -2.799 M
2.799 2.799 L
-2.799 2.799 M
2.799 -2.799 L
S
GR
GS
[0.75843 0 0 0.75866 94.2733 57.81126] CT
0.78 0.788 0.063 RC
10.0 ML
1.319 LW
N
-2.799 -2.799 M
2.799 2.799 L
-2.799 2.799 M
2.799 -2.799 L
S
GR
GS
[0.75843 0 0 0.75866 105.97846 62.22075] CT
0.78 0.788 0.063 RC
10.0 ML
1.319 LW
N
-2.799 -2.799 M
2.799 2.799 L
-2.799 2.799 M
2.799 -2.799 L
S
GR
GS
[0.75843 0 0 0.75866 117.68362 67.56134] CT
0.78 0.788 0.063 RC
10.0 ML
1.319 LW
N
-2.799 -2.799 M
2.799 2.799 L
-2.799 2.799 M
2.799 -2.799 L
S
GR
GS
[0.75843 0 0 0.75866 129.38878 74.06912] CT
0.78 0.788 0.063 RC
10.0 ML
1.319 LW
N
-2.799 -2.799 M
2.799 2.799 L
-2.799 2.799 M
2.799 -2.799 L
S
GR
GS
[0.75843 0 0 0.75866 141.09394 82.03365] CT
0.78 0.788 0.063 RC
10.0 ML
1.319 LW
N
-2.799 -2.799 M
2.799 2.799 L
-2.799 2.799 M
2.799 -2.799 L
S
GR
GS
[0.75843 0 0 0.75866 152.7991 91.74628] CT
0.78 0.788 0.063 RC
10.0 ML
1.319 LW
N
-2.799 -2.799 M
2.799 2.799 L
-2.799 2.799 M
2.799 -2.799 L
S
GR
GS
[0.75843 0 0 0.75866 164.50426 103.70478] CT
0.78 0.788 0.063 RC
10.0 ML
1.319 LW
N
-2.799 -2.799 M
2.799 2.799 L
-2.799 2.799 M
2.799 -2.799 L
S
GR
GS
[0.75843 0 0 0.75866 176.20942 118.45551] CT
0.78 0.788 0.063 RC
10.0 ML
1.319 LW
N
-2.799 -2.799 M
2.799 2.799 L
-2.799 2.799 M
2.799 -2.799 L
S
GR
GS
[0.75843 0 0 0.75866 187.91458 136.7295] CT
0.78 0.788 0.063 RC
10.0 ML
1.319 LW
N
-2.799 -2.799 M
2.799 2.799 L
-2.799 2.799 M
2.799 -2.799 L
S
GR
GS
[0.75843 0 0 0.75866 199.61974 159.52371] CT
0.78 0.788 0.063 RC
10.0 ML
1.319 LW
N
-2.799 -2.799 M
2.799 2.799 L
-2.799 2.799 M
2.799 -2.799 L
S
GR
GS
[0.75843 0 0 0.75866 211.32489 187.10704] CT
0.78 0.788 0.063 RC
10.0 ML
1.319 LW
N
-2.799 -2.799 M
2.799 2.799 L
-2.799 2.799 M
2.799 -2.799 L
S
GR
GS
[0.75843 0 0 0.75866 223.03006 224.68936] CT
0.78 0.788 0.063 RC
10.0 ML
1.319 LW
N
-2.799 -2.799 M
2.799 2.799 L
-2.799 2.799 M
2.799 -2.799 L
S
GR
GS
[0.75843 0 0 0.75866 234.73521 269.1006] CT
0.78 0.788 0.063 RC
10.0 ML
1.319 LW
N
-2.799 -2.799 M
2.799 2.799 L
-2.799 2.799 M
2.799 -2.799 L
S
GR
GS
[0.75843 0 0 0.75866 0 0.189] CT
1 GC
N
218 338 M
218 226 L
92 226 L
92 338 L
cp
f
GR
GS
[0.75843 0 0 0.75866 105.22348 178.85443] CT
/Helvetica 11.875 F
GS
[1 0 0 1 0 0] CT
0 4.5 moveto 
1 -1 scale
(tone) t 
GR
GR
GS
[0.75843 0 0 0.75866 105.22348 190.61372] CT
/Helvetica 11.875 F
GS
[1 0 0 1 0 0] CT
0 4.5 moveto 
1 -1 scale
(0) t 
GR
GR
GS
[0.75843 0 0 0.75866 0 0.189] CT
0.192 0.122 0.529 RC
1 LJ
1.319 LW
N
96.013 251 M
135.728 251 L
S
GR
GS
[0.75843 0 0 0.75866 87.88016 190.61372] CT
0.192 0.122 0.529 RC
10.0 ML
1.319 LW
N
-2.799 -2.799 M
2.799 2.799 L
-2.799 2.799 M
2.799 -2.799 L
S
GR
GS
[0.75843 0 0 0.75866 105.22348 202.37302] CT
/Helvetica 11.875 F
GS
[1 0 0 1 0 0] CT
0 4.5 moveto 
1 -1 scale
(1) t 
GR
GR
GS
[0.75843 0 0 0.75866 0 0.189] CT
0.212 0.322 0.796 RC
1 LJ
1.319 LW
N
96.013 266.5 M
135.728 266.5 L
S
GR
GS
[0.75843 0 0 0.75866 87.88016 202.37302] CT
0.212 0.322 0.796 RC
10.0 ML
1.319 LW
N
-2.799 -2.799 M
2.799 2.799 L
-2.799 2.799 M
2.799 -2.799 L
S
GR
GS
[0.75843 0 0 0.75866 105.22348 214.13231] CT
/Helvetica 11.875 F
GS
[1 0 0 1 0 0] CT
0 4.5 moveto 
1 -1 scale
(2) t 
GR
GR
GS
[0.75843 0 0 0.75866 0 0.189] CT
0.086 0.533 0.698 RC
1 LJ
1.319 LW
N
96.013 282 M
135.728 282 L
S
GR
GS
[0.75843 0 0 0.75866 87.88016 214.13231] CT
0.086 0.533 0.698 RC
10.0 ML
1.319 LW
N
-2.799 -2.799 M
2.799 2.799 L
-2.799 2.799 M
2.799 -2.799 L
S
GR
GS
[0.75843 0 0 0.75866 105.22348 225.89161] CT
/Helvetica 11.875 F
GS
[1 0 0 1 0 0] CT
0 4.5 moveto 
1 -1 scale
(3) t 
GR
GR
GS
[0.75843 0 0 0.75866 0 0.189] CT
0.224 0.635 0.42 RC
1 LJ
1.319 LW
N
96.013 297.5 M
135.728 297.5 L
S
GR
GS
[0.75843 0 0 0.75866 87.88016 225.89161] CT
0.224 0.635 0.42 RC
10.0 ML
1.319 LW
N
-2.799 -2.799 M
2.799 2.799 L
-2.799 2.799 M
2.799 -2.799 L
S
GR
GS
[0.75843 0 0 0.75866 105.22348 237.6509] CT
/Helvetica 11.875 F
GS
[1 0 0 1 0 0] CT
0 4.5 moveto 
1 -1 scale
(4) t 
GR
GR
GS
[0.75843 0 0 0.75866 0 0.189] CT
0.733 0.584 0.153 RC
1 LJ
1.319 LW
N
96.013 313 M
135.728 313 L
S
GR
GS
[0.75843 0 0 0.75866 87.88016 237.6509] CT
0.733 0.584 0.153 RC
10.0 ML
1.319 LW
N
-2.799 -2.799 M
2.799 2.799 L
-2.799 2.799 M
2.799 -2.799 L
S
GR
GS
[0.75843 0 0 0.75866 105.22348 249.4102] CT
/Helvetica 11.875 F
GS
[1 0 0 1 0 0] CT
0 4.5 moveto 
1 -1 scale
(all, no GMSK) t 
GR
GR
GS
[0.75843 0 0 0.75866 0 0.189] CT
0.78 0.788 0.063 RC
1 LJ
1.319 LW
N
96.013 328.5 M
135.728 328.5 L
S
GR
GS
[0.75843 0 0 0.75866 87.88016 249.4102] CT
0.78 0.788 0.063 RC
10.0 ML
1.319 LW
N
-2.799 -2.799 M
2.799 2.799 L
-2.799 2.799 M
2.799 -2.799 L
S
GR
GS
[0.75843 0 0 0.75866 0 0.189] CT
0.149 GC
10.0 ML
0.66 LW
N
92 338 M
92 226 L
218 226 L
218 338 L
cp
S
GR
%%Trailer
%%Pages: 1
%%EOF
