%!PS-Adobe-3.0 EPSF-3.0
%%Creator: (MATLAB, The Mathworks, Inc. Version 9.7.0.1247435 \(R2019b\) Update 2. Operating System: Linux)
%%Title: ./fig_signal.eps
%%CreationDate: 2020-01-16T16:36:22
%%Pages: (atend)
%%BoundingBox:    23     2   417   293
%%LanguageLevel: 3
%%EndComments
%%BeginProlog
%%BeginResource: procset (Apache XML Graphics Std ProcSet) 1.2 0
%%Version: 1.2 0
%%Copyright: (Copyright 2001-2003,2010 The Apache Software Foundation. License terms: http://www.apache.org/licenses/LICENSE-2.0)
/bd{bind def}bind def
/ld{load def}bd
/GR/grestore ld
/GS/gsave ld
/RM/rmoveto ld
/C/curveto ld
/t/show ld
/L/lineto ld
/ML/setmiterlimit ld
/CT/concat ld
/f/fill ld
/N/newpath ld
/S/stroke ld
/CC/setcmykcolor ld
/A/ashow ld
/cp/closepath ld
/RC/setrgbcolor ld
/LJ/setlinejoin ld
/GC/setgray ld
/LW/setlinewidth ld
/M/moveto ld
/re {4 2 roll M
1 index 0 rlineto
0 exch rlineto
neg 0 rlineto
cp } bd
/_ctm matrix def
/_tm matrix def
/BT { _ctm currentmatrix pop matrix _tm copy pop 0 0 moveto } bd
/ET { _ctm setmatrix } bd
/iTm { _ctm setmatrix _tm concat } bd
/Tm { _tm astore pop iTm 0 0 moveto } bd
/ux 0.0 def
/uy 0.0 def
/F {
  /Tp exch def
  /Tf exch def
  Tf findfont Tp scalefont setfont
  /cf Tf def  /cs Tp def
} bd
/ULS {currentpoint /uy exch def /ux exch def} bd
/ULE {
  /Tcx currentpoint pop def
  gsave
  newpath
  cf findfont cs scalefont dup
  /FontMatrix get 0 get /Ts exch def /FontInfo get dup
  /UnderlinePosition get Ts mul /To exch def
  /UnderlineThickness get Ts mul /Tt exch def
  ux uy To add moveto  Tcx uy To add lineto
  Tt setlinewidth stroke
  grestore
} bd
/OLE {
  /Tcx currentpoint pop def
  gsave
  newpath
  cf findfont cs scalefont dup
  /FontMatrix get 0 get /Ts exch def /FontInfo get dup
  /UnderlinePosition get Ts mul /To exch def
  /UnderlineThickness get Ts mul /Tt exch def
  ux uy To add cs add moveto Tcx uy To add cs add lineto
  Tt setlinewidth stroke
  grestore
} bd
/SOE {
  /Tcx currentpoint pop def
  gsave
  newpath
  cf findfont cs scalefont dup
  /FontMatrix get 0 get /Ts exch def /FontInfo get dup
  /UnderlinePosition get Ts mul /To exch def
  /UnderlineThickness get Ts mul /Tt exch def
  ux uy To add cs 10 mul 26 idiv add moveto Tcx uy To add cs 10 mul 26 idiv add lineto
  Tt setlinewidth stroke
  grestore
} bd
/QT {
/Y22 exch store
/X22 exch store
/Y21 exch store
/X21 exch store
currentpoint
/Y21 load 2 mul add 3 div exch
/X21 load 2 mul add 3 div exch
/X21 load 2 mul /X22 load add 3 div
/Y21 load 2 mul /Y22 load add 3 div
/X22 load /Y22 load curveto
} bd
/SSPD {
dup length /d exch dict def
{
/v exch def
/k exch def
currentpagedevice k known {
/cpdv currentpagedevice k get def
v cpdv ne {
/upd false def
/nullv v type /nulltype eq def
/nullcpdv cpdv type /nulltype eq def
nullv nullcpdv or
{
/upd true def
} {
/sametype v type cpdv type eq def
sametype {
v type /arraytype eq {
/vlen v length def
/cpdvlen cpdv length def
vlen cpdvlen eq {
0 1 vlen 1 sub {
/i exch def
/obj v i get def
/cpdobj cpdv i get def
obj cpdobj ne {
/upd true def
exit
} if
} for
} {
/upd true def
} ifelse
} {
v type /dicttype eq {
v {
/dv exch def
/dk exch def
/cpddv cpdv dk get def
dv cpddv ne {
/upd true def
exit
} if
} forall
} {
/upd true def
} ifelse
} ifelse
} if
} ifelse
upd true eq {
d k v put
} if
} if
} if
} forall
d length 0 gt {
d setpagedevice
} if
} bd
/RE { % /NewFontName [NewEncodingArray] /FontName RE -
  findfont dup length dict begin
  {
    1 index /FID ne
    {def} {pop pop} ifelse
  } forall
  /Encoding exch def
  /FontName 1 index def
  currentdict definefont pop
  end
} bind def
%%EndResource
%%BeginResource: procset (Apache XML Graphics EPS ProcSet) 1.0 0
%%Version: 1.0 0
%%Copyright: (Copyright 2002-2003 The Apache Software Foundation. License terms: http://www.apache.org/licenses/LICENSE-2.0)
/BeginEPSF { %def
/b4_Inc_state save def         % Save state for cleanup
/dict_count countdictstack def % Count objects on dict stack
/op_count count 1 sub def      % Count objects on operand stack
userdict begin                 % Push userdict on dict stack
/showpage { } def              % Redefine showpage, { } = null proc
0 setgray 0 setlinecap         % Prepare graphics state
1 setlinewidth 0 setlinejoin
10 setmiterlimit [ ] 0 setdash newpath
/languagelevel where           % If level not equal to 1 then
{pop languagelevel             % set strokeadjust and
1 ne                           % overprint to their defaults.
{false setstrokeadjust false setoverprint
} if
} if
} bd
/EndEPSF { %def
count op_count sub {pop} repeat            % Clean up stacks
countdictstack dict_count sub {end} repeat
b4_Inc_state restore
} bd
%%EndResource
%FOPBeginFontDict
%%IncludeResource: font Courier-Oblique
%%IncludeResource: font Courier-BoldOblique
%%IncludeResource: font Courier-Bold
%%IncludeResource: font ZapfDingbats
%%IncludeResource: font Symbol
%%IncludeResource: font Helvetica
%%IncludeResource: font Helvetica-Oblique
%%IncludeResource: font Helvetica-Bold
%%IncludeResource: font Helvetica-BoldOblique
%%IncludeResource: font Times-Roman
%%IncludeResource: font Times-Italic
%%IncludeResource: font Times-Bold
%%IncludeResource: font Times-BoldItalic
%%IncludeResource: font Courier
%FOPEndFontDict
%%BeginResource: encoding WinAnsiEncoding
/WinAnsiEncoding [
/.notdef /.notdef /.notdef /.notdef /.notdef
/.notdef /.notdef /.notdef /.notdef /.notdef
/.notdef /.notdef /.notdef /.notdef /.notdef
/.notdef /.notdef /.notdef /.notdef /.notdef
/.notdef /.notdef /.notdef /.notdef /.notdef
/.notdef /.notdef /.notdef /.notdef /.notdef
/.notdef /.notdef /space /exclam /quotedbl
/numbersign /dollar /percent /ampersand /quotesingle
/parenleft /parenright /asterisk /plus /comma
/hyphen /period /slash /zero /one
/two /three /four /five /six
/seven /eight /nine /colon /semicolon
/less /equal /greater /question /at
/A /B /C /D /E
/F /G /H /I /J
/K /L /M /N /O
/P /Q /R /S /T
/U /V /W /X /Y
/Z /bracketleft /backslash /bracketright /asciicircum
/underscore /quoteleft /a /b /c
/d /e /f /g /h
/i /j /k /l /m
/n /o /p /q /r
/s /t /u /v /w
/x /y /z /braceleft /bar
/braceright /asciitilde /bullet /Euro /bullet
/quotesinglbase /florin /quotedblbase /ellipsis /dagger
/daggerdbl /circumflex /perthousand /Scaron /guilsinglleft
/OE /bullet /Zcaron /bullet /bullet
/quoteleft /quoteright /quotedblleft /quotedblright /bullet
/endash /emdash /asciitilde /trademark /scaron
/guilsinglright /oe /bullet /zcaron /Ydieresis
/space /exclamdown /cent /sterling /currency
/yen /brokenbar /section /dieresis /copyright
/ordfeminine /guillemotleft /logicalnot /sfthyphen /registered
/macron /degree /plusminus /twosuperior /threesuperior
/acute /mu /paragraph /middot /cedilla
/onesuperior /ordmasculine /guillemotright /onequarter /onehalf
/threequarters /questiondown /Agrave /Aacute /Acircumflex
/Atilde /Adieresis /Aring /AE /Ccedilla
/Egrave /Eacute /Ecircumflex /Edieresis /Igrave
/Iacute /Icircumflex /Idieresis /Eth /Ntilde
/Ograve /Oacute /Ocircumflex /Otilde /Odieresis
/multiply /Oslash /Ugrave /Uacute /Ucircumflex
/Udieresis /Yacute /Thorn /germandbls /agrave
/aacute /acircumflex /atilde /adieresis /aring
/ae /ccedilla /egrave /eacute /ecircumflex
/edieresis /igrave /iacute /icircumflex /idieresis
/eth /ntilde /ograve /oacute /ocircumflex
/otilde /odieresis /divide /oslash /ugrave
/uacute /ucircumflex /udieresis /yacute /thorn
/ydieresis
] def
%%EndResource
%FOPBeginFontReencode
/Courier-Oblique findfont
dup length dict begin
  {1 index /FID ne {def} {pop pop} ifelse} forall
  /Encoding WinAnsiEncoding def
  currentdict
end
/Courier-Oblique exch definefont pop
/Courier-BoldOblique findfont
dup length dict begin
  {1 index /FID ne {def} {pop pop} ifelse} forall
  /Encoding WinAnsiEncoding def
  currentdict
end
/Courier-BoldOblique exch definefont pop
/Courier-Bold findfont
dup length dict begin
  {1 index /FID ne {def} {pop pop} ifelse} forall
  /Encoding WinAnsiEncoding def
  currentdict
end
/Courier-Bold exch definefont pop
/Helvetica findfont
dup length dict begin
  {1 index /FID ne {def} {pop pop} ifelse} forall
  /Encoding WinAnsiEncoding def
  currentdict
end
/Helvetica exch definefont pop
/Helvetica-Oblique findfont
dup length dict begin
  {1 index /FID ne {def} {pop pop} ifelse} forall
  /Encoding WinAnsiEncoding def
  currentdict
end
/Helvetica-Oblique exch definefont pop
/Helvetica-Bold findfont
dup length dict begin
  {1 index /FID ne {def} {pop pop} ifelse} forall
  /Encoding WinAnsiEncoding def
  currentdict
end
/Helvetica-Bold exch definefont pop
/Helvetica-BoldOblique findfont
dup length dict begin
  {1 index /FID ne {def} {pop pop} ifelse} forall
  /Encoding WinAnsiEncoding def
  currentdict
end
/Helvetica-BoldOblique exch definefont pop
/Times-Roman findfont
dup length dict begin
  {1 index /FID ne {def} {pop pop} ifelse} forall
  /Encoding WinAnsiEncoding def
  currentdict
end
/Times-Roman exch definefont pop
/Times-Italic findfont
dup length dict begin
  {1 index /FID ne {def} {pop pop} ifelse} forall
  /Encoding WinAnsiEncoding def
  currentdict
end
/Times-Italic exch definefont pop
/Times-Bold findfont
dup length dict begin
  {1 index /FID ne {def} {pop pop} ifelse} forall
  /Encoding WinAnsiEncoding def
  currentdict
end
/Times-Bold exch definefont pop
/Times-BoldItalic findfont
dup length dict begin
  {1 index /FID ne {def} {pop pop} ifelse} forall
  /Encoding WinAnsiEncoding def
  currentdict
end
/Times-BoldItalic exch definefont pop
/Courier findfont
dup length dict begin
  {1 index /FID ne {def} {pop pop} ifelse} forall
  /Encoding WinAnsiEncoding def
  currentdict
end
/Courier exch definefont pop
%FOPEndFontReencode
%%EndProlog
%%Page: 1 1
%%PageBoundingBox: 0 0 454 312
%%BeginPageSetup
[1 0 0 -1 0 312] CT
%%EndPageSetup
GS
[0.75843 0 0 0.75866 0 0.189] CT
1 GC
N
0 0 598 411 re
f
GR
GS
[0.75843 0 0 0.75866 0 0.189] CT
1 GC
N
0 0 598 411 re
f
GR
GS
[0.75843 0 0 0.75866 0 0.189] CT
1 GC
N
78 363 M
541 363 L
541 31 L
78 31 L
cp
f
GR
GS
[0.75843 0 0 0.75866 0 0.189] CT
0.873 GC
1 LJ
0.66 LW
N
78 363 M
78 31 L
S
GR
GS
[0.75843 0 0 0.75866 0 0.189] CT
0.873 GC
1 LJ
0.66 LW
N
193.75 363 M
193.75 31 L
S
GR
GS
[0.75843 0 0 0.75866 0 0.189] CT
0.873 GC
1 LJ
0.66 LW
N
309.5 363 M
309.5 31 L
S
GR
GS
[0.75843 0 0 0.75866 0 0.189] CT
0.873 GC
1 LJ
0.66 LW
N
425.25 363 M
425.25 31 L
S
GR
GS
[0.75843 0 0 0.75866 0 0.189] CT
0.873 GC
1 LJ
0.66 LW
N
541 363 M
541 31 L
S
GR
GS
[0.75843 0 0 0.75866 0 0.189] CT
0.873 GC
1 LJ
0.66 LW
N
541 363 M
78 363 L
S
GR
GS
[0.75843 0 0 0.75866 0 0.189] CT
0.873 GC
1 LJ
0.66 LW
N
541 315.571 M
78 315.571 L
S
GR
GS
[0.75843 0 0 0.75866 0 0.189] CT
0.873 GC
1 LJ
0.66 LW
N
541 268.143 M
78 268.143 L
S
GR
GS
[0.75843 0 0 0.75866 0 0.189] CT
0.873 GC
1 LJ
0.66 LW
N
541 220.714 M
78 220.714 L
S
GR
GS
[0.75843 0 0 0.75866 0 0.189] CT
0.873 GC
1 LJ
0.66 LW
N
541 173.286 M
78 173.286 L
S
GR
GS
[0.75843 0 0 0.75866 0 0.189] CT
0.873 GC
1 LJ
0.66 LW
N
541 125.857 M
78 125.857 L
S
GR
GS
[0.75843 0 0 0.75866 0 0.189] CT
0.873 GC
1 LJ
0.66 LW
N
541 78.429 M
78 78.429 L
S
GR
GS
[0.75843 0 0 0.75866 0 0.189] CT
0.873 GC
1 LJ
0.66 LW
N
541 31 M
78 31 L
S
GR
GS
[0.75843 0 0 0.75866 0 0.189] CT
0.149 GC
2 setlinecap
1 LJ
0.66 LW
N
78 363 M
541 363 L
S
GR
GS
[0.75843 0 0 0.75866 0 0.189] CT
0.149 GC
2 setlinecap
1 LJ
0.66 LW
N
78 31 M
541 31 L
S
GR
GS
[0.75843 0 0 0.75866 0 0.189] CT
0.149 GC
2 setlinecap
1 LJ
0.66 LW
N
78 363 M
78 358.37 L
S
GR
GS
[0.75843 0 0 0.75866 0 0.189] CT
0.149 GC
2 setlinecap
1 LJ
0.66 LW
N
193.75 363 M
193.75 358.37 L
S
GR
GS
[0.75843 0 0 0.75866 0 0.189] CT
0.149 GC
2 setlinecap
1 LJ
0.66 LW
N
309.5 363 M
309.5 358.37 L
S
GR
GS
[0.75843 0 0 0.75866 0 0.189] CT
0.149 GC
2 setlinecap
1 LJ
0.66 LW
N
425.25 363 M
425.25 358.37 L
S
GR
GS
[0.75843 0 0 0.75866 0 0.189] CT
0.149 GC
2 setlinecap
1 LJ
0.66 LW
N
541 363 M
541 358.37 L
S
GR
GS
[0.75843 0 0 0.75866 0 0.189] CT
0.149 GC
2 setlinecap
1 LJ
0.66 LW
N
78 31 M
78 35.63 L
S
GR
GS
[0.75843 0 0 0.75866 0 0.189] CT
0.149 GC
2 setlinecap
1 LJ
0.66 LW
N
193.75 31 M
193.75 35.63 L
S
GR
GS
[0.75843 0 0 0.75866 0 0.189] CT
0.149 GC
2 setlinecap
1 LJ
0.66 LW
N
309.5 31 M
309.5 35.63 L
S
GR
GS
[0.75843 0 0 0.75866 0 0.189] CT
0.149 GC
2 setlinecap
1 LJ
0.66 LW
N
425.25 31 M
425.25 35.63 L
S
GR
GS
[0.75843 0 0 0.75866 0 0.189] CT
0.149 GC
2 setlinecap
1 LJ
0.66 LW
N
541 31 M
541 35.63 L
S
GR
GS
[0.75843 0 0 0.75866 59.15782 279.58817] CT
0.149 GC
/Helvetica 13.194 F
GS
[1 0 0 1 0 0] CT
-13 13 moveto 
1 -1 scale
(-0.5) t 
GR
GR
GS
[0.75843 0 0 0.75866 146.94651 279.58817] CT
0.149 GC
/Helvetica 13.194 F
GS
[1 0 0 1 0 0] CT
-17.5 13 moveto 
1 -1 scale
(-0.25) t 
GR
GR
GS
[0.75843 0 0 0.75866 234.73521 279.58817] CT
0.149 GC
/Helvetica 13.194 F
GS
[1 0 0 1 0 0] CT
-4.5 13 moveto 
1 -1 scale
(0) t 
GR
GR
GS
[0.75843 0 0 0.75866 322.5239 279.58817] CT
0.149 GC
/Helvetica 13.194 F
GS
[1 0 0 1 0 0] CT
-15 13 moveto 
1 -1 scale
(0.25) t 
GR
GR
GS
[0.75843 0 0 0.75866 410.31259 279.58817] CT
0.149 GC
/Helvetica 13.194 F
GS
[1 0 0 1 0 0] CT
-10.5 13 moveto 
1 -1 scale
(0.5) t 
GR
GR
GS
[0.75843 0 0 0.75866 226.01322 304.41336] CT
0.149 GC
/Helvetica 14.514 F
GS
[1 0 0 1 0 0] CT
0 0 moveto 
1 -1 scale
(f/f) t 
GR
GR
GS
[0.75843 0 0 0.75866 238.14816 309.72401] CT
0.149 GC
/Helvetica 11.611 F
GS
[1 0 0 1 0 0] CT
0 0 moveto 
1 -1 scale
(s) t 
GR
GR
GS
[0.75843 0 0 0.75866 0 0.189] CT
0.149 GC
2 setlinecap
1 LJ
0.66 LW
N
78 363 M
78 31 L
S
GR
GS
[0.75843 0 0 0.75866 0 0.189] CT
0.149 GC
2 setlinecap
1 LJ
0.66 LW
N
541 363 M
541 31 L
S
GR
GS
[0.75843 0 0 0.75866 0 0.189] CT
0.149 GC
2 setlinecap
1 LJ
0.66 LW
N
78 363 M
82.63 363 L
S
GR
GS
[0.75843 0 0 0.75866 0 0.189] CT
0.149 GC
2 setlinecap
1 LJ
0.66 LW
N
78 315.571 M
82.63 315.571 L
S
GR
GS
[0.75843 0 0 0.75866 0 0.189] CT
0.149 GC
2 setlinecap
1 LJ
0.66 LW
N
78 268.143 M
82.63 268.143 L
S
GR
GS
[0.75843 0 0 0.75866 0 0.189] CT
0.149 GC
2 setlinecap
1 LJ
0.66 LW
N
78 220.714 M
82.63 220.714 L
S
GR
GS
[0.75843 0 0 0.75866 0 0.189] CT
0.149 GC
2 setlinecap
1 LJ
0.66 LW
N
78 173.286 M
82.63 173.286 L
S
GR
GS
[0.75843 0 0 0.75866 0 0.189] CT
0.149 GC
2 setlinecap
1 LJ
0.66 LW
N
78 125.857 M
82.63 125.857 L
S
GR
GS
[0.75843 0 0 0.75866 0 0.189] CT
0.149 GC
2 setlinecap
1 LJ
0.66 LW
N
78 78.429 M
82.63 78.429 L
S
GR
GS
[0.75843 0 0 0.75866 0 0.189] CT
0.149 GC
2 setlinecap
1 LJ
0.66 LW
N
78 31 M
82.63 31 L
S
GR
GS
[0.75843 0 0 0.75866 0 0.189] CT
0.149 GC
2 setlinecap
1 LJ
0.66 LW
N
541 363 M
536.37 363 L
S
GR
GS
[0.75843 0 0 0.75866 0 0.189] CT
0.149 GC
2 setlinecap
1 LJ
0.66 LW
N
541 315.571 M
536.37 315.571 L
S
GR
GS
[0.75843 0 0 0.75866 0 0.189] CT
0.149 GC
2 setlinecap
1 LJ
0.66 LW
N
541 268.143 M
536.37 268.143 L
S
GR
GS
[0.75843 0 0 0.75866 0 0.189] CT
0.149 GC
2 setlinecap
1 LJ
0.66 LW
N
541 220.714 M
536.37 220.714 L
S
GR
GS
[0.75843 0 0 0.75866 0 0.189] CT
0.149 GC
2 setlinecap
1 LJ
0.66 LW
N
541 173.286 M
536.37 173.286 L
S
GR
GS
[0.75843 0 0 0.75866 0 0.189] CT
0.149 GC
2 setlinecap
1 LJ
0.66 LW
N
541 125.857 M
536.37 125.857 L
S
GR
GS
[0.75843 0 0 0.75866 0 0.189] CT
0.149 GC
2 setlinecap
1 LJ
0.66 LW
N
541 78.429 M
536.37 78.429 L
S
GR
GS
[0.75843 0 0 0.75866 0 0.189] CT
0.149 GC
2 setlinecap
1 LJ
0.66 LW
N
541 31 M
536.37 31 L
S
GR
GS
[0.75843 0 0 0.75866 55.15498 275.58412] CT
0.149 GC
/Helvetica 13.194 F
GS
[1 0 0 1 0 0] CT
-22 4.5 moveto 
1 -1 scale
(-70) t 
GR
GR
GS
[0.75843 0 0 0.75866 55.15498 239.60176] CT
0.149 GC
/Helvetica 13.194 F
GS
[1 0 0 1 0 0] CT
-22 4.5 moveto 
1 -1 scale
(-60) t 
GR
GR
GS
[0.75843 0 0 0.75866 55.15498 203.61939] CT
0.149 GC
/Helvetica 13.194 F
GS
[1 0 0 1 0 0] CT
-22 4.5 moveto 
1 -1 scale
(-50) t 
GR
GR
GS
[0.75843 0 0 0.75866 55.15498 167.63703] CT
0.149 GC
/Helvetica 13.194 F
GS
[1 0 0 1 0 0] CT
-22 4.5 moveto 
1 -1 scale
(-40) t 
GR
GR
GS
[0.75843 0 0 0.75866 55.15498 131.65468] CT
0.149 GC
/Helvetica 13.194 F
GS
[1 0 0 1 0 0] CT
-22 4.5 moveto 
1 -1 scale
(-30) t 
GR
GR
GS
[0.75843 0 0 0.75866 55.15498 95.67231] CT
0.149 GC
/Helvetica 13.194 F
GS
[1 0 0 1 0 0] CT
-22 4.5 moveto 
1 -1 scale
(-20) t 
GR
GR
GS
[0.75843 0 0 0.75866 55.15498 59.68995] CT
0.149 GC
/Helvetica 13.194 F
GS
[1 0 0 1 0 0] CT
-22 4.5 moveto 
1 -1 scale
(-10) t 
GR
GR
GS
[0.75843 0 0 0.75866 55.15498 23.70759] CT
0.149 GC
/Helvetica 13.194 F
GS
[1 0 0 1 0 0] CT
-9 4.5 moveto 
1 -1 scale
(0) t 
GR
GR
GS
[0 -0.75866 0.75843 0 35.46731 149.64572] CT
0.149 GC
/Helvetica 14.514 F
GS
[1 0 0 1 0 0] CT
-40 -4 moveto 
1 -1 scale
(Power [dB]) t 
GR
GR
GS
[0.75843 0 0 0.75866 0 0.189] CT
0 0.447 0.741 RC
1 LJ
0.66 LW
N
78 337.942 M
78.452 337.942 L
78.904 337.943 L
79.356 337.943 L
79.809 337.942 L
80.261 337.94 L
80.713 337.939 L
81.165 337.936 L
81.617 337.934 L
82.069 337.931 L
82.521 337.927 L
82.974 337.923 L
83.426 337.919 L
83.878 337.913 L
84.33 337.908 L
84.782 337.902 L
85.234 337.895 L
85.687 337.888 L
86.139 337.881 L
86.591 337.873 L
87.043 337.864 L
87.495 337.855 L
87.947 337.846 L
88.399 337.836 L
88.852 337.826 L
89.304 337.815 L
89.756 337.805 L
90.208 337.793 L
90.66 337.78 L
91.112 337.767 L
91.564 337.755 L
92.017 337.739 L
92.469 337.727 L
92.921 337.712 L
93.373 337.696 L
93.825 337.681 L
94.277 337.665 L
94.729 337.648 L
95.182 337.632 L
95.634 337.613 L
96.086 337.598 L
96.538 337.579 L
96.99 337.563 L
97.442 337.543 L
97.895 337.522 L
98.347 337.5 L
98.799 337.476 L
99.251 337.457 L
99.703 337.436 L
100.155 337.414 L
100.607 337.391 L
101.06 337.369 L
101.512 337.344 L
101.964 337.321 L
102.416 337.295 L
102.868 337.27 L
103.32 337.245 L
103.772 337.217 L
104.225 337.188 L
104.677 337.165 L
105.129 337.135 L
105.581 337.106 L
106.033 337.078 L
106.485 337.049 L
106.938 337.02 L
107.39 336.988 L
107.842 336.958 L
108.294 336.925 L
108.746 336.894 L
109.198 336.864 L
109.65 336.829 L
110.103 336.799 L
110.555 336.766 L
111.007 336.73 L
111.459 336.694 L
111.911 336.659 L
112.363 336.623 L
112.815 336.587 L
113.268 336.551 L
113.72 336.512 L
114.172 336.476 L
114.624 336.436 L
115.076 336.399 L
115.528 336.358 L
115.98 336.319 L
116.433 336.277 L
116.885 336.24 L
117.337 336.197 L
117.789 336.154 L
118.241 336.11 L
118.693 336.067 L
119.146 336.024 L
119.598 335.979 L
120.05 335.937 L
120.502 335.888 L
120.954 335.845 L
121.406 335.796 L
121.858 335.751 L
122.311 335.703 L
122.763 335.654 L
123.215 335.606 L
123.667 335.56 L
124.119 335.508 L
124.571 335.458 L
125.023 335.407 L
125.476 335.356 L
125.928 335.304 L
126.38 335.254 L
126.832 335.197 L
127.284 335.147 L
127.736 335.092 L
128.188 335.036 L
128.641 334.976 L
129.093 334.927 L
129.545 334.866 L
129.997 334.812 L
130.449 334.754 L
130.901 334.695 L
131.354 334.638 L
131.806 334.579 L
132.258 334.519 L
132.71 334.458 L
133.162 334.395 L
133.614 334.332 L
134.066 334.269 L
134.519 334.211 L
134.971 334.148 L
135.423 334.079 L
135.875 334.021 L
136.327 333.951 L
136.779 333.886 L
137.231 333.82 L
137.684 333.752 L
138.136 333.684 L
138.588 333.618 L
139.04 333.546 L
139.492 333.477 L
139.944 333.406 L
140.396 333.34 L
140.849 333.263 L
141.301 333.195 L
141.753 333.117 L
142.205 333.041 L
142.657 332.973 L
143.109 332.897 L
143.562 332.822 L
144.014 332.747 L
144.466 332.669 L
144.918 332.592 L
145.37 332.513 L
145.822 332.433 L
146.274 332.353 L
146.727 332.275 L
147.179 332.194 L
147.631 332.118 L
148.083 332.033 L
148.535 331.949 L
148.987 331.863 L
149.439 331.781 L
149.892 331.697 L
150.344 331.61 L
150.796 331.523 L
151.248 331.436 L
151.7 331.348 L
152.152 331.263 L
152.604 331.171 L
153.057 331.076 L
153.509 330.991 L
153.961 330.899 L
154.413 330.805 L
154.865 330.711 L
155.317 330.62 L
155.77 330.524 L
156.222 330.427 L
156.674 330.332 L
157.126 330.235 L
157.578 330.136 L
158.03 330.037 L
158.482 329.94 L
158.935 329.841 L
159.387 329.735 L
159.839 329.635 L
160.291 329.531 L
160.743 329.435 L
161.195 329.325 L
161.647 329.22 L
162.1 329.115 L
162.552 329.006 L
163.004 328.9 L
163.456 328.79 L
163.908 328.682 L
164.36 328.572 L
164.813 328.461 L
165.265 328.35 L
165.717 328.234 L
166.169 328.122 L
166.621 328.007 L
167.073 327.891 L
167.525 327.775 L
167.978 327.657 L
168.43 327.538 L
168.882 327.419 L
169.334 327.299 L
169.786 327.177 L
170.238 327.055 L
170.69 326.931 L
171.143 326.808 L
171.595 326.682 L
172.047 326.555 L
172.499 326.429 L
172.951 326.3 L
173.403 326.17 L
173.855 326.04 L
174.308 325.909 L
174.76 325.776 L
175.212 325.642 L
175.664 325.507 L
176.116 325.371 L
176.568 325.234 L
177.021 325.1 L
177.473 324.959 L
177.925 324.819 L
178.377 324.673 L
178.829 324.534 L
179.281 324.384 L
179.733 324.246 L
180.186 324.099 L
180.638 323.95 L
181.09 323.803 L
181.542 323.652 L
181.994 323.501 L
182.446 323.348 L
182.898 323.198 L
183.351 323.044 L
183.803 322.888 L
184.255 322.726 L
184.707 322.568 L
185.159 322.402 L
185.611 322.247 L
186.063 322.077 L
186.516 321.912 L
186.968 321.748 L
187.42 321.581 L
187.872 321.413 L
188.324 321.243 L
188.776 321.071 L
189.229 320.899 L
189.681 320.726 L
190.133 320.547 L
190.585 320.37 L
191.037 320.187 L
191.489 320.007 L
191.941 319.82 L
192.394 319.637 L
192.846 319.45 L
193.298 319.264 L
193.75 319.074 L
194.202 318.883 L
194.654 318.686 L
195.106 318.49 L
195.559 318.303 L
196.011 318.097 L
196.463 317.897 L
196.915 317.692 L
197.367 317.491 L
197.819 317.277 L
198.271 317.075 L
198.724 316.859 L
199.176 316.647 L
199.628 316.434 L
200.08 316.217 L
200.532 315.999 L
200.984 315.772 L
201.437 315.553 L
201.889 315.317 L
202.341 315.09 L
202.793 314.86 L
203.245 314.626 L
203.697 314.388 L
204.149 314.148 L
204.602 313.908 L
205.054 313.662 L
205.506 313.414 L
205.958 313.172 L
206.41 312.92 L
206.862 312.645 L
207.314 312.4 L
207.767 312.115 L
208.219 311.865 L
208.671 311.594 L
209.123 311.323 L
209.575 311.045 L
210.027 310.766 L
210.479 310.478 L
210.932 310.198 L
211.384 309.91 L
211.836 309.617 L
212.288 309.314 L
212.74 309.011 L
213.192 308.704 L
213.645 308.397 L
214.097 308.084 L
214.549 307.758 L
215.001 307.436 L
215.453 307.111 L
215.905 306.776 L
216.357 306.42 L
216.81 306.084 L
217.262 305.816 L
217.714 305.431 L
218.166 304.814 L
218.618 304.569 L
219.07 304.066 L
219.522 303.858 L
219.975 303.533 L
220.427 303.294 L
220.879 302.284 L
221.331 301.845 L
221.783 301.277 L
222.235 301.212 L
222.688 299.523 L
223.14 299.498 L
223.592 298.615 L
224.044 296.112 L
224.496 295.13 L
224.948 296.553 L
225.4 295.471 L
225.853 292.751 L
226.305 291.983 L
226.757 289.515 L
227.209 288.541 L
227.661 286.673 L
228.113 283.378 L
228.565 281.085 L
229.018 282.101 L
229.47 280.208 L
229.922 273.85 L
230.374 272.366 L
230.826 273.991 L
231.278 271.132 L
231.73 265.906 L
232.183 261.934 L
232.635 265.139 L
233.087 262.916 L
233.539 259.847 L
233.991 254.973 L
234.443 254.554 L
234.896 254.671 L
235.348 253.614 L
235.8 249.417 L
236.252 246.902 L
236.704 249.147 L
237.156 247.934 L
237.608 244.559 L
238.061 239.727 L
238.513 241.109 L
238.965 239.711 L
239.417 239.008 L
239.869 232.798 L
240.321 230.341 L
240.773 230.271 L
241.226 232.691 L
241.678 224.305 L
242.13 221.953 L
242.582 223.91 L
243.034 223.947 L
243.486 215.139 L
243.938 205.885 L
244.391 205.723 L
244.843 209.668 L
245.295 195.081 L
245.747 170.428 L
246.199 157.955 L
246.651 150.477 L
247.104 152.254 L
247.556 160.999 L
248.008 164.51 L
248.46 159.161 L
248.912 153.091 L
249.364 150.926 L
249.816 156.418 L
250.269 163.843 L
250.721 161.06 L
251.173 151.383 L
251.625 151.488 L
252.077 152.794 L
252.529 162.747 L
252.981 162.941 L
253.434 158.827 L
253.886 152.801 L
254.338 150.466 L
254.79 158.525 L
255.242 161.903 L
255.694 160.347 L
256.146 150.446 L
256.599 151.996 L
257.051 156.012 L
257.503 163.006 L
257.955 162.736 L
258.407 151.945 L
258.859 148.516 L
259.312 153.127 L
259.764 160.984 L
260.216 162.482 L
260.668 155.528 L
261.12 150.99 L
261.572 152.019 L
262.024 159.23 L
262.477 164.703 L
262.929 157.617 L
263.381 151.309 L
263.833 150.351 L
264.285 156.481 L
264.737 165.121 L
265.189 159.362 L
265.642 153.343 L
266.094 151.83 L
266.546 152.231 L
266.998 161.704 L
267.45 162.844 L
267.902 154.477 L
268.354 151.517 L
268.807 150.388 L
269.259 159.655 L
269.711 165.489 L
270.163 159.696 L
270.615 150.339 L
271.067 151.18 L
271.52 154.41 L
271.972 164.299 L
272.424 162.173 L
272.876 153.782 L
273.328 150.101 L
273.78 153.369 L
274.232 160.223 L
274.685 162.003 L
275.137 157.904 L
275.589 148.962 L
276.041 150.665 L
276.493 159.746 L
276.945 164.321 L
277.397 156.939 L
277.85 153.044 L
278.302 150.819 L
278.754 155.263 L
279.206 162.719 L
279.658 165.22 L
280.11 153.252 L
280.563 149.083 L
281.015 151.805 L
281.467 162.098 L
281.919 163.154 L
282.371 154.091 L
282.823 152.278 L
283.275 152.28 L
283.728 158.59 L
284.18 165.126 L
284.632 156.948 L
285.084 150.684 L
285.536 150.66 L
285.988 155.633 L
286.44 161.867 L
286.893 162.875 L
287.345 152.061 L
287.797 151.09 L
288.249 153.295 L
288.701 161.478 L
289.153 163.429 L
289.605 155.584 L
290.058 149.289 L
290.51 150.861 L
290.962 158.577 L
291.414 164.768 L
291.866 157.781 L
292.318 154.567 L
292.771 147.886 L
293.223 154.834 L
293.675 163.877 L
294.127 161.376 L
294.579 154.684 L
295.031 151 L
295.483 151.443 L
295.936 159.461 L
296.388 162.548 L
296.84 158.651 L
297.292 146.876 L
297.744 153.839 L
298.196 160.505 L
298.648 163.724 L
299.101 157.268 L
299.553 150.559 L
300.005 149.658 L
300.457 157.397 L
300.909 161.903 L
301.361 161.971 L
301.813 151.956 L
302.266 151.294 L
302.718 153.145 L
303.17 161.402 L
303.622 163.55 L
304.074 155.233 L
304.526 152.507 L
304.979 152.022 L
305.431 158.63 L
305.883 163.743 L
306.335 158.379 L
306.787 151.203 L
307.239 149.898 L
307.691 156.341 L
308.144 160.524 L
308.596 163.27 L
309.048 153.166 L
309.5 151.878 L
309.952 154.374 L
310.404 160.626 L
310.856 163.454 L
311.309 154.607 L
311.761 151.364 L
312.213 151.867 L
312.665 157.819 L
313.117 164.176 L
313.569 157.452 L
314.021 151.294 L
314.474 152.117 L
314.926 156.185 L
315.378 165.26 L
315.83 165.367 L
316.282 155.931 L
316.734 148.876 L
317.187 153.797 L
317.639 166.526 L
318.091 186.708 L
318.543 206.1 L
318.995 205.568 L
319.447 203.288 L
319.899 211.629 L
320.352 220.242 L
320.804 217.779 L
321.256 215.977 L
321.708 222.174 L
322.16 224.141 L
322.612 222.991 L
323.064 222.668 L
323.517 224.826 L
323.969 225.268 L
324.421 223.597 L
324.873 222.436 L
325.325 223.931 L
325.777 225.193 L
326.229 220.808 L
326.682 216.97 L
327.134 220.622 L
327.586 221.379 L
328.038 211.007 L
328.49 203.059 L
328.942 208.557 L
329.395 205.495 L
329.847 186.086 L
330.299 167.192 L
330.751 152.823 L
331.203 151.273 L
331.655 156.423 L
332.107 162.66 L
332.56 164.466 L
333.012 156.66 L
333.464 150.342 L
333.916 149.555 L
334.368 161.276 L
334.82 163.499 L
335.272 160.297 L
335.725 153.999 L
336.177 148.21 L
336.629 156.202 L
337.081 162.786 L
337.533 160.93 L
337.985 151.351 L
338.438 153.066 L
338.89 153.142 L
339.342 162.798 L
339.794 161.988 L
340.246 153.152 L
340.698 149.86 L
341.15 153.923 L
341.603 156.789 L
342.055 165.433 L
342.507 160.06 L
342.959 151.057 L
343.411 151.438 L
343.863 155.729 L
344.315 162.961 L
344.768 164.019 L
345.22 152.861 L
345.672 149.423 L
346.124 151.953 L
346.576 161.369 L
347.028 164.335 L
347.48 156.785 L
347.933 149.29 L
348.385 152.255 L
348.837 159.074 L
349.289 164.076 L
349.741 157.597 L
350.193 150.415 L
350.646 151.098 L
351.098 157.104 L
351.55 163.707 L
352.002 160.095 L
352.454 155.378 L
352.906 151.267 L
353.358 152.186 L
353.811 159.775 L
354.263 160.237 L
354.715 155.358 L
355.167 150.09 L
355.619 152.028 L
356.071 159.576 L
356.523 165.078 L
356.976 160.174 L
357.428 150.786 L
357.88 148.502 L
358.332 156.594 L
358.784 165.629 L
359.236 161.548 L
359.688 151.347 L
360.141 150.528 L
360.593 154.224 L
361.045 160.914 L
361.497 165.487 L
361.949 155.823 L
362.401 152.18 L
362.854 150.682 L
363.306 159.193 L
363.758 165.831 L
364.21 159.059 L
364.662 149.916 L
365.114 149.149 L
365.566 156.399 L
366.019 161.452 L
366.471 161.806 L
366.923 152.688 L
367.375 149.989 L
367.827 155.4 L
368.279 160.825 L
368.731 163.761 L
369.184 157.198 L
369.636 149.742 L
370.088 152.155 L
370.54 158.431 L
370.992 165.941 L
371.444 159.454 L
371.896 153.31 L
372.349 152.336 L
372.801 156.493 L
373.253 170.827 L
373.705 193.429 L
374.157 210.03 L
374.609 205.827 L
375.062 205.371 L
375.514 217.914 L
375.966 225.65 L
376.418 223.482 L
376.87 218.982 L
377.322 227.654 L
377.774 233.206 L
378.227 233.997 L
378.679 229.058 L
379.131 232.885 L
379.583 242.215 L
380.035 241.657 L
380.487 239.028 L
380.939 238.34 L
381.392 246.109 L
381.844 248.454 L
382.296 247.797 L
382.748 245.338 L
383.2 252.429 L
383.652 252.251 L
384.104 254.718 L
384.557 251.805 L
385.009 255.444 L
385.461 259.387 L
385.913 260.44 L
386.365 260.201 L
386.817 263.896 L
387.27 268.045 L
387.722 269.758 L
388.174 269.579 L
388.626 272.082 L
389.078 276.214 L
389.53 278.589 L
389.982 276.603 L
390.435 278.212 L
390.887 283.327 L
391.339 284.211 L
391.791 288.58 L
392.243 287.799 L
392.695 288.7 L
393.147 291.962 L
393.6 292.827 L
394.052 293.461 L
394.504 294.089 L
394.956 297.142 L
395.408 297.061 L
395.86 297.208 L
396.313 298.193 L
396.765 299.527 L
397.217 300.282 L
397.669 300.541 L
398.121 300.757 L
398.573 301.443 L
399.025 302 L
399.478 302.533 L
399.93 302.968 L
400.382 302.996 L
400.834 303.854 L
401.286 303.943 L
401.738 304.546 L
402.19 304.941 L
402.643 305.296 L
403.095 305.646 L
403.547 305.99 L
403.999 306.333 L
404.451 306.696 L
404.903 307.022 L
405.355 307.353 L
405.808 307.681 L
406.26 308.004 L
406.712 308.317 L
407.164 308.617 L
407.616 308.927 L
408.068 309.251 L
408.521 309.537 L
408.973 309.837 L
409.425 310.133 L
409.877 310.423 L
410.329 310.71 L
410.781 310.989 L
411.233 311.27 L
411.686 311.551 L
412.138 311.821 L
412.59 312.083 L
413.042 312.351 L
413.494 312.627 L
413.946 312.882 L
414.398 313.136 L
414.851 313.39 L
415.303 313.639 L
415.755 313.893 L
416.207 314.136 L
416.659 314.376 L
417.111 314.629 L
417.563 314.86 L
418.016 315.095 L
418.468 315.324 L
418.92 315.557 L
419.372 315.784 L
419.824 316.008 L
420.276 316.231 L
420.729 316.449 L
421.181 316.662 L
421.633 316.886 L
422.085 317.1 L
422.537 317.308 L
422.989 317.518 L
423.441 317.721 L
423.894 317.932 L
424.346 318.126 L
424.798 318.333 L
425.25 318.533 L
425.702 318.728 L
426.154 318.924 L
426.606 319.114 L
427.059 319.305 L
427.511 319.503 L
427.963 319.685 L
428.415 319.87 L
428.867 320.053 L
429.319 320.236 L
429.771 320.418 L
430.224 320.596 L
430.676 320.772 L
431.128 320.951 L
431.58 321.123 L
432.032 321.295 L
432.484 321.466 L
432.937 321.638 L
433.389 321.805 L
433.841 321.975 L
434.293 322.131 L
434.745 322.292 L
435.197 322.469 L
435.649 322.622 L
436.102 322.776 L
436.554 322.937 L
437.006 323.091 L
437.458 323.247 L
437.91 323.4 L
438.362 323.553 L
438.814 323.703 L
439.267 323.855 L
439.719 324.004 L
440.171 324.141 L
440.623 324.297 L
441.075 324.436 L
441.527 324.582 L
441.979 324.724 L
442.432 324.864 L
442.884 325.004 L
443.336 325.142 L
443.788 325.28 L
444.24 325.417 L
444.692 325.55 L
445.145 325.685 L
445.597 325.819 L
446.049 325.952 L
446.501 326.086 L
446.953 326.214 L
447.405 326.335 L
447.857 326.466 L
448.31 326.595 L
448.762 326.719 L
449.214 326.844 L
449.666 326.969 L
450.118 327.091 L
450.57 327.213 L
451.022 327.335 L
451.475 327.452 L
451.927 327.572 L
452.379 327.688 L
452.831 327.81 L
453.283 327.922 L
453.735 328.038 L
454.188 328.147 L
454.64 328.266 L
455.092 328.378 L
455.544 328.488 L
455.996 328.599 L
456.448 328.709 L
456.9 328.817 L
457.353 328.925 L
457.805 329.031 L
458.257 329.142 L
458.709 329.244 L
459.161 329.353 L
459.613 329.452 L
460.065 329.555 L
460.518 329.656 L
460.97 329.761 L
461.422 329.862 L
461.874 329.959 L
462.326 330.059 L
462.778 330.157 L
463.23 330.257 L
463.683 330.35 L
464.135 330.444 L
464.587 330.537 L
465.039 330.633 L
465.491 330.723 L
465.943 330.822 L
466.396 330.913 L
466.848 331.004 L
467.3 331.094 L
467.752 331.182 L
468.204 331.273 L
468.656 331.361 L
469.108 331.449 L
469.561 331.535 L
470.013 331.62 L
470.465 331.707 L
470.917 331.788 L
471.369 331.872 L
471.821 331.959 L
472.273 332.042 L
472.726 332.122 L
473.178 332.205 L
473.63 332.283 L
474.082 332.364 L
474.534 332.443 L
474.986 332.521 L
475.438 332.599 L
475.891 332.676 L
476.343 332.753 L
476.795 332.827 L
477.247 332.902 L
477.699 332.978 L
478.151 333.051 L
478.604 333.125 L
479.056 333.197 L
479.508 333.268 L
479.96 333.34 L
480.412 333.41 L
480.864 333.48 L
481.316 333.549 L
481.769 333.618 L
482.221 333.686 L
482.673 333.754 L
483.125 333.82 L
483.577 333.887 L
484.029 333.951 L
484.481 334.019 L
484.934 334.079 L
485.386 334.147 L
485.838 334.206 L
486.29 334.27 L
486.742 334.331 L
487.194 334.393 L
487.646 334.454 L
488.099 334.515 L
488.551 334.571 L
489.003 334.634 L
489.455 334.694 L
489.907 334.749 L
490.359 334.808 L
490.812 334.862 L
491.264 334.919 L
491.716 334.974 L
492.168 335.031 L
492.62 335.085 L
493.072 335.138 L
493.524 335.191 L
493.977 335.244 L
494.429 335.296 L
494.881 335.349 L
495.333 335.399 L
495.785 335.451 L
496.237 335.498 L
496.689 335.549 L
497.142 335.6 L
497.594 335.646 L
498.046 335.693 L
498.498 335.742 L
498.95 335.788 L
499.402 335.834 L
499.854 335.881 L
500.307 335.925 L
500.759 335.97 L
501.211 336.014 L
501.663 336.056 L
502.115 336.102 L
502.567 336.144 L
503.02 336.185 L
503.472 336.226 L
503.924 336.271 L
504.376 336.309 L
504.828 336.35 L
505.28 336.388 L
505.732 336.427 L
506.185 336.465 L
506.637 336.502 L
507.089 336.538 L
507.541 336.575 L
507.993 336.615 L
508.445 336.651 L
508.897 336.683 L
509.35 336.718 L
509.802 336.753 L
510.254 336.788 L
510.706 336.821 L
511.158 336.853 L
511.61 336.886 L
512.063 336.917 L
512.515 336.949 L
512.967 336.98 L
513.419 337.011 L
513.871 337.038 L
514.323 337.068 L
514.775 337.096 L
515.228 337.127 L
515.68 337.153 L
516.132 337.178 L
516.584 337.21 L
517.036 337.231 L
517.488 337.258 L
517.94 337.283 L
518.393 337.308 L
518.845 337.333 L
519.297 337.357 L
519.749 337.38 L
520.201 337.405 L
520.653 337.427 L
521.105 337.449 L
521.558 337.468 L
522.01 337.486 L
522.462 337.508 L
522.914 337.534 L
523.366 337.547 L
523.818 337.569 L
524.271 337.588 L
524.723 337.607 L
525.175 337.625 L
525.627 337.642 L
526.079 337.659 L
526.531 337.673 L
526.983 337.687 L
527.436 337.703 L
527.888 337.72 L
528.34 337.733 L
528.792 337.747 L
529.244 337.76 L
529.696 337.774 L
530.148 337.786 L
530.601 337.798 L
531.053 337.809 L
531.505 337.82 L
531.957 337.831 L
532.409 337.841 L
532.861 337.85 L
533.313 337.86 L
533.766 337.868 L
534.218 337.876 L
534.67 337.883 L
535.122 337.892 L
535.574 337.898 L
536.026 337.904 L
536.479 337.91 L
536.931 337.915 L
537.383 337.92 L
537.835 337.925 L
538.287 337.928 L
538.739 337.932 L
539.191 337.935 L
539.644 337.937 L
540.096 337.939 L
540.548 337.941 L
S
GR
GS
[0.75843 0 0 0.75866 0 0.189] CT
0.851 0.325 0.098 RC
1 LJ
0.66 LW
N
78 336.096 M
78.452 336.108 L
78.904 336.12 L
79.356 336.132 L
79.809 336.143 L
80.261 336.153 L
80.713 336.164 L
81.165 336.174 L
81.617 336.183 L
82.069 336.192 L
82.521 336.201 L
82.974 336.209 L
83.426 336.217 L
83.878 336.225 L
84.33 336.232 L
84.782 336.239 L
85.234 336.245 L
85.687 336.251 L
86.139 336.257 L
86.591 336.262 L
87.043 336.267 L
87.495 336.272 L
87.947 336.276 L
88.399 336.279 L
88.852 336.283 L
89.304 336.286 L
89.756 336.288 L
90.208 336.29 L
90.66 336.292 L
91.112 336.294 L
91.564 336.295 L
92.017 336.295 L
92.469 336.295 L
92.921 336.295 L
93.373 336.295 L
93.825 336.294 L
94.277 336.292 L
94.729 336.291 L
95.182 336.288 L
95.634 336.286 L
96.086 336.283 L
96.538 336.28 L
96.99 336.276 L
97.442 336.272 L
97.895 336.268 L
98.347 336.263 L
98.799 336.258 L
99.251 336.252 L
99.703 336.246 L
100.155 336.24 L
100.607 336.233 L
101.06 336.226 L
101.512 336.218 L
101.964 336.21 L
102.416 336.202 L
102.868 336.193 L
103.32 336.184 L
103.772 336.174 L
104.225 336.165 L
104.677 336.154 L
105.129 336.144 L
105.581 336.133 L
106.033 336.121 L
106.485 336.109 L
106.938 336.097 L
107.39 336.084 L
107.842 336.071 L
108.294 336.058 L
108.746 336.044 L
109.198 336.03 L
109.65 336.015 L
110.103 336 L
110.555 335.985 L
111.007 335.969 L
111.459 335.953 L
111.911 335.937 L
112.363 335.92 L
112.815 335.902 L
113.268 335.885 L
113.72 335.866 L
114.172 335.848 L
114.624 335.829 L
115.076 335.81 L
115.528 335.79 L
115.98 335.77 L
116.433 335.749 L
116.885 335.728 L
117.337 335.707 L
117.789 335.685 L
118.241 335.663 L
118.693 335.641 L
119.146 335.618 L
119.598 335.594 L
120.05 335.571 L
120.502 335.547 L
120.954 335.522 L
121.406 335.497 L
121.858 335.472 L
122.311 335.446 L
122.763 335.42 L
123.215 335.393 L
123.667 335.367 L
124.119 335.339 L
124.571 335.311 L
125.023 335.283 L
125.476 335.255 L
125.928 335.226 L
126.38 335.196 L
126.832 335.167 L
127.284 335.136 L
127.736 335.106 L
128.188 335.075 L
128.641 335.043 L
129.093 335.011 L
129.545 334.979 L
129.997 334.946 L
130.449 334.913 L
130.901 334.88 L
131.354 334.846 L
131.806 334.812 L
132.258 334.777 L
132.71 334.742 L
133.162 334.706 L
133.614 334.67 L
134.066 334.634 L
134.519 334.597 L
134.971 334.56 L
135.423 334.522 L
135.875 334.484 L
136.327 334.445 L
136.779 334.406 L
137.231 334.367 L
137.684 334.327 L
138.136 334.287 L
138.588 334.246 L
139.04 334.205 L
139.492 334.164 L
139.944 334.122 L
140.396 334.079 L
140.849 334.036 L
141.301 333.993 L
141.753 333.95 L
142.205 333.905 L
142.657 333.861 L
143.109 333.816 L
143.562 333.77 L
144.014 333.725 L
144.466 333.678 L
144.918 333.632 L
145.37 333.584 L
145.822 333.537 L
146.274 333.489 L
146.727 333.44 L
147.179 333.391 L
147.631 333.342 L
148.083 333.292 L
148.535 333.242 L
148.987 333.191 L
149.439 333.14 L
149.892 333.088 L
150.344 333.036 L
150.796 332.983 L
151.248 332.93 L
151.7 332.877 L
152.152 332.823 L
152.604 332.769 L
153.057 332.714 L
153.509 332.658 L
153.961 332.603 L
154.413 332.546 L
154.865 332.49 L
155.317 332.432 L
155.77 332.375 L
156.222 332.317 L
156.674 332.258 L
157.126 332.199 L
157.578 332.14 L
158.03 332.08 L
158.482 332.019 L
158.935 331.958 L
159.387 331.897 L
159.839 331.835 L
160.291 331.772 L
160.743 331.71 L
161.195 331.646 L
161.647 331.582 L
162.1 331.518 L
162.552 331.453 L
163.004 331.388 L
163.456 331.322 L
163.908 331.256 L
164.36 331.189 L
164.813 331.122 L
165.265 331.054 L
165.717 330.986 L
166.169 330.917 L
166.621 330.848 L
167.073 330.778 L
167.525 330.708 L
167.978 330.637 L
168.43 330.565 L
168.882 330.494 L
169.334 330.421 L
169.786 330.348 L
170.238 330.275 L
170.69 330.201 L
171.143 330.127 L
171.595 330.052 L
172.047 329.976 L
172.499 329.9 L
172.951 329.824 L
173.403 329.747 L
173.855 329.669 L
174.308 329.591 L
174.76 329.512 L
175.212 329.433 L
175.664 329.353 L
176.116 329.273 L
176.568 329.192 L
177.021 329.111 L
177.473 329.029 L
177.925 328.946 L
178.377 328.863 L
178.829 328.78 L
179.281 328.696 L
179.733 328.611 L
180.186 328.526 L
180.638 328.44 L
181.09 328.353 L
181.542 328.266 L
181.994 328.179 L
182.446 328.091 L
182.898 328.002 L
183.351 327.913 L
183.803 327.823 L
184.255 327.733 L
184.707 327.641 L
185.159 327.55 L
185.611 327.458 L
186.063 327.365 L
186.516 327.271 L
186.968 327.177 L
187.42 327.083 L
187.872 326.988 L
188.324 326.892 L
188.776 326.795 L
189.229 326.698 L
189.681 326.601 L
190.133 326.502 L
190.585 326.403 L
191.037 326.304 L
191.489 326.204 L
191.941 326.103 L
192.394 326.001 L
192.846 325.899 L
193.298 325.797 L
193.75 325.693 L
194.202 325.589 L
194.654 325.484 L
195.106 325.379 L
195.559 325.273 L
196.011 325.166 L
196.463 325.059 L
196.915 324.951 L
197.367 324.842 L
197.819 324.733 L
198.271 324.623 L
198.724 324.512 L
199.176 324.401 L
199.628 324.289 L
200.08 324.176 L
200.532 324.063 L
200.984 323.949 L
201.437 323.834 L
201.889 323.718 L
202.341 323.602 L
202.793 323.485 L
203.245 323.367 L
203.697 323.249 L
204.149 323.129 L
204.602 323.009 L
205.054 322.889 L
205.506 322.767 L
205.958 322.645 L
206.41 322.522 L
206.862 322.399 L
207.314 322.274 L
207.767 322.149 L
208.219 322.023 L
208.671 321.896 L
209.123 321.769 L
209.575 321.64 L
210.027 321.511 L
210.479 321.381 L
210.932 321.251 L
211.384 321.119 L
211.836 320.987 L
212.288 320.854 L
212.74 320.72 L
213.192 320.585 L
213.645 320.449 L
214.097 320.313 L
214.549 320.176 L
215.001 320.038 L
215.453 319.899 L
215.905 319.759 L
216.357 319.618 L
216.81 319.476 L
217.262 319.334 L
217.714 319.191 L
218.166 319.046 L
218.618 318.901 L
219.07 318.755 L
219.522 318.608 L
219.975 318.46 L
220.427 318.312 L
220.879 318.162 L
221.331 318.011 L
221.783 317.86 L
222.235 317.707 L
222.688 317.554 L
223.14 317.399 L
223.592 317.244 L
224.044 317.087 L
224.496 316.93 L
224.948 316.772 L
225.4 316.612 L
225.853 316.452 L
226.305 316.29 L
226.757 316.128 L
227.209 315.965 L
227.661 315.8 L
228.113 315.634 L
228.565 315.468 L
229.018 315.3 L
229.47 315.131 L
229.922 314.962 L
230.374 314.791 L
230.826 314.619 L
231.278 314.445 L
231.73 314.271 L
232.183 314.096 L
232.635 313.919 L
233.087 313.742 L
233.539 313.563 L
233.991 313.383 L
234.443 313.202 L
234.896 313.019 L
235.348 312.836 L
235.8 312.651 L
236.252 312.465 L
236.704 312.278 L
237.156 312.089 L
237.608 311.899 L
238.061 311.708 L
238.513 311.516 L
238.965 311.323 L
239.417 311.128 L
239.869 310.931 L
240.321 310.734 L
240.773 310.535 L
241.226 310.335 L
241.678 310.133 L
242.13 309.93 L
242.582 309.726 L
243.034 309.52 L
243.486 309.313 L
243.938 309.104 L
244.391 308.894 L
244.843 308.683 L
245.295 308.47 L
245.747 308.255 L
246.199 308.039 L
246.651 307.821 L
247.104 307.602 L
247.556 307.382 L
248.008 307.159 L
248.46 306.936 L
248.912 306.71 L
249.364 306.483 L
249.816 306.254 L
250.269 306.024 L
250.721 305.792 L
251.173 305.558 L
251.625 305.322 L
252.077 305.085 L
252.529 304.846 L
252.981 304.605 L
253.434 304.363 L
253.886 304.118 L
254.338 303.872 L
254.79 303.624 L
255.242 303.374 L
255.694 303.121 L
256.146 302.868 L
256.599 302.612 L
257.051 302.354 L
257.503 302.094 L
257.955 301.832 L
258.407 301.568 L
258.859 301.302 L
259.312 301.034 L
259.764 300.763 L
260.216 300.491 L
260.668 300.216 L
261.12 299.939 L
261.572 299.66 L
262.024 299.378 L
262.477 299.094 L
262.929 298.808 L
263.381 298.519 L
263.833 298.228 L
264.285 297.935 L
264.737 297.639 L
265.189 297.34 L
265.642 297.039 L
266.094 296.735 L
266.546 296.429 L
266.998 296.12 L
267.45 295.808 L
267.902 295.493 L
268.354 295.176 L
268.807 294.856 L
269.259 294.533 L
269.711 294.206 L
270.163 293.877 L
270.615 293.545 L
271.067 293.21 L
271.52 292.872 L
271.972 292.53 L
272.424 292.185 L
272.876 291.837 L
273.328 291.486 L
273.78 291.131 L
274.232 290.773 L
274.685 290.411 L
275.137 290.045 L
275.589 289.676 L
276.041 289.303 L
276.493 288.927 L
276.945 288.546 L
277.397 288.161 L
277.85 287.773 L
278.302 287.38 L
278.754 286.984 L
279.206 286.583 L
279.658 286.177 L
280.11 285.768 L
280.563 285.353 L
281.015 284.934 L
281.467 284.511 L
281.919 284.082 L
282.371 283.649 L
282.823 283.211 L
283.275 282.768 L
283.728 282.319 L
284.18 281.865 L
284.632 281.406 L
285.084 280.941 L
285.536 280.47 L
285.988 279.994 L
286.44 279.511 L
286.893 279.023 L
287.345 278.528 L
287.797 278.027 L
288.249 277.519 L
288.701 277.004 L
289.153 276.483 L
289.605 275.954 L
290.058 275.419 L
290.51 274.875 L
290.962 274.324 L
291.414 273.766 L
291.866 273.199 L
292.318 272.624 L
292.771 272.04 L
293.223 271.448 L
293.675 270.846 L
294.127 270.235 L
294.579 269.615 L
295.031 268.985 L
295.483 268.344 L
295.936 267.693 L
296.388 267.031 L
296.84 266.358 L
297.292 265.674 L
297.744 264.977 L
298.196 264.268 L
298.648 263.546 L
299.101 262.811 L
299.553 262.062 L
300.005 261.299 L
300.457 260.521 L
300.909 259.728 L
301.361 258.918 L
301.813 258.092 L
302.266 257.249 L
302.718 256.388 L
303.17 255.508 L
303.622 254.608 L
304.074 253.688 L
304.526 252.746 L
304.979 251.782 L
305.431 250.794 L
305.883 249.782 L
306.335 248.743 L
306.787 247.678 L
307.239 246.583 L
307.691 245.459 L
308.144 244.302 L
308.596 243.111 L
309.048 241.885 L
309.5 240.62 L
309.952 239.315 L
310.404 237.967 L
310.856 236.572 L
311.309 235.128 L
311.761 233.631 L
312.213 232.077 L
312.665 230.462 L
313.117 228.779 L
313.569 227.025 L
314.021 225.192 L
314.474 223.272 L
314.926 221.258 L
315.378 219.139 L
315.83 216.905 L
316.282 214.541 L
316.734 212.031 L
317.187 209.357 L
317.639 206.495 L
318.091 203.416 L
318.543 200.085 L
318.995 196.456 L
319.447 192.47 L
319.899 188.046 L
320.352 183.077 L
320.804 177.397 L
321.256 170.77 L
321.708 162.773 L
322.16 152.637 L
322.612 138.141 L
323.064 103.907 L
323.517 69.358 L
323.969 51.276 L
324.421 68.87 L
324.873 101.208 L
325.325 136.993 L
325.777 151.524 L
326.229 162.034 L
326.682 170.169 L
327.134 176.881 L
327.586 182.626 L
328.038 187.646 L
328.49 192.11 L
328.942 196.13 L
329.395 199.786 L
329.847 203.14 L
330.299 206.239 L
330.751 209.118 L
331.203 211.807 L
331.655 214.33 L
332.107 216.706 L
332.56 218.951 L
333.012 221.079 L
333.464 223.102 L
333.916 225.029 L
334.368 226.869 L
334.82 228.63 L
335.272 230.318 L
335.725 231.939 L
336.177 233.499 L
336.629 235 L
337.081 236.449 L
337.533 237.848 L
337.985 239.2 L
338.438 240.509 L
338.89 241.777 L
339.342 243.006 L
339.794 244.2 L
340.246 245.36 L
340.698 246.487 L
341.15 247.584 L
341.603 248.652 L
342.055 249.693 L
342.507 250.707 L
342.959 251.697 L
343.411 252.663 L
343.863 253.607 L
344.315 254.529 L
344.768 255.43 L
345.22 256.312 L
345.672 257.175 L
346.124 258.02 L
346.576 258.847 L
347.028 259.658 L
347.48 260.453 L
347.933 261.232 L
348.385 261.996 L
348.837 262.747 L
349.289 263.483 L
349.741 264.206 L
350.193 264.916 L
350.646 265.613 L
351.098 266.299 L
351.55 266.973 L
352.002 267.636 L
352.454 268.288 L
352.906 268.929 L
353.358 269.561 L
353.811 270.182 L
354.263 270.793 L
354.715 271.396 L
355.167 271.989 L
355.619 272.573 L
356.071 273.149 L
356.523 273.717 L
356.976 274.276 L
357.428 274.828 L
357.88 275.372 L
358.332 275.908 L
358.784 276.437 L
359.236 276.959 L
359.688 277.474 L
360.141 277.983 L
360.593 278.485 L
361.045 278.98 L
361.497 279.469 L
361.949 279.952 L
362.401 280.429 L
362.854 280.9 L
363.306 281.365 L
363.758 281.825 L
364.21 282.28 L
364.662 282.729 L
365.114 283.173 L
365.566 283.611 L
366.019 284.045 L
366.471 284.474 L
366.923 284.898 L
367.375 285.317 L
367.827 285.732 L
368.279 286.142 L
368.731 286.548 L
369.184 286.949 L
369.636 287.346 L
370.088 287.739 L
370.54 288.128 L
370.992 288.513 L
371.444 288.894 L
371.896 289.271 L
372.349 289.644 L
372.801 290.013 L
373.253 290.379 L
373.705 290.741 L
374.157 291.1 L
374.609 291.455 L
375.062 291.807 L
375.514 292.155 L
375.966 292.5 L
376.418 292.842 L
376.87 293.181 L
377.322 293.516 L
377.774 293.849 L
378.227 294.178 L
378.679 294.504 L
379.131 294.828 L
379.583 295.148 L
380.035 295.466 L
380.487 295.781 L
380.939 296.093 L
381.392 296.402 L
381.844 296.709 L
382.296 297.013 L
382.748 297.314 L
383.2 297.613 L
383.652 297.909 L
384.104 298.203 L
384.557 298.494 L
385.009 298.783 L
385.461 299.069 L
385.913 299.353 L
386.365 299.635 L
386.817 299.915 L
387.27 300.192 L
387.722 300.467 L
388.174 300.74 L
388.626 301.01 L
389.078 301.279 L
389.53 301.545 L
389.982 301.809 L
390.435 302.071 L
390.887 302.331 L
391.339 302.589 L
391.791 302.845 L
392.243 303.099 L
392.695 303.352 L
393.147 303.602 L
393.6 303.85 L
394.052 304.097 L
394.504 304.341 L
394.956 304.584 L
395.408 304.825 L
395.86 305.064 L
396.313 305.302 L
396.765 305.537 L
397.217 305.771 L
397.669 306.004 L
398.121 306.234 L
398.573 306.463 L
399.025 306.69 L
399.478 306.916 L
399.93 307.14 L
400.382 307.362 L
400.834 307.583 L
401.286 307.802 L
401.738 308.02 L
402.19 308.236 L
402.643 308.451 L
403.095 308.664 L
403.547 308.876 L
403.999 309.086 L
404.451 309.295 L
404.903 309.502 L
405.355 309.708 L
405.808 309.913 L
406.26 310.116 L
406.712 310.317 L
407.164 310.518 L
407.616 310.717 L
408.068 310.914 L
408.521 311.111 L
408.973 311.306 L
409.425 311.499 L
409.877 311.692 L
410.329 311.883 L
410.781 312.073 L
411.233 312.261 L
411.686 312.449 L
412.138 312.635 L
412.59 312.82 L
413.042 313.003 L
413.494 313.186 L
413.946 313.367 L
414.398 313.547 L
414.851 313.726 L
415.303 313.904 L
415.755 314.081 L
416.207 314.256 L
416.659 314.43 L
417.111 314.604 L
417.563 314.776 L
418.016 314.947 L
418.468 315.117 L
418.92 315.286 L
419.372 315.453 L
419.824 315.62 L
420.276 315.786 L
420.729 315.95 L
421.181 316.114 L
421.633 316.276 L
422.085 316.438 L
422.537 316.598 L
422.989 316.758 L
423.441 316.916 L
423.894 317.074 L
424.346 317.23 L
424.798 317.386 L
425.25 317.54 L
425.702 317.694 L
426.154 317.846 L
426.606 317.998 L
427.059 318.149 L
427.511 318.299 L
427.963 318.447 L
428.415 318.595 L
428.867 318.742 L
429.319 318.889 L
429.771 319.034 L
430.224 319.178 L
430.676 319.322 L
431.128 319.464 L
431.58 319.606 L
432.032 319.746 L
432.484 319.886 L
432.937 320.025 L
433.389 320.164 L
433.841 320.301 L
434.293 320.438 L
434.745 320.573 L
435.197 320.708 L
435.649 320.842 L
436.102 320.975 L
436.554 321.108 L
437.006 321.239 L
437.458 321.37 L
437.91 321.5 L
438.362 321.629 L
438.814 321.758 L
439.267 321.885 L
439.719 322.012 L
440.171 322.138 L
440.623 322.263 L
441.075 322.388 L
441.527 322.512 L
441.979 322.634 L
442.432 322.757 L
442.884 322.878 L
443.336 322.999 L
443.788 323.119 L
444.24 323.238 L
444.692 323.357 L
445.145 323.475 L
445.597 323.592 L
446.049 323.708 L
446.501 323.824 L
446.953 323.939 L
447.405 324.053 L
447.857 324.166 L
448.31 324.279 L
448.762 324.391 L
449.214 324.503 L
449.666 324.614 L
450.118 324.724 L
450.57 324.833 L
451.022 324.942 L
451.475 325.05 L
451.927 325.157 L
452.379 325.264 L
452.831 325.37 L
453.283 325.475 L
453.735 325.58 L
454.188 325.684 L
454.64 325.788 L
455.092 325.89 L
455.544 325.992 L
455.996 326.094 L
456.448 326.195 L
456.9 326.295 L
457.353 326.395 L
457.805 326.494 L
458.257 326.592 L
458.709 326.69 L
459.161 326.787 L
459.613 326.883 L
460.065 326.979 L
460.518 327.075 L
460.97 327.169 L
461.422 327.263 L
461.874 327.357 L
462.326 327.45 L
462.778 327.542 L
463.23 327.634 L
463.683 327.725 L
464.135 327.815 L
464.587 327.905 L
465.039 327.994 L
465.491 328.083 L
465.943 328.171 L
466.396 328.259 L
466.848 328.346 L
467.3 328.432 L
467.752 328.518 L
468.204 328.604 L
468.656 328.688 L
469.108 328.773 L
469.561 328.856 L
470.013 328.939 L
470.465 329.022 L
470.917 329.104 L
471.369 329.185 L
471.821 329.266 L
472.273 329.346 L
472.726 329.426 L
473.178 329.505 L
473.63 329.584 L
474.082 329.662 L
474.534 329.74 L
474.986 329.817 L
475.438 329.894 L
475.891 329.97 L
476.343 330.045 L
476.795 330.12 L
477.247 330.195 L
477.699 330.269 L
478.151 330.342 L
478.604 330.415 L
479.056 330.487 L
479.508 330.559 L
479.96 330.631 L
480.412 330.701 L
480.864 330.772 L
481.316 330.842 L
481.769 330.911 L
482.221 330.98 L
482.673 331.048 L
483.125 331.116 L
483.577 331.183 L
484.029 331.25 L
484.481 331.316 L
484.934 331.382 L
485.386 331.448 L
485.838 331.512 L
486.29 331.577 L
486.742 331.641 L
487.194 331.704 L
487.646 331.767 L
488.099 331.829 L
488.551 331.891 L
489.003 331.953 L
489.455 332.014 L
489.907 332.074 L
490.359 332.134 L
490.812 332.194 L
491.264 332.253 L
491.716 332.312 L
492.168 332.37 L
492.62 332.428 L
493.072 332.485 L
493.524 332.541 L
493.977 332.598 L
494.429 332.654 L
494.881 332.709 L
495.333 332.764 L
495.785 332.818 L
496.237 332.872 L
496.689 332.926 L
497.142 332.979 L
497.594 333.031 L
498.046 333.083 L
498.498 333.135 L
498.95 333.186 L
499.402 333.237 L
499.854 333.288 L
500.307 333.337 L
500.759 333.387 L
501.211 333.436 L
501.663 333.484 L
502.115 333.533 L
502.567 333.58 L
503.02 333.627 L
503.472 333.674 L
503.924 333.721 L
504.376 333.766 L
504.828 333.812 L
505.28 333.857 L
505.732 333.902 L
506.185 333.946 L
506.637 333.989 L
507.089 334.033 L
507.541 334.076 L
507.993 334.118 L
508.445 334.16 L
508.897 334.202 L
509.35 334.243 L
509.802 334.283 L
510.254 334.324 L
510.706 334.363 L
511.158 334.403 L
511.61 334.442 L
512.063 334.48 L
512.515 334.519 L
512.967 334.556 L
513.419 334.594 L
513.871 334.63 L
514.323 334.667 L
514.775 334.703 L
515.228 334.739 L
515.68 334.774 L
516.132 334.809 L
516.584 334.843 L
517.036 334.877 L
517.488 334.91 L
517.94 334.944 L
518.393 334.976 L
518.845 335.009 L
519.297 335.04 L
519.749 335.072 L
520.201 335.103 L
520.653 335.134 L
521.105 335.164 L
521.558 335.194 L
522.01 335.223 L
522.462 335.252 L
522.914 335.281 L
523.366 335.309 L
523.818 335.337 L
524.271 335.364 L
524.723 335.391 L
525.175 335.418 L
525.627 335.444 L
526.079 335.47 L
526.531 335.495 L
526.983 335.52 L
527.436 335.544 L
527.888 335.569 L
528.34 335.592 L
528.792 335.616 L
529.244 335.639 L
529.696 335.661 L
530.148 335.683 L
530.601 335.705 L
531.053 335.726 L
531.505 335.747 L
531.957 335.768 L
532.409 335.788 L
532.861 335.808 L
533.313 335.827 L
533.766 335.846 L
534.218 335.865 L
534.67 335.883 L
535.122 335.901 L
535.574 335.918 L
536.026 335.935 L
536.479 335.952 L
536.931 335.968 L
537.383 335.984 L
537.835 335.999 L
538.287 336.014 L
538.739 336.029 L
539.191 336.043 L
539.644 336.057 L
540.096 336.07 L
540.548 336.083 L
S
GR
GS
[0.75843 0 0 0.75866 0 0.189] CT
0.929 0.694 0.125 RC
1 LJ
0.66 LW
N
78 180.956 M
78.452 179.15 L
78.904 181.113 L
79.356 177.918 L
79.809 179.369 L
80.261 180.576 L
80.713 179.077 L
81.165 179.407 L
81.617 177.968 L
82.069 181.072 L
82.521 178.092 L
82.974 177.555 L
83.426 178.184 L
83.878 177.938 L
84.33 177.266 L
84.782 179.17 L
85.234 178.83 L
85.687 180.596 L
86.139 178.713 L
86.591 179.911 L
87.043 178.298 L
87.495 179.281 L
87.947 177.245 L
88.399 178.221 L
88.852 177.893 L
89.304 179.986 L
89.756 179.9 L
90.208 180.105 L
90.66 180.112 L
91.112 177.498 L
91.564 179.135 L
92.017 175.44 L
92.469 179.922 L
92.921 178.819 L
93.373 181.714 L
93.825 178.514 L
94.277 178.885 L
94.729 179.1 L
95.182 178.68 L
95.634 178.493 L
96.086 178.576 L
96.538 178.122 L
96.99 179.525 L
97.442 178.535 L
97.895 178.925 L
98.347 177.741 L
98.799 178.135 L
99.251 177.129 L
99.703 174.643 L
100.155 179.27 L
100.607 180.908 L
101.06 178.602 L
101.512 181.056 L
101.964 178.748 L
102.416 177.283 L
102.868 179.736 L
103.32 177.858 L
103.772 176.949 L
104.225 179.696 L
104.677 178.579 L
105.129 180.794 L
105.581 178.16 L
106.033 177.747 L
106.485 177.339 L
106.938 176.571 L
107.39 181.937 L
107.842 178.654 L
108.294 180.059 L
108.746 178.578 L
109.198 180.338 L
109.65 178.892 L
110.103 177.537 L
110.555 180.124 L
111.007 178.872 L
111.459 179.667 L
111.911 176.005 L
112.363 180.801 L
112.815 178.528 L
113.268 180.817 L
113.72 178.31 L
114.172 180.082 L
114.624 177.697 L
115.076 179.421 L
115.528 179.238 L
115.98 179.783 L
116.433 177.982 L
116.885 177.372 L
117.337 178.819 L
117.789 177.403 L
118.241 180.179 L
118.693 176.908 L
119.146 178.777 L
119.598 179.268 L
120.05 178.767 L
120.502 179.632 L
120.954 176.18 L
121.406 178.775 L
121.858 179.67 L
122.311 179.125 L
122.763 176.051 L
123.215 181.489 L
123.667 178.323 L
124.119 178.474 L
124.571 179.028 L
125.023 178.545 L
125.476 178.224 L
125.928 179.119 L
126.38 180.152 L
126.832 178.688 L
127.284 178.036 L
127.736 177.352 L
128.188 178.074 L
128.641 180.11 L
129.093 177.256 L
129.545 178.857 L
129.997 177.066 L
130.449 176.96 L
130.901 180.389 L
131.354 177.592 L
131.806 179.223 L
132.258 179.579 L
132.71 178.979 L
133.162 179.019 L
133.614 178.861 L
134.066 176.879 L
134.519 177.448 L
134.971 181.374 L
135.423 179.96 L
135.875 178.755 L
136.327 179.62 L
136.779 177.7 L
137.231 178.094 L
137.684 180.174 L
138.136 179.236 L
138.588 179.871 L
139.04 178.766 L
139.492 177.879 L
139.944 177.812 L
140.396 179.124 L
140.849 179.14 L
141.301 176.583 L
141.753 177.762 L
142.205 177.27 L
142.657 179.062 L
143.109 179.01 L
143.562 179.216 L
144.014 178.773 L
144.466 177.317 L
144.918 177.446 L
145.37 178.019 L
145.822 179.598 L
146.274 179.634 L
146.727 178.026 L
147.179 176.216 L
147.631 179.137 L
148.083 176.924 L
148.535 179.615 L
148.987 177.658 L
149.439 181.361 L
149.892 179.856 L
150.344 178.393 L
150.796 178.192 L
151.248 178.002 L
151.7 179.456 L
152.152 179.567 L
152.604 177.454 L
153.057 174.673 L
153.509 178.695 L
153.961 178.808 L
154.413 179.272 L
154.865 178.612 L
155.317 179.285 L
155.77 179.125 L
156.222 178.478 L
156.674 178.92 L
157.126 178.875 L
157.578 178.141 L
158.03 179.374 L
158.482 176.907 L
158.935 177.373 L
159.387 179.444 L
159.839 179.506 L
160.291 177.756 L
160.743 178.924 L
161.195 178.645 L
161.647 178.015 L
162.1 177.446 L
162.552 178.341 L
163.004 179.068 L
163.456 179.15 L
163.908 179.901 L
164.36 181.439 L
164.813 179.274 L
165.265 178.669 L
165.717 176.965 L
166.169 179.118 L
166.621 179.195 L
167.073 178.64 L
167.525 182.554 L
167.978 182.234 L
168.43 179.345 L
168.882 177.531 L
169.334 179.368 L
169.786 180.671 L
170.238 181.793 L
170.69 176.587 L
171.143 179.278 L
171.595 180.016 L
172.047 177.244 L
172.499 180.089 L
172.951 177.414 L
173.403 179.091 L
173.855 177.978 L
174.308 180.241 L
174.76 178.18 L
175.212 177.864 L
175.664 177.488 L
176.116 179.376 L
176.568 179.611 L
177.021 178.559 L
177.473 175.944 L
177.925 178.784 L
178.377 179.06 L
178.829 178.349 L
179.281 180.657 L
179.733 177.294 L
180.186 177.209 L
180.638 178.002 L
181.09 177.917 L
181.542 177.924 L
181.994 180.477 L
182.446 178.133 L
182.898 177.674 L
183.351 179.163 L
183.803 178.925 L
184.255 177.907 L
184.707 178.276 L
185.159 178.753 L
185.611 177.944 L
186.063 179.31 L
186.516 179.921 L
186.968 178.711 L
187.42 175.845 L
187.872 177.663 L
188.324 176.951 L
188.776 178.019 L
189.229 180.292 L
189.681 177.773 L
190.133 179.025 L
190.585 180.056 L
191.037 179.324 L
191.489 178.378 L
191.941 178.23 L
192.394 178.903 L
192.846 178.038 L
193.298 176.407 L
193.75 177.801 L
194.202 180.267 L
194.654 179.87 L
195.106 178.434 L
195.559 179.161 L
196.011 177.806 L
196.463 177.899 L
196.915 177.867 L
197.367 178.989 L
197.819 177.402 L
198.271 177.949 L
198.724 179.58 L
199.176 179.188 L
199.628 181.673 L
200.08 177.824 L
200.532 180.042 L
200.984 181.578 L
201.437 182.019 L
201.889 177.95 L
202.341 182.158 L
202.793 177.345 L
203.245 178.869 L
203.697 178.563 L
204.149 178.247 L
204.602 179.616 L
205.054 177.624 L
205.506 181.028 L
205.958 177.942 L
206.41 176.6 L
206.862 179.62 L
207.314 178.706 L
207.767 178.346 L
208.219 176.979 L
208.671 179.847 L
209.123 180.096 L
209.575 178.846 L
210.027 177.313 L
210.479 176.998 L
210.932 179.662 L
211.384 180.369 L
211.836 182.142 L
212.288 177.359 L
212.74 177.849 L
213.192 180.473 L
213.645 178.11 L
214.097 180.256 L
214.549 178.766 L
215.001 179.197 L
215.453 178.073 L
215.905 176.805 L
216.357 179.267 L
216.81 178.83 L
217.262 178.586 L
217.714 178.751 L
218.166 178.796 L
218.618 178.499 L
219.07 181.256 L
219.522 179.707 L
219.975 178.347 L
220.427 179.408 L
220.879 180.877 L
221.331 177.034 L
221.783 180.776 L
222.235 176.649 L
222.688 181.122 L
223.14 182.458 L
223.592 179.322 L
224.044 177.323 L
224.496 176.945 L
224.948 179.411 L
225.4 178.353 L
225.853 179.848 L
226.305 177.913 L
226.757 178.684 L
227.209 177.282 L
227.661 177.541 L
228.113 178.847 L
228.565 177.685 L
229.018 179.114 L
229.47 177.498 L
229.922 178.783 L
230.374 177.666 L
230.826 179.151 L
231.278 178.454 L
231.73 177.37 L
232.183 178.148 L
232.635 177.287 L
233.087 174.807 L
233.539 177.62 L
233.991 179.006 L
234.443 178.788 L
234.896 176.207 L
235.348 182.082 L
235.8 176.647 L
236.252 178.204 L
236.704 176.282 L
237.156 179.042 L
237.608 178.695 L
238.061 179.93 L
238.513 178.185 L
238.965 177.682 L
239.417 176.419 L
239.869 178.062 L
240.321 177.134 L
240.773 176.682 L
241.226 177.69 L
241.678 178.239 L
242.13 177.417 L
242.582 174.785 L
243.034 177.48 L
243.486 173.448 L
243.938 171.369 L
244.391 173.88 L
244.843 174.666 L
245.295 170.715 L
245.747 160.442 L
246.199 153.714 L
246.651 145.072 L
247.104 147.156 L
247.556 153.538 L
248.008 156.729 L
248.46 154.089 L
248.912 148.547 L
249.364 145.078 L
249.816 151.179 L
250.269 154.018 L
250.721 152.666 L
251.173 146.593 L
251.625 146.435 L
252.077 148.948 L
252.529 155.133 L
252.981 154.883 L
253.434 150.981 L
253.886 147.678 L
254.338 147.007 L
254.79 154.639 L
255.242 154.925 L
255.694 153.752 L
256.146 143.856 L
256.599 147.798 L
257.051 149.89 L
257.503 154.306 L
257.955 155.463 L
258.407 146.424 L
258.859 143.815 L
259.312 147.902 L
259.764 153.685 L
260.216 154.917 L
260.668 148.958 L
261.12 146.107 L
261.572 146.524 L
262.024 151.328 L
262.477 155.917 L
262.929 151.451 L
263.381 146.023 L
263.833 145.993 L
264.285 150.42 L
264.737 156.147 L
265.189 154.088 L
265.642 149.38 L
266.094 146.544 L
266.546 145.398 L
266.998 153.84 L
267.45 156.114 L
267.902 150.579 L
268.354 145.313 L
268.807 146.534 L
269.259 154.802 L
269.711 157.509 L
270.163 152.461 L
270.615 145.929 L
271.067 145.081 L
271.52 147.661 L
271.972 156.435 L
272.424 154.211 L
272.876 148.396 L
273.328 146.829 L
273.78 149.311 L
274.232 153.851 L
274.685 154.043 L
275.137 152.648 L
275.589 143.784 L
276.041 145.868 L
276.493 154.194 L
276.945 154.827 L
277.397 149.909 L
277.85 147.987 L
278.302 146.146 L
278.754 149.486 L
279.206 155.118 L
279.658 157.5 L
280.11 147.109 L
280.563 145.069 L
281.015 146.256 L
281.467 153.023 L
281.919 154.268 L
282.371 149.429 L
282.823 146.503 L
283.275 146.854 L
283.728 151.002 L
284.18 157.751 L
284.632 151.062 L
285.084 145.22 L
285.536 145.974 L
285.988 148.192 L
286.44 152.722 L
286.893 154.913 L
287.345 146.329 L
287.797 147.001 L
288.249 148.77 L
288.701 151.795 L
289.153 153.729 L
289.605 150.15 L
290.058 142.973 L
290.51 145.567 L
290.962 151.666 L
291.414 156.063 L
291.866 151.183 L
292.318 148.995 L
292.771 145.445 L
293.223 149.54 L
293.675 156.087 L
294.127 154.393 L
294.579 148.988 L
295.031 145.401 L
295.483 147.191 L
295.936 152.859 L
296.388 155.992 L
296.84 152.872 L
297.292 143.094 L
297.744 148.81 L
298.196 153.037 L
298.648 156.046 L
299.101 152.236 L
299.553 146.697 L
300.005 145.54 L
300.457 151.813 L
300.909 153.747 L
301.361 154.541 L
301.813 147.334 L
302.266 147.428 L
302.718 148.984 L
303.17 155.425 L
303.622 156.339 L
304.074 149.287 L
304.526 147.401 L
304.979 147.41 L
305.431 153.533 L
305.883 156.004 L
306.335 153.11 L
306.787 146.581 L
307.239 145.917 L
307.691 150.648 L
308.144 152.453 L
308.596 156.394 L
309.048 148.585 L
309.5 147.987 L
309.952 149.646 L
310.404 153.817 L
310.856 156.58 L
311.309 149.029 L
311.761 145.544 L
312.213 145.773 L
312.665 152.4 L
313.117 155.185 L
313.569 149.777 L
314.021 145.761 L
314.474 147.342 L
314.926 151.116 L
315.378 156.835 L
315.83 158.902 L
316.282 152.093 L
316.734 142.794 L
317.187 146.164 L
317.639 154.331 L
318.091 164.278 L
318.543 168.413 L
318.995 166.063 L
319.447 164.178 L
319.899 165.516 L
320.352 166.518 L
320.804 162.492 L
321.256 158.776 L
321.708 154.392 L
322.16 146.369 L
322.612 134.931 L
323.064 104.193 L
323.517 69.053 L
323.969 51.299 L
324.421 68.75 L
324.873 100.578 L
325.325 134.026 L
325.777 144.909 L
326.229 153.188 L
326.682 157.93 L
327.134 161.121 L
327.586 166.372 L
328.038 168.537 L
328.49 166.957 L
328.942 168.551 L
329.395 164.936 L
329.847 165.03 L
330.299 156.316 L
330.751 146.674 L
331.203 146.324 L
331.655 148.539 L
332.107 153.521 L
332.56 156.33 L
333.012 150.237 L
333.464 145.716 L
333.916 145.389 L
334.368 154.317 L
334.82 154.867 L
335.272 153.353 L
335.725 146.593 L
336.177 143.692 L
336.629 149.156 L
337.081 156.326 L
337.533 153.353 L
337.985 146.032 L
338.438 148.626 L
338.89 146.679 L
339.342 154.097 L
339.794 152.733 L
340.246 151.103 L
340.698 144.472 L
341.15 147.526 L
341.603 149.619 L
342.055 157.078 L
342.507 152.926 L
342.959 147.136 L
343.411 145.721 L
343.863 150.242 L
344.315 155.413 L
344.768 155.991 L
345.22 146.472 L
345.672 145.578 L
346.124 148.596 L
346.576 155.694 L
347.028 155.393 L
347.48 150.499 L
347.933 145.699 L
348.385 147.088 L
348.837 152.004 L
349.289 155.008 L
349.741 150.032 L
350.193 147.505 L
350.646 147.591 L
351.098 149.983 L
351.55 154.766 L
352.002 154.508 L
352.454 149.559 L
352.906 145.78 L
353.358 146.6 L
353.811 152.503 L
354.263 154.508 L
354.715 149.207 L
355.167 145.824 L
355.619 145.927 L
356.071 152.597 L
356.523 156 L
356.976 152.868 L
357.428 145.46 L
357.88 144.818 L
358.332 151.048 L
358.784 156.055 L
359.236 152.668 L
359.688 145.521 L
360.141 146.172 L
360.593 151.109 L
361.045 153.991 L
361.497 159.471 L
361.949 149.182 L
362.401 146.492 L
362.854 146.323 L
363.306 152.356 L
363.758 156.183 L
364.21 152.531 L
364.662 143.856 L
365.114 145.291 L
365.566 149.399 L
366.019 154.715 L
366.471 155.684 L
366.923 148.126 L
367.375 146.374 L
367.827 149.61 L
368.279 153.637 L
368.731 155.49 L
369.184 150.803 L
369.636 144.542 L
370.088 146.348 L
370.54 151.645 L
370.992 157.202 L
371.444 152.616 L
371.896 147.166 L
372.349 148.057 L
372.801 151.413 L
373.253 158.955 L
373.705 169.004 L
374.157 174.647 L
374.609 173.343 L
375.062 173.59 L
375.514 175.318 L
375.966 178.361 L
376.418 177.46 L
376.87 176.757 L
377.322 174.986 L
377.774 177.135 L
378.227 175.42 L
378.679 177.082 L
379.131 176.753 L
379.583 178.704 L
380.035 176.28 L
380.487 178.885 L
380.939 178.814 L
381.392 176.173 L
381.844 177.578 L
382.296 176.909 L
382.748 176.616 L
383.2 178.673 L
383.652 177.881 L
384.104 178.202 L
384.557 179.281 L
385.009 176.423 L
385.461 180.931 L
385.913 176.812 L
386.365 178.584 L
386.817 178.867 L
387.27 177.109 L
387.722 178.753 L
388.174 176.295 L
388.626 177.958 L
389.078 178.323 L
389.53 179.902 L
389.982 175.675 L
390.435 179.544 L
390.887 179.089 L
391.339 180.132 L
391.791 179.034 L
392.243 178.548 L
392.695 179.167 L
393.147 177.685 L
393.6 177.709 L
394.052 181.406 L
394.504 177.56 L
394.956 178.661 L
395.408 181.237 L
395.86 179.241 L
396.313 178.931 L
396.765 180.535 L
397.217 177.517 L
397.669 177.021 L
398.121 178.983 L
398.573 179.273 L
399.025 178.103 L
399.478 178.464 L
399.93 179.035 L
400.382 181.284 L
400.834 177.587 L
401.286 180.682 L
401.738 178.047 L
402.19 178.824 L
402.643 180.591 L
403.095 177.464 L
403.547 180.31 L
403.999 181.007 L
404.451 177.367 L
404.903 180.152 L
405.355 177.579 L
405.808 176.776 L
406.26 179.335 L
406.712 177.038 L
407.164 177.805 L
407.616 178.938 L
408.068 177.508 L
408.521 179.843 L
408.973 180.091 L
409.425 179.217 L
409.877 177.608 L
410.329 178.877 L
410.781 178.595 L
411.233 178.94 L
411.686 177.617 L
412.138 178.525 L
412.59 180.698 L
413.042 178.106 L
413.494 177.414 L
413.946 181.142 L
414.398 177.965 L
414.851 177.43 L
415.303 180.211 L
415.755 178.046 L
416.207 176.255 L
416.659 178.331 L
417.111 179.069 L
417.563 176.568 L
418.016 179.014 L
418.468 181.063 L
418.92 176.537 L
419.372 180.33 L
419.824 179.915 L
420.276 177.009 L
420.729 176.562 L
421.181 179.023 L
421.633 178.537 L
422.085 177.622 L
422.537 181.838 L
422.989 176.601 L
423.441 179.902 L
423.894 181.992 L
424.346 177.621 L
424.798 177.317 L
425.25 181.004 L
425.702 176.699 L
426.154 179.986 L
426.606 179.37 L
427.059 177.394 L
427.511 179.556 L
427.963 178.159 L
428.415 179.017 L
428.867 181.405 L
429.319 179.89 L
429.771 176.334 L
430.224 179.3 L
430.676 180.272 L
431.128 176.444 L
431.58 179.916 L
432.032 178.54 L
432.484 179.633 L
432.937 179.784 L
433.389 177.065 L
433.841 178.787 L
434.293 179.495 L
434.745 178.09 L
435.197 178.128 L
435.649 179.734 L
436.102 177.414 L
436.554 177.705 L
437.006 178.774 L
437.458 178.293 L
437.91 178.837 L
438.362 180.202 L
438.814 176.754 L
439.267 178.595 L
439.719 178.928 L
440.171 176.341 L
440.623 177.418 L
441.075 176.988 L
441.527 179.5 L
441.979 181.355 L
442.432 177.384 L
442.884 179.709 L
443.336 179.699 L
443.788 180.964 L
444.24 178.664 L
444.692 180.106 L
445.145 180.166 L
445.597 177.722 L
446.049 177.898 L
446.501 181.602 L
446.953 178.798 L
447.405 177.632 L
447.857 179.471 L
448.31 179.734 L
448.762 178.166 L
449.214 181.876 L
449.666 178.737 L
450.118 180.62 L
450.57 176.432 L
451.022 179.152 L
451.475 177.395 L
451.927 178.431 L
452.379 176.247 L
452.831 177.081 L
453.283 176.872 L
453.735 178.19 L
454.188 178.098 L
454.64 179.437 L
455.092 177.957 L
455.544 180.664 L
455.996 178.697 L
456.448 178.255 L
456.9 182.288 L
457.353 179.8 L
457.805 177.566 L
458.257 179.815 L
458.709 177.798 L
459.161 179.557 L
459.613 177.743 L
460.065 181.344 L
460.518 179.394 L
460.97 177.422 L
461.422 180.336 L
461.874 178.677 L
462.326 176.116 L
462.778 175.97 L
463.23 179.139 L
463.683 180.9 L
464.135 179.08 L
464.587 179.071 L
465.039 177.024 L
465.491 176.662 L
465.943 177.718 L
466.396 177.384 L
466.848 177.64 L
467.3 176.223 L
467.752 176.363 L
468.204 178.509 L
468.656 178.37 L
469.108 181.449 L
469.561 175.044 L
470.013 179.801 L
470.465 176.969 L
470.917 180.297 L
471.369 179.192 L
471.821 177.507 L
472.273 178.339 L
472.726 178.834 L
473.178 178.915 L
473.63 180.246 L
474.082 178.335 L
474.534 178.422 L
474.986 178.654 L
475.438 178.281 L
475.891 177.395 L
476.343 180.042 L
476.795 177.208 L
477.247 175.396 L
477.699 178.955 L
478.151 177.782 L
478.604 179.604 L
479.056 178.519 L
479.508 177.933 L
479.96 180.481 L
480.412 178.826 L
480.864 178.584 L
481.316 176.063 L
481.769 178.313 L
482.221 178.176 L
482.673 178.772 L
483.125 179.025 L
483.577 177.795 L
484.029 178.235 L
484.481 176.953 L
484.934 176.745 L
485.386 177.92 L
485.838 178.477 L
486.29 178.959 L
486.742 179.769 L
487.194 178.949 L
487.646 177.396 L
488.099 178.01 L
488.551 175.621 L
489.003 177.92 L
489.455 176.422 L
489.907 178.652 L
490.359 178.297 L
490.812 176.594 L
491.264 177.678 L
491.716 181.138 L
492.168 179.893 L
492.62 178.788 L
493.072 178.093 L
493.524 181.072 L
493.977 179.943 L
494.429 179.515 L
494.881 174.897 L
495.333 179.875 L
495.785 175.879 L
496.237 179.12 L
496.689 177.264 L
497.142 175.544 L
497.594 176.823 L
498.046 178.276 L
498.498 176.246 L
498.95 179.589 L
499.402 177.919 L
499.854 179.261 L
500.307 178.102 L
500.759 179.046 L
501.211 178.68 L
501.663 178.854 L
502.115 178.419 L
502.567 179.094 L
503.02 182.542 L
503.472 179.513 L
503.924 178.993 L
504.376 177.105 L
504.828 176.845 L
505.28 178.645 L
505.732 177.581 L
506.185 177.427 L
506.637 179.527 L
507.089 177.418 L
507.541 178.649 L
507.993 180.249 L
508.445 177.146 L
508.897 177.439 L
509.35 178.897 L
509.802 178.427 L
510.254 179.265 L
510.706 181.41 L
511.158 181.649 L
511.61 178.892 L
512.063 180.633 L
512.515 179.043 L
512.967 178.485 L
513.419 180.745 L
513.871 178.574 L
514.323 179.716 L
514.775 180.272 L
515.228 180.506 L
515.68 177.56 L
516.132 177.146 L
516.584 177.609 L
517.036 178.691 L
517.488 178.893 L
517.94 178.878 L
518.393 181.371 L
518.845 178.872 L
519.297 175.831 L
519.749 178.166 L
520.201 180.092 L
520.653 179.209 L
521.105 179.129 L
521.558 179.396 L
522.01 180.321 L
522.462 177.518 L
522.914 178.662 L
523.366 175.544 L
523.818 180.731 L
524.271 177.688 L
524.723 177.847 L
525.175 178.63 L
525.627 176.789 L
526.079 178.672 L
526.531 177.656 L
526.983 180.049 L
527.436 179.985 L
527.888 178.877 L
528.34 178.157 L
528.792 178.386 L
529.244 177.569 L
529.696 178.783 L
530.148 176.58 L
530.601 178.285 L
531.053 179.947 L
531.505 178.61 L
531.957 179.851 L
532.409 176.987 L
532.861 177.705 L
533.313 178.821 L
533.766 179.468 L
534.218 181.148 L
534.67 179.373 L
535.122 177.727 L
535.574 177.361 L
536.026 178.847 L
536.479 179.02 L
536.931 179.217 L
537.383 177.939 L
537.835 179.905 L
538.287 182.398 L
538.739 176.903 L
539.191 177.088 L
539.644 178.007 L
540.096 178.795 L
540.548 177.064 L
S
GR
GS
[0.75843 0 0 0.75866 0 0.189] CT
1 GC
N
283 89 M
283 39 L
104 39 L
104 89 L
cp
f
GR
GS
[0.75843 0 0 0.75866 114.0927 36.98421] CT
/Helvetica 11.875 F
GS
[1 0 0 1 0 0] CT
0 4.5 moveto 
1 -1 scale
(OFDM with hole) t 
GR
GR
GS
[0.75843 0 0 0.75866 0 0.189] CT
0 0.447 0.741 RC
1 LJ
0.66 LW
N
107.987 48.5 M
147.442 48.5 L
S
GR
GS
[0.75843 0 0 0.75866 114.0927 48.74351] CT
/Helvetica 11.875 F
GS
[1 0 0 1 0 0] CT
0 4.5 moveto 
1 -1 scale
(GMSK) t 
GR
GR
GS
[0.75843 0 0 0.75866 0 0.189] CT
0.851 0.325 0.098 RC
1 LJ
0.66 LW
N
107.987 64 M
147.442 64 L
S
GR
GS
[0.75843 0 0 0.75866 114.0927 60.5028] CT
/Helvetica 11.875 F
GS
[1 0 0 1 0 0] CT
0 4.5 moveto 
1 -1 scale
(OFDM+GMSK+AGWN) t 
GR
GR
GS
[0.75843 0 0 0.75866 0 0.189] CT
0.929 0.694 0.125 RC
1 LJ
0.66 LW
N
107.987 79.5 M
147.442 79.5 L
S
GR
GS
[0.75843 0 0 0.75866 0 0.189] CT
0.149 GC
10.0 ML
0.66 LW
N
104 89 M
104 39 L
283 39 L
283 89 L
cp
S
GR
%%Trailer
%%Pages: 1
%%EOF
